
!!!!!!!!!!!!!!!!!!!!!!!!!!!!!!!!!!!!!!!!!!!!!!!!!!!!!!!!!!!!!!!!!!!!!!!!!!!!!!!!!!!!!!!!!!!!!!!!!!!!!!!!!!!!!!!!!!!!!!!!!!!!!!!!
! Choices !!!!!!!!!!!!!!!!!!!!!!!!!!!!!!!!!!!!!!!!!!!!!!!!!!!!!!!!!!!!!!!!!!!!!!!!!!!!!!!!!!!!!!!!!!!!!!!!!!!!!!!!!!!!!!!!!!!!!!
!!!!!!!!!!!!!!!!!!!!!!!!!!!!!!!!!!!!!!!!!!!!!!!!!!!!!!!!!!!!!!!!!!!!!!!!!!!!!!!!!!!!!!!!!!!!!!!!!!!!!!!!!!!!!!!!!!!!!!!!!!!!!!!!

  * Type of vertex                    :    1            *    0 ... Pseudoscalar   (0--)
                                                        *    1 ... Vector         (1--)
                                                        *    2 ... Scalar         (0++)
                                                        *    3 ... Axial-vector   (1++)

  * C parity                          :    0            *    0 ... even            
                                                        *    1 ... odd             

  * Subroutine                        :    1            *    Transverse
                                           1            *    Longitudinal
                                           1            *    Complex                                                                       
                                           0            *    Complex z (test only)

  * Homogeneous/inhomogeneous BSE     :    1            *    0 ... Homogeneous BSE
                                                        *    1 ... Inhomogeneous BSE

  * Output basis                      :    4            *    1 ... Transverse + Longitudinal
                                                        *    2 ... Transverse only (use only for homogeneous BSE!)
                                                        *    3 ... Gauge + Transverse (with longitudinal solution)                                                                     
                                                        *    4 ... Gauge + Transverse (with quark propagator)
                                                        *    5 ... Tests

  * Purpose of the vertex             :    0            *    0   ... Just the vertex
                                                        *    1-3 ... Quark-diquark model
                                                        *    4-5 ... Faddeev
                                                        *    6   ... Onshell

!!!!!!!!!!!!!!!!!!!!!!!!!!!!!!!!!!!!!!!!!!!!!!!!!!!!!!!!!!!!!!!!!!!!!!!!!!!!!!!!!!!!!!!!!!!!!!!!!!!!!!!!!!!!!!!!!!!!!!!!!!!!!!!!
! Numerics !!!!!!!!!!!!!!!!!!!!!!!!!!!!!!!!!!!!!!!!!!!!!!!!!!!!!!!!!!!!!!!!!!!!!!!!!!!!!!!!!!!!!!!!!!!!!!!!!!!!!!!!!!!!!!!!!!!!!
!!!!!!!!!!!!!!!!!!!!!!!!!!!!!!!!!!!!!!!!!!!!!!!!!!!!!!!!!!!!!!!!!!!!!!!!!!!!!!!!!!!!!!!!!!!!!!!!!!!!!!!!!!!!!!!!!!!!!!!!!!!!!!!!

      - Photon momenta                :  100            *    12
          
      - Min value in Q2               :   -0.16         *    0.01      AV: -0.82    -0.01
      - Max value in Q2               : 1000000.0       *    10.0      AV: -0.815     1.0 

      - np                            :   48            *    Relative momentum, real axis (parallelized)   !    72                 ! 24  48
      - nz                            :   24            *                                                  !    24                 ! 12  24
      - ny                            :   24            *                                                                          ! 12  24

      - npxComplex                    :   60            *    Relative momentum, complex plane (parallelized)              
      - npyComplex                    :   30            *                                                                      

      - nCheb                         :    8            *    Chebyshev moments                                                     !  4   8
      - nChebOutput                   :    4            *    Chebyshev moments for real-axis file output                       


!!!!!!!!!!!!!!!!!!!!!!!!!!!!!!!!!!!!!!!!!!!!!!!!!!!!!!!!!!!!!!!!!!!!!!!!!!!!!!!!!!!!!!!!!!!!!!!!!!!!!!!!!!!!!!!!!!!!!!!!!!!!!!!!
! Expert mode !!!!!!!!!!!!!!!!!!!!!!!!!!!!!!!!!!!!!!!!!!!!!!!!!!!!!!!!!!!!!!!!!!!!!!!!!!!!!!!!!!!!!!!!!!!!!!!!!!!!!!!!!!!!!!!!!! 
!!!!!!!!!!!!!!!!!!!!!!!!!!!!!!!!!!!!!!!!!!!!!!!!!!!!!!!!!!!!!!!!!!!!!!!!!!!!!!!!!!!!!!!!!!!!!!!!!!!!!!!!!!!!!!!!!!!!!!!!!!!!!!!!
                       
                                                        
  * Expert mode?                      :        0                                      :          
  
  
  * Transverse iteration:             :  1  :  2  :  3  :  4  :  5  :  6  :  7  :  8  :        

    Driving terms                     :  1  :  0  :  0  :  0  :  0  :  0  :  0  :  0  :       
    Driving Cheby                     :  0  :  0  :  0  :  0  :  0  :  0  :  0  :  0  :       

    Start term                        :        1                                      :     
    Start Cheby                       :        0                                      :    
  
  
  * Longitudinal iteration:           :  1  :  2  :  3  :  4  :   
  
    Driving term                      :  1  :  0  :  0  :  0  :
    Driving Cheby                     :  0  :  0  :  0  :  0  :      

    Start term                        :        1                                      :     
    Start Cheby                       :        0                                      :       


