#include <typedefs.h>
#include <routing_amount_scalars.h>
#include <extra_def.h>
//#include <math_ops.h>

void kernelL_notopti_qphv(matCdoub& kern,
                              const ArrayScalarProducts& sp,
                const array<Cdoub, K_ORDER_OF_ANGLE>& ang ){


    // local variables
    Cdoub denom=0.0;


    denom =  - 4.E+0*P_P*p_p + 4.E+0*pow(P_p,2);

    kern[0][0] =  4.E+0*P_P*p_p*ang1 - 1.2E+1*P_p*P_l*p_p*ang0 - 4.E+0*
      P_p*P_l*l_l*ang0 + 4.E+0*P_p*P_l*ang1 + 4.E+0*pow(P_p,2)*p_p*ang0
       + 4.E+0*pow(P_p,2)*l_l*ang0 - 8.E+0*pow(P_p,2)*ang1 + 8.E+0*pow(
      P_l,2)*p_p*ang0;
 
    kern[0][0] = (1.0/ denom)* kern[0][0]; 
    kern[0][1] =   - 6.E+0*P_p*P_l*p_p*ang1 + 2.E+0*P_p*P_l*pow(p_p,2)*
      ang0 - 2.E+0*P_p*P_l*l_l*ang1 - 2.E+0*P_p*P_l*pow(l_l,2)*ang0 + 
      4.E+0*P_p*P_l*ang2 + 4.E+0*pow(P_l,2)*p_p*l_l*ang0 + 8.E+0*pow(
      P_l,2)*p_p*ang1 - 4.E+0*pow(P_l,2)*pow(p_p,2)*ang0;
 
    kern[0][1] = (1.0/ denom)* kern[0][1]; 
    kern[0][2] =   0;
 
    kern[0][2] = (1.0/ denom)* kern[0][2]; 
    kern[0][3] =   0;
 
    kern[0][3] = (1.0/ denom)* kern[0][3]; 
    kern[0][4] =   0;
 
    kern[0][4] = (1.0/ denom)* kern[0][4]; 
    kern[0][5] =   0;
 
    kern[0][5] = (1.0/ denom)* kern[0][5]; 
    kern[0][6] =   0;
 
    kern[0][6] = (1.0/ denom)* kern[0][6]; 
    kern[0][7] =   0;
 
    kern[0][7] = (1.0/ denom)* kern[0][7]; 
    kern[0][8] =   0;
 
    kern[0][8] = (1.0/ denom)* kern[0][8]; 
    kern[0][9] =   0;
 
    kern[0][9] = (1.0/ denom)* kern[0][9]; 
    kern[0][10] =   0;
 
    kern[0][10] = (1.0/ denom)* kern[0][10]; 
    kern[0][11] =   0;
 
    kern[0][11] = (1.0/ denom)* kern[0][11]; 

    denom =  - 4.E+0*P_P*P_p*p_p + 4.E+0*pow(P_p,3);

    kern[1][0] =  4.E+0*P_P*P_p*p_p*ang0 - 4.E+0*P_P*P_p*l_l*ang0 + 
      4.E+0*P_P*P_p*ang1 - 4.E+0*P_P*P_l*p_p*ang0 + 4.E+0*P_P*P_l*l_l*
      ang0 - 4.E+0*P_P*P_l*ang1 - 8.E+0*P_p*pow(P_l,2)*ang0 + 1.6E+1*
      pow(P_p,2)*P_l*ang0 - 8.E+0*pow(P_p,3)*ang0;
 
    kern[1][0] = (1.0/ denom)* kern[1][0]; 
    kern[1][1] =   - 4.E+0*P_P*P_l*p_p*l_l*ang0 + 2.E+0*P_P*P_l*p_p*
      ang1 + 2.E+0*P_P*P_l*pow(p_p,2)*ang0 + 2.E+0*P_P*P_l*l_l*ang1 + 
      2.E+0*P_P*P_l*pow(l_l,2)*ang0 - 4.E+0*P_P*P_l*ang2 + 4.E+0*P_p*
      pow(P_l,2)*p_p*ang0 - 4.E+0*P_p*pow(P_l,2)*l_l*ang0 - 8.E+0*P_p*
      pow(P_l,2)*ang1 - 4.E+0*pow(P_p,2)*P_l*p_p*ang0 + 4.E+0*pow(
      P_p,2)*P_l*l_l*ang0 + 4.E+0*pow(P_p,2)*P_l*ang1;
 
    kern[1][1] = (1.0/ denom)* kern[1][1]; 
    kern[1][2] =   0;
 
    kern[1][2] = (1.0/ denom)* kern[1][2]; 
    kern[1][3] =   0;
 
    kern[1][3] = (1.0/ denom)* kern[1][3]; 
    kern[1][4] =   0;
 
    kern[1][4] = (1.0/ denom)* kern[1][4]; 
    kern[1][5] =   0;
 
    kern[1][5] = (1.0/ denom)* kern[1][5]; 
    kern[1][6] =   0;
 
    kern[1][6] = (1.0/ denom)* kern[1][6]; 
    kern[1][7] =   0;
 
    kern[1][7] = (1.0/ denom)* kern[1][7]; 
    kern[1][8] =   0;
 
    kern[1][8] = (1.0/ denom)* kern[1][8]; 
    kern[1][9] =   0;
 
    kern[1][9] = (1.0/ denom)* kern[1][9]; 
    kern[1][10] =   0;
 
    kern[1][10] = (1.0/ denom)* kern[1][10]; 
    kern[1][11] =   0;
 
    kern[1][11] = (1.0/ denom)* kern[1][11]; 

    denom = 4.E+0*P_p;

    kern[2][0] =   0;
 
    kern[2][0] = (1.0/ denom)* kern[2][0]; 
    kern[2][1] =   0;
 
    kern[2][1] = (1.0/ denom)* kern[2][1]; 
    kern[2][2] =  1.2E+1*P_l*ang1;
 
    kern[2][2] = (1.0/ denom)* kern[2][2]; 
    kern[2][3] =   0;
 
    kern[2][3] = (1.0/ denom)* kern[2][3]; 
    kern[2][4] =   0;
 
    kern[2][4] = (1.0/ denom)* kern[2][4]; 
    kern[2][5] =   0;
 
    kern[2][5] = (1.0/ denom)* kern[2][5]; 
    kern[2][6] =   0;
 
    kern[2][6] = (1.0/ denom)* kern[2][6]; 
    kern[2][7] =   0;
 
    kern[2][7] = (1.0/ denom)* kern[2][7]; 
    kern[2][8] =   0;
 
    kern[2][8] = (1.0/ denom)* kern[2][8]; 
    kern[2][9] =   0;
 
    kern[2][9] = (1.0/ denom)* kern[2][9]; 
    kern[2][10] =   0;
 
    kern[2][10] = (1.0/ denom)* kern[2][10]; 
    kern[2][11] =   0;
 
    kern[2][11] = (1.0/ denom)* kern[2][11]; 

    denom =  - 1.6E+1*P_P*p_p + 1.6E+1*pow(P_p,2);

    kern[3][0] =   0;
 
    kern[3][0] = (1.0/ denom)* kern[3][0]; 
    kern[3][1] =   0;
 
    kern[3][1] = (1.0/ denom)* kern[3][1]; 
    kern[3][2] =   0;
 
    kern[3][2] = (1.0/ denom)* kern[3][2]; 
    kern[3][3] =  1.6E+1*P_P*p_p*l_l*ang0 + 8.E+0*P_P*p_p*ang1 - 8.E+0*
      P_P*pow(p_p,2)*ang0 + 8.E+0*P_P*l_l*ang1 - 8.E+0*P_P*pow(l_l,2)*
      ang0 + 3.2E+1*P_p*P_l*p_p*ang0 + 3.2E+1*P_p*P_l*l_l*ang0 - 1.6E+1
      *P_p*P_l*ang1 - 3.2E+1*pow(P_p,2)*l_l*ang0 - 3.2E+1*pow(P_l,2)*
      p_p*ang0;
 
    kern[3][3] = (1.0/ denom)* kern[3][3]; 
    kern[3][4] =   0;
 
    kern[3][4] = (1.0/ denom)* kern[3][4]; 
    kern[3][5] =   0;
 
    kern[3][5] = (1.0/ denom)* kern[3][5]; 
    kern[3][6] =   0;
 
    kern[3][6] = (1.0/ denom)* kern[3][6]; 
    kern[3][7] =   0;
 
    kern[3][7] = (1.0/ denom)* kern[3][7]; 
    kern[3][8] =   0;
 
    kern[3][8] = (1.0/ denom)* kern[3][8]; 
    kern[3][9] =   0;
 
    kern[3][9] = (1.0/ denom)* kern[3][9]; 
    kern[3][10] =   0;
 
    kern[3][10] = (1.0/ denom)* kern[3][10]; 
    kern[3][11] =   0;
 
    kern[3][11] = (1.0/ denom)* kern[3][11]; 

    denom =  - 1.6E+1*P_P*pow(P_p,2)*p_p + 8.E+0*pow(P_P,2)*pow(p_p,2)
       + 8.E+0*pow(P_p,4);

    kern[4][0] =   - 4.E+0*P_P*p_p*l_l*ang1 + 2.E+0*P_P*p_p*pow(l_l,2)*
      ang0 + 2.E+0*P_P*p_p*ang2 - 4.E+0*P_P*pow(p_p,2)*l_l*ang0 - 4.E+0
      *P_P*pow(p_p,2)*ang1 + 2.E+0*P_P*pow(p_p,3)*ang0 - 2.4E+1*P_p*P_l
      *p_p*l_l*ang0 + 2.4E+1*P_p*P_l*p_p*ang1 - 2.4E+1*P_p*P_l*pow(
      p_p,2)*ang0 + 1.6E+1*pow(P_p,2)*p_p*l_l*ang0 - 8.E+0*pow(P_p,2)*
      p_p*ang1 + 4.E+0*pow(P_p,2)*pow(p_p,2)*ang0 - 8.E+0*pow(P_p,2)*
      l_l*ang1 + 4.E+0*pow(P_p,2)*pow(l_l,2)*ang0 + 4.E+0*pow(P_p,2)*
      ang2 + 2.4E+1*pow(P_l,2)*pow(p_p,2)*ang0;
 
    kern[4][0] = (1.0/ denom)* kern[4][0]; 
    kern[4][1] =   - 3.E+0*P_P*p_p*l_l*ang2 + P_P*p_p*pow(l_l,3)*ang0
       + 2.E+0*P_P*p_p*ang3 - 4.E+0*P_P*pow(p_p,2)*l_l*ang1 - 3.E+0*P_P
      *pow(p_p,2)*pow(l_l,2)*ang0 - 5.E+0*P_P*pow(p_p,2)*ang2 + 3.E+0*
      P_P*pow(p_p,3)*l_l*ang0 + 4.E+0*P_P*pow(p_p,3)*ang1 - P_P*pow(
      p_p,4)*ang0 - 1.2E+1*P_p*P_l*p_p*l_l*ang1 - 1.2E+1*P_p*P_l*p_p*
      pow(l_l,2)*ang0 + 2.4E+1*P_p*P_l*p_p*ang2 - 3.6E+1*P_p*P_l*pow(
      p_p,2)*ang1 + 1.2E+1*P_p*P_l*pow(p_p,3)*ang0 + 1.6E+1*pow(P_p,2)*
      p_p*l_l*ang1 + 6.E+0*pow(P_p,2)*p_p*pow(l_l,2)*ang0 - 1.E+1*pow(
      P_p,2)*p_p*ang2 - 6.E+0*pow(P_p,2)*pow(p_p,2)*l_l*ang0 + 8.E+0*
      pow(P_p,2)*pow(p_p,2)*ang1 - 2.E+0*pow(P_p,2)*pow(p_p,3)*ang0 - 
      6.E+0*pow(P_p,2)*l_l*ang2 + 2.E+0*pow(P_p,2)*pow(l_l,3)*ang0 + 
      4.E+0*pow(P_p,2)*ang3 + 1.2E+1*pow(P_l,2)*pow(p_p,2)*l_l*ang0 + 
      2.4E+1*pow(P_l,2)*pow(p_p,2)*ang1 - 1.2E+1*pow(P_l,2)*pow(p_p,3)*
      ang0;
 
    kern[4][1] = (1.0/ denom)* kern[4][1]; 
    kern[4][2] =   0;
 
    kern[4][2] = (1.0/ denom)* kern[4][2]; 
    kern[4][3] =   0;
 
    kern[4][3] = (1.0/ denom)* kern[4][3]; 
    kern[4][4] =   - 1.6E+1*P_P*P_p*P_l*p_p*l_l*ang0 + 1.6E+1*P_P*P_p*
      P_l*p_p*ang1 + 8.E+0*P_P*pow(P_p,2)*p_p*l_l*ang0 + 1.6E+1*P_P*
      pow(P_p,2)*p_p*ang1 - 4.E+0*P_P*pow(P_p,2)*pow(p_p,2)*ang0 - 
      8.E+0*P_P*pow(P_p,2)*l_l*ang1 + 4.E+0*P_P*pow(P_p,2)*pow(l_l,2)*
      ang0 + 4.E+0*P_P*pow(P_p,2)*ang2 + 8.E+0*P_P*pow(P_l,2)*pow(
      p_p,2)*ang0 - 4.E+0*pow(P_P,2)*p_p*l_l*ang1 + 2.E+0*pow(P_P,2)*
      p_p*pow(l_l,2)*ang0 + 2.E+0*pow(P_P,2)*p_p*ang2 - 4.E+0*pow(
      P_P,2)*pow(p_p,2)*l_l*ang0 - 1.2E+1*pow(P_P,2)*pow(p_p,2)*ang1 + 
      2.E+0*pow(P_P,2)*pow(p_p,3)*ang0 + 1.6E+1*pow(P_p,2)*pow(P_l,2)*
      p_p*ang0 - 2.4E+1*pow(P_p,3)*P_l*p_p*ang0 - 8.E+0*pow(P_p,3)*P_l*
      l_l*ang0 + 8.E+0*pow(P_p,3)*P_l*ang1 + 8.E+0*pow(P_p,4)*p_p*ang0
       + 8.E+0*pow(P_p,4)*l_l*ang0 - 1.6E+1*pow(P_p,4)*ang1;
 
    kern[4][4] = (1.0/ denom)* kern[4][4]; 
    kern[4][5] =   0;
 
    kern[4][5] = (1.0/ denom)* kern[4][5]; 
    kern[4][6] =   0;
 
    kern[4][6] = (1.0/ denom)* kern[4][6]; 
    kern[4][7] =   0;
 
    kern[4][7] = (1.0/ denom)* kern[4][7]; 
    kern[4][8] =   0;
 
    kern[4][8] = (1.0/ denom)* kern[4][8]; 
    kern[4][9] =   - 8.E+0*P_P*P_p*P_l*p_p*l_l*ang1 - 8.E+0*P_P*P_p*P_l
      *p_p*pow(l_l,2)*ang0 + 1.6E+1*P_P*P_p*P_l*p_p*ang2 - 2.4E+1*P_P*
      P_p*P_l*pow(p_p,2)*ang1 + 8.E+0*P_P*P_p*P_l*pow(p_p,3)*ang0 + 
      1.6E+1*P_P*pow(P_p,2)*p_p*l_l*ang1 + 6.E+0*P_P*pow(P_p,2)*p_p*
      pow(l_l,2)*ang0 - 1.E+1*P_P*pow(P_p,2)*p_p*ang2 - 6.E+0*P_P*pow(
      P_p,2)*pow(p_p,2)*l_l*ang0 + 8.E+0*P_P*pow(P_p,2)*pow(p_p,2)*ang1
       - 2.E+0*P_P*pow(P_p,2)*pow(p_p,3)*ang0 - 6.E+0*P_P*pow(P_p,2)*
      l_l*ang2 + 2.E+0*P_P*pow(P_p,2)*pow(l_l,3)*ang0 + 4.E+0*P_P*pow(
      P_p,2)*ang3 + 4.E+0*P_P*pow(P_l,2)*pow(p_p,2)*l_l*ang0 + 8.E+0*
      P_P*pow(P_l,2)*pow(p_p,2)*ang1 - 4.E+0*P_P*pow(P_l,2)*pow(p_p,3)*
      ang0 - 3.E+0*pow(P_P,2)*p_p*l_l*ang2 + pow(P_P,2)*p_p*pow(l_l,3)*
      ang0 + 2.E+0*pow(P_P,2)*p_p*ang3 - 4.E+0*pow(P_P,2)*pow(p_p,2)*
      l_l*ang1 - 3.E+0*pow(P_P,2)*pow(p_p,2)*pow(l_l,2)*ang0 - 5.E+0*
      pow(P_P,2)*pow(p_p,2)*ang2 + 3.E+0*pow(P_P,2)*pow(p_p,3)*l_l*ang0
       + 4.E+0*pow(P_P,2)*pow(p_p,3)*ang1 - pow(P_P,2)*pow(p_p,4)*ang0
       + 8.E+0*pow(P_p,2)*pow(P_l,2)*p_p*l_l*ang0 + 1.6E+1*pow(P_p,2)*
      pow(P_l,2)*p_p*ang1 - 8.E+0*pow(P_p,2)*pow(P_l,2)*pow(p_p,2)*ang0
       - 1.2E+1*pow(P_p,3)*P_l*p_p*ang1 + 4.E+0*pow(P_p,3)*P_l*pow(
      p_p,2)*ang0 - 4.E+0*pow(P_p,3)*P_l*l_l*ang1 - 4.E+0*pow(P_p,3)*
      P_l*pow(l_l,2)*ang0 + 8.E+0*pow(P_p,3)*P_l*ang2;
 
    kern[4][9] = (1.0/ denom)* kern[4][9]; 
    kern[4][10] =  2.E+0*P_P*P_p*P_l*p_p*pow(l_l,2)*ang0 - 2.E+0*P_P*
      P_p*P_l*p_p*ang2 - 4.E+0*P_P*P_p*P_l*pow(p_p,2)*l_l*ang0 + 2.E+0*
      P_P*P_p*P_l*pow(p_p,3)*ang0 - 8.E+0*P_P*pow(P_l,2)*pow(p_p,2)*
      ang1 + 2.4E+1*P_p*pow(P_l,3)*pow(p_p,2)*ang0 - 2.4E+1*pow(P_p,2)*
      pow(P_l,2)*p_p*l_l*ang0 + 3.2E+1*pow(P_p,2)*pow(P_l,2)*p_p*ang1
       - 2.4E+1*pow(P_p,2)*pow(P_l,2)*pow(p_p,2)*ang0 + 1.6E+1*pow(
      P_p,3)*P_l*p_p*l_l*ang0 - 1.2E+1*pow(P_p,3)*P_l*p_p*ang1 + 4.E+0*
      pow(P_p,3)*P_l*pow(p_p,2)*ang0 - 1.2E+1*pow(P_p,3)*P_l*l_l*ang1
       + 4.E+0*pow(P_p,3)*P_l*pow(l_l,2)*ang0 + 8.E+0*pow(P_p,3)*P_l*
      ang2;
 
    kern[4][10] = (1.0/ denom)* kern[4][10]; 
    kern[4][11] =   0;
 
    kern[4][11] = (1.0/ denom)* kern[4][11]; 

    denom =  - 3.2E+1*P_P*pow(P_p,3)*p_p + 1.6E+1*pow(P_P,2)*P_p*pow(
      p_p,2) + 1.6E+1*pow(P_p,5);

    kern[5][0] =   0;
 
    kern[5][0] = (1.0/ denom)* kern[5][0]; 
    kern[5][1] =   0;
 
    kern[5][1] = (1.0/ denom)* kern[5][1]; 
    kern[5][2] =   0;
 
    kern[5][2] = (1.0/ denom)* kern[5][2]; 
    kern[5][3] =   - 1.6E+1*P_P*p_p*l_l*i_*ang1 + 8.E+0*P_P*p_p*pow(
      l_l,2)*i_*ang0 + 8.E+0*P_P*p_p*i_*ang2 - 1.6E+1*P_P*pow(p_p,2)*
      l_l*i_*ang0 - 1.6E+1*P_P*pow(p_p,2)*i_*ang1 + 8.E+0*P_P*pow(
      p_p,3)*i_*ang0 - 9.6E+1*P_p*P_l*p_p*l_l*i_*ang0 + 9.6E+1*P_p*P_l*
      p_p*i_*ang1 - 9.6E+1*P_p*P_l*pow(p_p,2)*i_*ang0 + 6.4E+1*pow(
      P_p,2)*p_p*l_l*i_*ang0 - 3.2E+1*pow(P_p,2)*p_p*i_*ang1 + 1.6E+1*
      pow(P_p,2)*pow(p_p,2)*i_*ang0 - 3.2E+1*pow(P_p,2)*l_l*i_*ang1 + 
      1.6E+1*pow(P_p,2)*pow(l_l,2)*i_*ang0 + 1.6E+1*pow(P_p,2)*i_*ang2
       + 9.6E+1*pow(P_l,2)*pow(p_p,2)*i_*ang0;
 
    kern[5][3] = (1.0/ denom)* kern[5][3]; 
    kern[5][4] =   0;
 
    kern[5][4] = (1.0/ denom)* kern[5][4]; 
    kern[5][5] =  1.6E+1*P_P*P_p*pow(P_l,2)*p_p*l_l*ang0 - 3.2E+1*P_P*
      P_p*pow(P_l,2)*p_p*ang1 + 1.6E+1*P_P*P_p*pow(P_l,2)*pow(p_p,2)*
      ang0 + 1.6E+1*P_P*pow(P_p,2)*P_l*p_p*l_l*ang0 + 2.4E+1*P_P*pow(
      P_p,2)*P_l*p_p*ang1 - 1.6E+1*P_P*pow(P_p,2)*P_l*pow(p_p,2)*ang0
       + 2.4E+1*P_P*pow(P_p,2)*P_l*l_l*ang1 - 1.6E+1*P_P*pow(P_p,2)*P_l
      *pow(l_l,2)*ang0 - 8.E+0*P_P*pow(P_p,2)*P_l*ang2 - 1.6E+1*P_P*
      pow(P_l,3)*pow(p_p,2)*ang0 + 4.E+0*pow(P_P,2)*P_l*p_p*pow(l_l,2)*
      ang0 - 4.E+0*pow(P_P,2)*P_l*p_p*ang2 - 8.E+0*pow(P_P,2)*P_l*pow(
      p_p,2)*l_l*ang0 + 4.E+0*pow(P_P,2)*P_l*pow(p_p,3)*ang0 - 3.2E+1*
      pow(P_p,2)*pow(P_l,3)*p_p*ang0 + 3.2E+1*pow(P_p,3)*pow(P_l,2)*p_p
      *ang0 + 3.2E+1*pow(P_p,3)*pow(P_l,2)*l_l*ang0 - 1.6E+1*pow(P_p,3)
      *pow(P_l,2)*ang1 - 3.2E+1*pow(P_p,4)*P_l*l_l*ang0;
 
    kern[5][5] = (1.0/ denom)* kern[5][5]; 
    kern[5][6] =  8.E+0*P_P*P_p*p_p*l_l*ang0 + 8.E+0*P_P*P_p*p_p*ang1
       + 4.E+0*P_P*P_p*pow(p_p,2)*ang0 + 2.4E+1*P_P*P_p*l_l*ang1 - 
      1.2E+1*P_P*P_p*pow(l_l,2)*ang0 - 1.2E+1*P_P*P_p*ang2 + 1.6E+1*P_P
      *P_l*p_p*l_l*ang0 - 1.6E+1*P_P*P_l*p_p*ang1 - 1.6E+1*P_P*P_l*pow(
      p_p,2)*ang0 - 4.8E+1*P_p*pow(P_l,2)*p_p*ang0 + 6.4E+1*pow(P_p,2)*
      P_l*p_p*ang0 + 3.2E+1*pow(P_p,2)*P_l*l_l*ang0 - 3.2E+1*pow(P_p,2)
      *P_l*ang1 - 1.6E+1*pow(P_p,3)*p_p*ang0 - 3.2E+1*pow(P_p,3)*l_l*
      ang0 + 1.6E+1*pow(P_p,3)*ang1;
 
    kern[5][6] = (1.0/ denom)* kern[5][6]; 
    kern[5][7] =   0;
 
    kern[5][7] = (1.0/ denom)* kern[5][7]; 
    kern[5][8] =   0;
 
    kern[5][8] = (1.0/ denom)* kern[5][8]; 
    kern[5][9] =   0;
 
    kern[5][9] = (1.0/ denom)* kern[5][9]; 
    kern[5][10] =   0;
 
    kern[5][10] = (1.0/ denom)* kern[5][10]; 
    kern[5][11] =  8.E+0*P_P*P_p*p_p*l_l*ang1 + 6.E+0*P_P*P_p*p_p*pow(
      l_l,2)*ang0 - 6.E+0*P_P*P_p*p_p*ang2 + 6.E+0*P_P*P_p*pow(p_p,2)*
      l_l*ang0 + 1.2E+1*P_P*P_p*pow(p_p,2)*ang1 - 6.E+0*P_P*P_p*pow(
      p_p,3)*ang0 - 6.E+0*P_P*P_p*l_l*ang2 + 1.2E+1*P_P*P_p*pow(l_l,2)*
      ang1 - 6.E+0*P_P*P_p*pow(l_l,3)*ang0 - 8.E+0*P_P*P_l*p_p*l_l*ang1
       + 8.E+0*P_P*P_l*p_p*pow(l_l,2)*ang0 - 1.6E+1*P_P*P_l*pow(p_p,2)*
      l_l*ang0 - 8.E+0*P_P*P_l*pow(p_p,2)*ang1 + 8.E+0*P_P*P_l*pow(
      p_p,3)*ang0 - 2.4E+1*P_p*pow(P_l,2)*p_p*l_l*ang0 - 2.4E+1*P_p*
      pow(P_l,2)*pow(p_p,2)*ang0 + 6.4E+1*pow(P_p,2)*P_l*p_p*l_l*ang0
       - 1.6E+1*pow(P_p,2)*P_l*p_p*ang1 + 1.6E+1*pow(P_p,2)*P_l*pow(
      p_p,2)*ang0 - 1.6E+1*pow(P_p,2)*P_l*l_l*ang1 + 1.6E+1*pow(P_p,2)*
      P_l*pow(l_l,2)*ang0 - 2.4E+1*pow(P_p,3)*p_p*l_l*ang0 + 1.6E+1*
      pow(P_p,3)*l_l*ang1 - 2.4E+1*pow(P_p,3)*pow(l_l,2)*ang0;
 
    kern[5][11] = (1.0/ denom)* kern[5][11]; 

    denom =  - 1.6E+1*P_P*p_p + 1.6E+1*pow(P_p,2);

    kern[6][0] =   0;
 
    kern[6][0] = (1.0/ denom)* kern[6][0]; 
    kern[6][1] =   0;
 
    kern[6][1] = (1.0/ denom)* kern[6][1]; 
    kern[6][2] =   0;
 
    kern[6][2] = (1.0/ denom)* kern[6][2]; 
    kern[6][3] =   - 1.6E+1*P_p*p_p*i_*ang1 + 1.6E+1*P_p*pow(p_p,2)*i_*
      ang0 + 1.6E+1*P_p*l_l*i_*ang1 - 1.6E+1*P_p*pow(l_l,2)*i_*ang0 + 
      3.2E+1*P_l*p_p*l_l*i_*ang0 - 3.2E+1*P_l*pow(p_p,2)*i_*ang0;
 
    kern[6][3] = (1.0/ denom)* kern[6][3]; 
    kern[6][4] =   0;
 
    kern[6][4] = (1.0/ denom)* kern[6][4]; 
    kern[6][5] =  8.E+0*P_P*P_p*P_l*p_p*ang1 - 8.E+0*P_P*P_p*P_l*pow(
      p_p,2)*ang0 - 8.E+0*P_P*P_p*P_l*l_l*ang1 + 8.E+0*P_P*P_p*P_l*pow(
      l_l,2)*ang0 - 1.6E+1*P_P*pow(P_l,2)*p_p*l_l*ang0 + 1.6E+1*P_P*
      pow(P_l,2)*pow(p_p,2)*ang0;
 
    kern[6][5] = (1.0/ denom)* kern[6][5]; 
    kern[6][6] =   - 8.E+0*P_P*p_p*l_l*ang0 + 8.E+0*P_P*p_p*ang1 + 
      4.E+0*P_P*pow(p_p,2)*ang0 - 8.E+0*P_P*l_l*ang1 + 4.E+0*P_P*pow(
      l_l,2)*ang0 + 4.E+0*P_P*ang2 + 3.2E+1*P_p*P_l*p_p*ang0 - 1.6E+1*
      pow(P_p,2)*p_p*ang0 - 1.6E+1*pow(P_l,2)*p_p*ang0;
 
    kern[6][6] = (1.0/ denom)* kern[6][6]; 
    kern[6][7] =   0;
 
    kern[6][7] = (1.0/ denom)* kern[6][7]; 
    kern[6][8] =   0;
 
    kern[6][8] = (1.0/ denom)* kern[6][8]; 
    kern[6][9] =   0;
 
    kern[6][9] = (1.0/ denom)* kern[6][9]; 
    kern[6][10] =   0;
 
    kern[6][10] = (1.0/ denom)* kern[6][10]; 
    kern[6][11] =   - 6.E+0*P_P*p_p*pow(l_l,2)*ang0 - 2.E+0*P_P*p_p*
      ang2 + 6.E+0*P_P*pow(p_p,2)*l_l*ang0 + 4.E+0*P_P*pow(p_p,2)*ang1
       - 2.E+0*P_P*pow(p_p,3)*ang0 + 2.E+0*P_P*l_l*ang2 - 4.E+0*P_P*
      pow(l_l,2)*ang1 + 2.E+0*P_P*pow(l_l,3)*ang0 - 8.E+0*pow(P_p,2)*
      p_p*l_l*ang0 + 8.E+0*pow(P_p,2)*pow(l_l,2)*ang0 - 8.E+0*pow(
      P_l,2)*p_p*l_l*ang0 + 8.E+0*pow(P_l,2)*pow(p_p,2)*ang0;
 
    kern[6][11] = (1.0/ denom)* kern[6][11]; 

    denom =  - 4.8E+1*P_P*p_p + 4.8E+1*pow(P_p,2);

    kern[7][0] =   0;
 
    kern[7][0] = (1.0/ denom)* kern[7][0]; 
    kern[7][1] =   0;
 
    kern[7][1] = (1.0/ denom)* kern[7][1]; 
    kern[7][2] =   0;
 
    kern[7][2] = (1.0/ denom)* kern[7][2]; 
    kern[7][3] =   0;
 
    kern[7][3] = (1.0/ denom)* kern[7][3]; 
    kern[7][4] =   0;
 
    kern[7][4] = (1.0/ denom)* kern[7][4]; 
    kern[7][5] =   0;
 
    kern[7][5] = (1.0/ denom)* kern[7][5]; 
    kern[7][6] =   0;
 
    kern[7][6] = (1.0/ denom)* kern[7][6]; 
    kern[7][7] =   - 2.4E+1*P_P*p_p*l_l*ang0 - 4.8E+1*P_P*p_p*ang1 + 
      1.2E+1*P_P*pow(p_p,2)*ang0 - 4.8E+1*P_P*l_l*ang1 + 1.2E+1*P_P*
      pow(l_l,2)*ang0 + 3.6E+1*P_P*ang2 - 4.8E+1*P_p*P_l*p_p*ang0 - 
      4.8E+1*P_p*P_l*l_l*ang0 + 9.6E+1*P_p*P_l*ang1 + 4.8E+1*pow(P_p,2)
      *l_l*ang0 + 4.8E+1*pow(P_l,2)*p_p*ang0;
 
    kern[7][7] = (1.0/ denom)* kern[7][7]; 
    kern[7][8] =   0;
 
    kern[7][8] = (1.0/ denom)* kern[7][8]; 
    kern[7][9] =   0;
 
    kern[7][9] = (1.0/ denom)* kern[7][9]; 
    kern[7][10] =   0;
 
    kern[7][10] = (1.0/ denom)* kern[7][10]; 
    kern[7][11] =   0;
 
    kern[7][11] = (1.0/ denom)* kern[7][11]; 

    denom =  - 4.E+0*P_P*P_p*p_p + 4.E+0*pow(P_p,3);

    kern[8][0] =   0;
 
    kern[8][0] = (1.0/ denom)* kern[8][0]; 
    kern[8][1] =   0;
 
    kern[8][1] = (1.0/ denom)* kern[8][1]; 
    kern[8][2] =  6.E+0*P_p*p_p*ang1 + 6.E+0*P_p*l_l*ang1 - 6.E+0*P_p*
      ang2 - 1.2E+1*P_l*p_p*ang1;
 
    kern[8][2] = (1.0/ denom)* kern[8][2]; 
    kern[8][3] =   0;
 
    kern[8][3] = (1.0/ denom)* kern[8][3]; 
    kern[8][4] =   0;
 
    kern[8][4] = (1.0/ denom)* kern[8][4]; 
    kern[8][5] =   0;
 
    kern[8][5] = (1.0/ denom)* kern[8][5]; 
    kern[8][6] =   0;
 
    kern[8][6] = (1.0/ denom)* kern[8][6]; 
    kern[8][7] =   0;
 
    kern[8][7] = (1.0/ denom)* kern[8][7]; 
    kern[8][8] =   - 6.E+0*P_P*P_p*p_p*ang1 - 6.E+0*P_P*P_p*l_l*ang1 + 
      6.E+0*P_P*P_p*ang2 + 1.2E+1*pow(P_p,2)*P_l*ang1;
 
    kern[8][8] = (1.0/ denom)* kern[8][8]; 
    kern[8][9] =   0;
 
    kern[8][9] = (1.0/ denom)* kern[8][9]; 
    kern[8][10] =   0;
 
    kern[8][10] = (1.0/ denom)* kern[8][10]; 
    kern[8][11] =   0;
 
    kern[8][11] = (1.0/ denom)* kern[8][11]; 

    denom =  - 1.6E+1*P_P*pow(P_p,3)*p_p + 8.E+0*pow(P_P,2)*P_p*pow(
      p_p,2) + 8.E+0*pow(P_p,5);

    kern[9][0] =  4.E+0*P_P*P_p*p_p*l_l*ang0 + 4.E+0*P_P*P_p*p_p*ang1
       + 2.E+0*P_P*P_p*pow(p_p,2)*ang0 + 1.2E+1*P_P*P_p*l_l*ang1 - 
      6.E+0*P_P*P_p*pow(l_l,2)*ang0 - 6.E+0*P_P*P_p*ang2 + 8.E+0*P_P*
      P_l*p_p*l_l*ang0 - 8.E+0*P_P*P_l*p_p*ang1 - 8.E+0*P_P*P_l*pow(
      p_p,2)*ang0 - 2.4E+1*P_p*pow(P_l,2)*p_p*ang0 + 3.2E+1*pow(P_p,2)*
      P_l*p_p*ang0 + 1.6E+1*pow(P_p,2)*P_l*l_l*ang0 - 1.6E+1*pow(P_p,2)
      *P_l*ang1 - 8.E+0*pow(P_p,3)*p_p*ang0 - 1.6E+1*pow(P_p,3)*l_l*
      ang0 + 8.E+0*pow(P_p,3)*ang1;
 
    kern[9][0] = (1.0/ denom)* kern[9][0]; 
    kern[9][1] =   - 4.E+0*P_P*P_p*p_p*l_l*ang1 + 5.E+0*P_P*P_p*p_p*
      pow(l_l,2)*ang0 + 1.1E+1*P_P*P_p*p_p*ang2 - P_P*P_p*pow(p_p,2)*
      l_l*ang0 - 4.E+0*P_P*P_p*pow(p_p,2)*ang1 - P_P*P_p*pow(p_p,3)*
      ang0 + 9.E+0*P_P*P_p*l_l*ang2 - 3.E+0*P_P*P_p*pow(l_l,3)*ang0 - 
      6.E+0*P_P*P_p*ang3 + 4.E+0*P_P*P_l*p_p*l_l*ang1 + 4.E+0*P_P*P_l*
      p_p*pow(l_l,2)*ang0 - 8.E+0*P_P*P_l*p_p*ang2 - 8.E+0*P_P*P_l*pow(
      p_p,2)*l_l*ang0 + 4.E+0*P_P*P_l*pow(p_p,2)*ang1 + 4.E+0*P_P*P_l*
      pow(p_p,3)*ang0 - 1.2E+1*P_p*pow(P_l,2)*p_p*l_l*ang0 - 2.4E+1*P_p
      *pow(P_l,2)*p_p*ang1 + 1.2E+1*P_p*pow(P_l,2)*pow(p_p,2)*ang0 + 
      8.E+0*pow(P_p,2)*P_l*p_p*l_l*ang0 + 3.2E+1*pow(P_p,2)*P_l*p_p*
      ang1 - 1.6E+1*pow(P_p,2)*P_l*pow(p_p,2)*ang0 + 8.E+0*pow(P_p,2)*
      P_l*l_l*ang1 + 8.E+0*pow(P_p,2)*P_l*pow(l_l,2)*ang0 - 1.6E+1*pow(
      P_p,2)*P_l*ang2 + 4.E+0*pow(P_p,3)*p_p*l_l*ang0 - 8.E+0*pow(
      P_p,3)*p_p*ang1 + 4.E+0*pow(P_p,3)*pow(p_p,2)*ang0 - 8.E+0*pow(
      P_p,3)*l_l*ang1 - 8.E+0*pow(P_p,3)*pow(l_l,2)*ang0 + 4.E+0*pow(
      P_p,3)*ang2;
 
    kern[9][1] = (1.0/ denom)* kern[9][1]; 
    kern[9][2] =   0;
 
    kern[9][2] = (1.0/ denom)* kern[9][2]; 
    kern[9][3] =   0;
 
    kern[9][3] = (1.0/ denom)* kern[9][3]; 
    kern[9][4] =   - 8.E+0*P_P*P_p*pow(P_l,2)*p_p*ang0 - 8.E+0*P_P*pow(
      P_p,2)*P_l*p_p*ang0 + 2.4E+1*P_P*pow(P_p,2)*P_l*l_l*ang0 - 2.4E+1
      *P_P*pow(P_p,2)*P_l*ang1 + 1.6E+1*P_P*pow(P_p,3)*p_p*ang0 - 
      2.4E+1*P_P*pow(P_p,3)*l_l*ang0 + 1.6E+1*P_P*pow(P_p,3)*ang1 + 
      1.2E+1*pow(P_P,2)*P_p*p_p*l_l*ang0 - 4.E+0*pow(P_P,2)*P_p*p_p*
      ang1 - 6.E+0*pow(P_P,2)*P_p*pow(p_p,2)*ang0 + 1.2E+1*pow(P_P,2)*
      P_p*l_l*ang1 - 6.E+0*pow(P_P,2)*P_p*pow(l_l,2)*ang0 - 6.E+0*pow(
      P_P,2)*P_p*ang2 - 1.6E+1*pow(P_p,3)*pow(P_l,2)*ang0 + 3.2E+1*pow(
      P_p,4)*P_l*ang0 - 1.6E+1*pow(P_p,5)*ang0;
 
    kern[9][4] = (1.0/ denom)* kern[9][4]; 
    kern[9][5] =   0;
 
    kern[9][5] = (1.0/ denom)* kern[9][5]; 
    kern[9][6] =   0;
 
    kern[9][6] = (1.0/ denom)* kern[9][6]; 
    kern[9][7] =   0;
 
    kern[9][7] = (1.0/ denom)* kern[9][7]; 
    kern[9][8] =   0;
 
    kern[9][8] = (1.0/ denom)* kern[9][8]; 
    kern[9][9] =   - 4.E+0*P_P*P_p*pow(P_l,2)*p_p*l_l*ang0 - 8.E+0*P_P*
      P_p*pow(P_l,2)*p_p*ang1 + 4.E+0*P_P*P_p*pow(P_l,2)*pow(p_p,2)*
      ang0 - 8.E+0*P_P*pow(P_p,2)*P_l*p_p*l_l*ang0 + 2.8E+1*P_P*pow(
      P_p,2)*P_l*p_p*ang1 - 4.E+0*P_P*pow(P_p,2)*P_l*pow(p_p,2)*ang0 + 
      1.2E+1*P_P*pow(P_p,2)*P_l*l_l*ang1 + 1.2E+1*P_P*pow(P_p,2)*P_l*
      pow(l_l,2)*ang0 - 2.4E+1*P_P*pow(P_p,2)*P_l*ang2 + 4.E+0*P_P*pow(
      P_p,3)*p_p*l_l*ang0 - 8.E+0*P_P*pow(P_p,3)*p_p*ang1 + 4.E+0*P_P*
      pow(P_p,3)*pow(p_p,2)*ang0 - 8.E+0*P_P*pow(P_p,3)*l_l*ang1 - 
      8.E+0*P_P*pow(P_p,3)*pow(l_l,2)*ang0 + 4.E+0*P_P*pow(P_p,3)*ang2
       - 4.E+0*pow(P_P,2)*P_p*p_p*l_l*ang1 + 5.E+0*pow(P_P,2)*P_p*p_p*
      pow(l_l,2)*ang0 + 1.1E+1*pow(P_P,2)*P_p*p_p*ang2 - pow(P_P,2)*P_p
      *pow(p_p,2)*l_l*ang0 - 4.E+0*pow(P_P,2)*P_p*pow(p_p,2)*ang1 - 
      pow(P_P,2)*P_p*pow(p_p,3)*ang0 + 9.E+0*pow(P_P,2)*P_p*l_l*ang2 - 
      3.E+0*pow(P_P,2)*P_p*pow(l_l,3)*ang0 - 6.E+0*pow(P_P,2)*P_p*ang3
       + 8.E+0*pow(P_p,3)*pow(P_l,2)*p_p*ang0 - 8.E+0*pow(P_p,3)*pow(
      P_l,2)*l_l*ang0 - 1.6E+1*pow(P_p,3)*pow(P_l,2)*ang1 - 8.E+0*pow(
      P_p,4)*P_l*p_p*ang0 + 8.E+0*pow(P_p,4)*P_l*l_l*ang0 + 8.E+0*pow(
      P_p,4)*P_l*ang1;
 
    kern[9][9] = (1.0/ denom)* kern[9][9]; 
    kern[9][10] =  8.E+0*P_P*P_p*pow(P_l,2)*p_p*l_l*ang0 - 8.E+0*P_P*
      P_p*pow(P_l,2)*p_p*ang1 - 8.E+0*P_P*P_p*pow(P_l,2)*pow(p_p,2)*
      ang0 + 4.E+0*P_P*pow(P_p,2)*P_l*p_p*l_l*ang0 + 4.E+0*P_P*pow(
      P_p,2)*P_l*p_p*ang1 + 2.E+0*P_P*pow(P_p,2)*P_l*pow(p_p,2)*ang0 + 
      1.2E+1*P_P*pow(P_p,2)*P_l*l_l*ang1 - 6.E+0*P_P*pow(P_p,2)*P_l*
      pow(l_l,2)*ang0 - 6.E+0*P_P*pow(P_p,2)*P_l*ang2 - 2.4E+1*pow(
      P_p,2)*pow(P_l,3)*p_p*ang0 + 3.2E+1*pow(P_p,3)*pow(P_l,2)*p_p*
      ang0 + 1.6E+1*pow(P_p,3)*pow(P_l,2)*l_l*ang0 - 1.6E+1*pow(P_p,3)*
      pow(P_l,2)*ang1 - 8.E+0*pow(P_p,4)*P_l*p_p*ang0 - 1.6E+1*pow(
      P_p,4)*P_l*l_l*ang0 + 8.E+0*pow(P_p,4)*P_l*ang1;
 
    kern[9][10] = (1.0/ denom)* kern[9][10]; 
    kern[9][11] =   0;
 
    kern[9][11] = (1.0/ denom)* kern[9][11]; 

    denom =  - 1.6E+1*P_P*pow(P_p,3)*p_p + 8.E+0*pow(P_P,2)*P_p*pow(
      p_p,2) + 8.E+0*pow(P_p,5);

    kern[10][0] =  4.E+0*P_P*P_p*p_p*l_l*ang0 + 4.E+0*P_P*P_p*p_p*ang1
       + 2.E+0*P_P*P_p*pow(p_p,2)*ang0 + 1.2E+1*P_P*P_p*l_l*ang1 - 
      6.E+0*P_P*P_p*pow(l_l,2)*ang0 - 6.E+0*P_P*P_p*ang2 + 8.E+0*P_P*
      P_l*p_p*l_l*ang0 - 8.E+0*P_P*P_l*p_p*ang1 - 8.E+0*P_P*P_l*pow(
      p_p,2)*ang0 - 2.4E+1*P_p*pow(P_l,2)*p_p*ang0 + 3.2E+1*pow(P_p,2)*
      P_l*p_p*ang0 + 1.6E+1*pow(P_p,2)*P_l*l_l*ang0 - 1.6E+1*pow(P_p,2)
      *P_l*ang1 - 8.E+0*pow(P_p,3)*p_p*ang0 - 1.6E+1*pow(P_p,3)*l_l*
      ang0 + 8.E+0*pow(P_p,3)*ang1;
 
    kern[10][0] = (1.0/ denom)* kern[10][0]; 
    kern[10][1] =   - 4.E+0*P_P*P_p*p_p*l_l*ang1 + P_P*P_p*p_p*pow(
      l_l,2)*ang0 + 1.5E+1*P_P*P_p*p_p*ang2 - P_P*P_p*pow(p_p,2)*l_l*
      ang0 - 1.2E+1*P_P*P_p*pow(p_p,2)*ang1 + 3.E+0*P_P*P_p*pow(p_p,3)*
      ang0 + 9.E+0*P_P*P_p*l_l*ang2 - 3.E+0*P_P*P_p*pow(l_l,3)*ang0 - 
      6.E+0*P_P*P_p*ang3 + 4.E+0*P_P*P_l*p_p*l_l*ang1 + 4.E+0*P_P*P_l*
      p_p*pow(l_l,2)*ang0 - 8.E+0*P_P*P_l*p_p*ang2 + 1.2E+1*P_P*P_l*
      pow(p_p,2)*ang1 - 4.E+0*P_P*P_l*pow(p_p,3)*ang0 - 1.2E+1*P_p*pow(
      P_l,2)*p_p*l_l*ang0 - 2.4E+1*P_p*pow(P_l,2)*p_p*ang1 + 1.2E+1*P_p
      *pow(P_l,2)*pow(p_p,2)*ang0 + 2.4E+1*pow(P_p,2)*P_l*p_p*ang1 - 
      8.E+0*pow(P_p,2)*P_l*pow(p_p,2)*ang0 + 8.E+0*pow(P_p,2)*P_l*l_l*
      ang1 + 8.E+0*pow(P_p,2)*P_l*pow(l_l,2)*ang0 - 1.6E+1*pow(P_p,2)*
      P_l*ang2 + 4.E+0*pow(P_p,3)*p_p*l_l*ang0 - 8.E+0*pow(P_p,3)*l_l*
      ang1 - 4.E+0*pow(P_p,3)*pow(l_l,2)*ang0;
 
    kern[10][1] = (1.0/ denom)* kern[10][1]; 
    kern[10][2] =   0;
 
    kern[10][2] = (1.0/ denom)* kern[10][2]; 
    kern[10][3] =   0;
 
    kern[10][3] = (1.0/ denom)* kern[10][3]; 
    kern[10][4] =   - 2.4E+1*P_P*P_p*pow(P_l,2)*p_p*ang0 + 3.2E+1*P_P*
      pow(P_p,2)*P_l*p_p*ang0 + 1.6E+1*P_P*pow(P_p,2)*P_l*l_l*ang0 - 
      1.6E+1*P_P*pow(P_p,2)*P_l*ang1 - 8.E+0*P_P*pow(P_p,3)*p_p*ang0 - 
      1.6E+1*P_P*pow(P_p,3)*l_l*ang0 + 8.E+0*P_P*pow(P_p,3)*ang1 + 
      4.E+0*pow(P_P,2)*P_p*p_p*l_l*ang0 + 4.E+0*pow(P_P,2)*P_p*p_p*ang1
       + 2.E+0*pow(P_P,2)*P_p*pow(p_p,2)*ang0 + 1.2E+1*pow(P_P,2)*P_p*
      l_l*ang1 - 6.E+0*pow(P_P,2)*P_p*pow(l_l,2)*ang0 - 6.E+0*pow(
      P_P,2)*P_p*ang2 + 8.E+0*pow(P_P,2)*P_l*p_p*l_l*ang0 - 8.E+0*pow(
      P_P,2)*P_l*p_p*ang1 - 8.E+0*pow(P_P,2)*P_l*pow(p_p,2)*ang0;
 
    kern[10][4] = (1.0/ denom)* kern[10][4]; 
    kern[10][5] =   0;
 
    kern[10][5] = (1.0/ denom)* kern[10][5]; 
    kern[10][6] =   0;
 
    kern[10][6] = (1.0/ denom)* kern[10][6]; 
    kern[10][7] =   0;
 
    kern[10][7] = (1.0/ denom)* kern[10][7]; 
    kern[10][8] =   0;
 
    kern[10][8] = (1.0/ denom)* kern[10][8]; 
    kern[10][9] =   - 1.2E+1*P_P*P_p*pow(P_l,2)*p_p*l_l*ang0 - 2.4E+1*
      P_P*P_p*pow(P_l,2)*p_p*ang1 + 1.2E+1*P_P*P_p*pow(P_l,2)*pow(
      p_p,2)*ang0 + 2.4E+1*P_P*pow(P_p,2)*P_l*p_p*ang1 - 8.E+0*P_P*pow(
      P_p,2)*P_l*pow(p_p,2)*ang0 + 8.E+0*P_P*pow(P_p,2)*P_l*l_l*ang1 + 
      8.E+0*P_P*pow(P_p,2)*P_l*pow(l_l,2)*ang0 - 1.6E+1*P_P*pow(P_p,2)*
      P_l*ang2 + 4.E+0*P_P*pow(P_p,3)*p_p*l_l*ang0 - 8.E+0*P_P*pow(
      P_p,3)*l_l*ang1 - 4.E+0*P_P*pow(P_p,3)*pow(l_l,2)*ang0 - 4.E+0*
      pow(P_P,2)*P_p*p_p*l_l*ang1 + pow(P_P,2)*P_p*p_p*pow(l_l,2)*ang0
       + 1.5E+1*pow(P_P,2)*P_p*p_p*ang2 - pow(P_P,2)*P_p*pow(p_p,2)*l_l
      *ang0 - 1.2E+1*pow(P_P,2)*P_p*pow(p_p,2)*ang1 + 3.E+0*pow(P_P,2)*
      P_p*pow(p_p,3)*ang0 + 9.E+0*pow(P_P,2)*P_p*l_l*ang2 - 3.E+0*pow(
      P_P,2)*P_p*pow(l_l,3)*ang0 - 6.E+0*pow(P_P,2)*P_p*ang3 + 4.E+0*
      pow(P_P,2)*P_l*p_p*l_l*ang1 + 4.E+0*pow(P_P,2)*P_l*p_p*pow(l_l,2)
      *ang0 - 8.E+0*pow(P_P,2)*P_l*p_p*ang2 + 1.2E+1*pow(P_P,2)*P_l*
      pow(p_p,2)*ang1 - 4.E+0*pow(P_P,2)*P_l*pow(p_p,3)*ang0;
 
    kern[10][9] = (1.0/ denom)* kern[10][9]; 
    kern[10][10] =  1.6E+1*P_P*P_p*pow(P_l,2)*p_p*l_l*ang0 - 8.E+0*P_P*
      P_p*pow(P_l,2)*p_p*ang1 + 1.6E+1*P_P*P_p*pow(P_l,2)*pow(p_p,2)*
      ang0 - 4.E+0*P_P*pow(P_p,2)*P_l*p_p*l_l*ang0 + 1.6E+1*P_P*pow(
      P_p,2)*P_l*p_p*ang1 - 6.E+0*P_P*pow(P_p,2)*P_l*pow(p_p,2)*ang0 + 
      1.6E+1*P_P*pow(P_p,2)*P_l*l_l*ang1 - 6.E+0*P_P*pow(P_p,2)*P_l*
      pow(l_l,2)*ang0 - 1.E+1*P_P*pow(P_p,2)*P_l*ang2 - 1.6E+1*P_P*pow(
      P_l,3)*pow(p_p,2)*ang0 - 4.E+0*pow(P_P,2)*P_l*p_p*l_l*ang1 + 
      4.E+0*pow(P_P,2)*P_l*p_p*ang2 - 4.E+0*pow(P_P,2)*P_l*pow(p_p,2)*
      ang1 - 8.E+0*pow(P_p,2)*pow(P_l,3)*p_p*ang0 + 8.E+0*pow(P_p,3)*
      pow(P_l,2)*p_p*ang0 + 8.E+0*pow(P_p,3)*pow(P_l,2)*l_l*ang0 - 
      1.6E+1*pow(P_p,3)*pow(P_l,2)*ang1 - 8.E+0*pow(P_p,4)*P_l*l_l*ang0
      ;
 
    kern[10][10] = (1.0/ denom)* kern[10][10]; 
    kern[10][11] =   0;
 
    kern[10][11] = (1.0/ denom)* kern[10][11]; 

    denom =  - 3.2E+1*P_P*pow(P_p,2)*p_p + 1.6E+1*pow(P_P,2)*pow(p_p,2)
       + 1.6E+1*pow(P_p,4);

    kern[11][0] =   0;
 
    kern[11][0] = (1.0/ denom)* kern[11][0]; 
    kern[11][1] =   0;
 
    kern[11][1] = (1.0/ denom)* kern[11][1]; 
    kern[11][2] =   0;
 
    kern[11][2] = (1.0/ denom)* kern[11][2]; 
    kern[11][3] =  1.6E+1*P_P*P_p*p_p*l_l*i_*ang0 + 1.6E+1*P_P*P_p*p_p*
      i_*ang1 + 8.E+0*P_P*P_p*pow(p_p,2)*i_*ang0 + 4.8E+1*P_P*P_p*l_l*
      i_*ang1 - 2.4E+1*P_P*P_p*pow(l_l,2)*i_*ang0 - 2.4E+1*P_P*P_p*i_*
      ang2 + 3.2E+1*P_P*P_l*p_p*l_l*i_*ang0 - 3.2E+1*P_P*P_l*p_p*i_*
      ang1 - 3.2E+1*P_P*P_l*pow(p_p,2)*i_*ang0 - 9.6E+1*P_p*pow(P_l,2)*
      p_p*i_*ang0 + 1.28E+2*pow(P_p,2)*P_l*p_p*i_*ang0 + 6.4E+1*pow(
      P_p,2)*P_l*l_l*i_*ang0 - 6.4E+1*pow(P_p,2)*P_l*i_*ang1 - 3.2E+1*
      pow(P_p,3)*p_p*i_*ang0 - 6.4E+1*pow(P_p,3)*l_l*i_*ang0 + 3.2E+1*
      pow(P_p,3)*i_*ang1;
 
    kern[11][3] = (1.0/ denom)* kern[11][3]; 
    kern[11][4] =   0;
 
    kern[11][4] = (1.0/ denom)* kern[11][4]; 
    kern[11][5] =  4.8E+1*P_P*P_p*pow(P_l,3)*p_p*ang0 - 6.4E+1*P_P*pow(
      P_p,2)*pow(P_l,2)*p_p*ang0 - 3.2E+1*P_P*pow(P_p,2)*pow(P_l,2)*l_l
      *ang0 + 3.2E+1*P_P*pow(P_p,2)*pow(P_l,2)*ang1 + 1.6E+1*P_P*pow(
      P_p,3)*P_l*p_p*ang0 + 3.2E+1*P_P*pow(P_p,3)*P_l*l_l*ang0 - 1.6E+1
      *P_P*pow(P_p,3)*P_l*ang1 - 8.E+0*pow(P_P,2)*P_p*P_l*p_p*l_l*ang0
       - 8.E+0*pow(P_P,2)*P_p*P_l*p_p*ang1 - 4.E+0*pow(P_P,2)*P_p*P_l*
      pow(p_p,2)*ang0 - 2.4E+1*pow(P_P,2)*P_p*P_l*l_l*ang1 + 1.2E+1*
      pow(P_P,2)*P_p*P_l*pow(l_l,2)*ang0 + 1.2E+1*pow(P_P,2)*P_p*P_l*
      ang2 - 1.6E+1*pow(P_P,2)*pow(P_l,2)*p_p*l_l*ang0 + 1.6E+1*pow(
      P_P,2)*pow(P_l,2)*p_p*ang1 + 1.6E+1*pow(P_P,2)*pow(P_l,2)*pow(
      p_p,2)*ang0;
 
    kern[11][5] = (1.0/ denom)* kern[11][5]; 
    kern[11][6] =  1.6E+1*P_P*P_p*P_l*p_p*ang0 - 4.8E+1*P_P*P_p*P_l*l_l
      *ang0 + 4.8E+1*P_P*P_p*P_l*ang1 - 3.2E+1*P_P*pow(P_p,2)*p_p*ang0
       + 4.8E+1*P_P*pow(P_p,2)*l_l*ang0 - 3.2E+1*P_P*pow(P_p,2)*ang1 + 
      1.6E+1*P_P*pow(P_l,2)*p_p*ang0 - 2.4E+1*pow(P_P,2)*p_p*l_l*ang0
       + 8.E+0*pow(P_P,2)*p_p*ang1 + 1.2E+1*pow(P_P,2)*pow(p_p,2)*ang0
       - 2.4E+1*pow(P_P,2)*l_l*ang1 + 1.2E+1*pow(P_P,2)*pow(l_l,2)*ang0
       + 1.2E+1*pow(P_P,2)*ang2 + 3.2E+1*pow(P_p,2)*pow(P_l,2)*ang0 - 
      6.4E+1*pow(P_p,3)*P_l*ang0 + 3.2E+1*pow(P_p,4)*ang0;
 
    kern[11][6] = (1.0/ denom)* kern[11][6]; 
    kern[11][7] =   0;
 
    kern[11][7] = (1.0/ denom)* kern[11][7]; 
    kern[11][8] =   0;
 
    kern[11][8] = (1.0/ denom)* kern[11][8]; 
    kern[11][9] =   0;
 
    kern[11][9] = (1.0/ denom)* kern[11][9]; 
    kern[11][10] =   0;
 
    kern[11][10] = (1.0/ denom)* kern[11][10]; 
    kern[11][11] =   - 1.6E+1*P_P*P_p*P_l*p_p*l_l*ang0 + 2.4E+1*P_P*P_p
      *P_l*p_p*ang1 - 2.4E+1*P_P*P_p*P_l*pow(p_p,2)*ang0 + 2.4E+1*P_P*
      P_p*P_l*l_l*ang1 - 2.4E+1*P_P*P_p*P_l*pow(l_l,2)*ang0 - 8.E+0*P_P
      *pow(P_p,2)*p_p*ang1 + 4.E+0*P_P*pow(P_p,2)*pow(p_p,2)*ang0 - 
      2.4E+1*P_P*pow(P_p,2)*l_l*ang1 + 2.8E+1*P_P*pow(P_p,2)*pow(l_l,2)
      *ang0 + 4.E+0*P_P*pow(P_p,2)*ang2 + 8.E+0*P_P*pow(P_l,2)*p_p*l_l*
      ang0 + 2.4E+1*P_P*pow(P_l,2)*pow(p_p,2)*ang0 - 1.E+1*pow(P_P,2)*
      p_p*pow(l_l,2)*ang0 + 2.E+0*pow(P_P,2)*p_p*ang2 + 2.E+0*pow(
      P_P,2)*pow(p_p,2)*l_l*ang0 - 4.E+0*pow(P_P,2)*pow(p_p,2)*ang1 + 
      2.E+0*pow(P_P,2)*pow(p_p,3)*ang0 + 6.E+0*pow(P_P,2)*l_l*ang2 - 
      1.2E+1*pow(P_P,2)*pow(l_l,2)*ang1 + 6.E+0*pow(P_P,2)*pow(l_l,3)*
      ang0 + 1.6E+1*pow(P_p,2)*pow(P_l,2)*l_l*ang0 - 3.2E+1*pow(P_p,3)*
      P_l*l_l*ang0 + 1.6E+1*pow(P_p,4)*l_l*ang0;
 
    kern[11][11] = (1.0/ denom)* kern[11][11]; 

}


void kernelY_noopti_qphv(matCdoub& kern,
  const ArrayScalarProducts& sp,  const Cdoub& svp,
  const Cdoub& ssp, const Cdoub& svm, const Cdoub& ssm ){


    // local variables
    Cdoub denom;


    denom =  - 4.E+0*P_P*l_l + 4.E+0*pow(P_l,2);

    kern[0][0] =   - 4.E+0*P_P*l_l*qm_qp*svp*svm - 4.E+0*P_P*l_l*ssp*
      ssm - 4.E+0*P_l*P_qm*l_qp*svp*svm - 4.E+0*P_l*P_qp*l_qm*svp*svm
       + 4.E+0*pow(P_l,2)*qm_qp*svp*svm + 4.E+0*pow(P_l,2)*ssp*ssm + 
      8.E+0*P_qm*P_qp*l_l*svp*svm;
 
    kern[0][0] = (1.0/ denom)* kern[0][0]; 
    kern[0][1] =  4.E+0*P_l*P_qm*l_l*l_qp*svp*svm + 4.E+0*P_l*P_qp*l_l*
      l_qm*svp*svm - 8.E+0*pow(P_l,2)*l_qm*l_qp*svp*svm;
 
    kern[0][1] = (1.0/ denom)* kern[0][1]; 
    kern[0][2] =  4.E+0*P_l*P_qm*l_l*ssp*svm + 4.E+0*P_l*P_qp*l_l*svp*
      ssm - 4.E+0*pow(P_l,2)*l_qm*ssp*svm - 4.E+0*pow(P_l,2)*l_qp*svp*
      ssm;
 
    kern[0][2] = (1.0/ denom)* kern[0][2]; 
    kern[0][3] =  8.E+0*P_P*l_l*l_qm*i_*ssp*svm - 8.E+0*P_P*l_l*l_qp*i_
      *svp*ssm - 8.E+0*pow(P_l,2)*l_qm*i_*ssp*svm + 8.E+0*pow(P_l,2)*
      l_qp*i_*svp*ssm;
 
    kern[0][3] = (1.0/ denom)* kern[0][3]; 
    kern[0][4] =   0;
 
    kern[0][4] = (1.0/ denom)* kern[0][4]; 
    kern[0][5] =   0;
 
    kern[0][5] = (1.0/ denom)* kern[0][5]; 
    kern[0][6] =   0;
 
    kern[0][6] = (1.0/ denom)* kern[0][6]; 
    kern[0][7] =   0;
 
    kern[0][7] = (1.0/ denom)* kern[0][7]; 
    kern[0][8] =   0;
 
    kern[0][8] = (1.0/ denom)* kern[0][8]; 
    kern[0][9] =   0;
 
    kern[0][9] = (1.0/ denom)* kern[0][9]; 
    kern[0][10] =   0;
 
    kern[0][10] = (1.0/ denom)* kern[0][10]; 
    kern[0][11] =   0;
 
    kern[0][11] = (1.0/ denom)* kern[0][11]; 

    denom =  - 4.E+0*P_P*P_l*l_l + 4.E+0*pow(P_l,3);

    kern[1][0] =  4.E+0*P_P*P_qm*l_qp*svp*svm + 4.E+0*P_P*P_qp*l_qm*svp
      *svm - 8.E+0*P_l*P_qm*P_qp*svp*svm;
 
    kern[1][0] = (1.0/ denom)* kern[1][0]; 
    kern[1][1] =   - 4.E+0*P_P*P_l*l_l*qm_qp*svp*svm - 4.E+0*P_P*P_l*
      l_l*ssp*ssm + 8.E+0*P_P*P_l*l_qm*l_qp*svp*svm - 4.E+0*pow(P_l,2)*
      P_qm*l_qp*svp*svm - 4.E+0*pow(P_l,2)*P_qp*l_qm*svp*svm + 4.E+0*
      pow(P_l,3)*qm_qp*svp*svm + 4.E+0*pow(P_l,3)*ssp*ssm;
 
    kern[1][1] = (1.0/ denom)* kern[1][1]; 
    kern[1][2] =  4.E+0*P_P*P_l*l_qm*ssp*svm + 4.E+0*P_P*P_l*l_qp*svp*
      ssm - 4.E+0*pow(P_l,2)*P_qm*ssp*svm - 4.E+0*pow(P_l,2)*P_qp*svp*
      ssm;
 
    kern[1][2] = (1.0/ denom)* kern[1][2]; 
    kern[1][3] =   - 8.E+0*P_P*P_qm*l_l*i_*ssp*svm + 8.E+0*P_P*P_qp*l_l
      *i_*svp*ssm + 8.E+0*pow(P_l,2)*P_qm*i_*ssp*svm - 8.E+0*pow(P_l,2)
      *P_qp*i_*svp*ssm;
 
    kern[1][3] = (1.0/ denom)* kern[1][3]; 
    kern[1][4] =   0;
 
    kern[1][4] = (1.0/ denom)* kern[1][4]; 
    kern[1][5] =   0;
 
    kern[1][5] = (1.0/ denom)* kern[1][5]; 
    kern[1][6] =   0;
 
    kern[1][6] = (1.0/ denom)* kern[1][6]; 
    kern[1][7] =   0;
 
    kern[1][7] = (1.0/ denom)* kern[1][7]; 
    kern[1][8] =   0;
 
    kern[1][8] = (1.0/ denom)* kern[1][8]; 
    kern[1][9] =   0;
 
    kern[1][9] = (1.0/ denom)* kern[1][9]; 
    kern[1][10] =   0;
 
    kern[1][10] = (1.0/ denom)* kern[1][10]; 
    kern[1][11] =   0;
 
    kern[1][11] = (1.0/ denom)* kern[1][11]; 

    denom = 4.E+0*P_l;

    kern[2][0] =  4.E+0*P_qm*ssp*svm + 4.E+0*P_qp*svp*ssm;
 
    kern[2][0] = (1.0/ denom)* kern[2][0]; 
    kern[2][1] =  4.E+0*P_l*l_qm*ssp*svm + 4.E+0*P_l*l_qp*svp*ssm;
 
    kern[2][1] = (1.0/ denom)* kern[2][1]; 
    kern[2][2] =   - 4.E+0*P_l*qm_qp*svp*svm + 4.E+0*P_l*ssp*ssm;
 
    kern[2][2] = (1.0/ denom)* kern[2][2]; 
    kern[2][3] =  8.E+0*P_qm*l_qp*i_*svp*svm - 8.E+0*P_qp*l_qm*i_*svp*
      svm;
 
    kern[2][3] = (1.0/ denom)* kern[2][3]; 
    kern[2][4] =   0;
 
    kern[2][4] = (1.0/ denom)* kern[2][4]; 
    kern[2][5] =   0;
 
    kern[2][5] = (1.0/ denom)* kern[2][5]; 
    kern[2][6] =   0;
 
    kern[2][6] = (1.0/ denom)* kern[2][6]; 
    kern[2][7] =   0;
 
    kern[2][7] = (1.0/ denom)* kern[2][7]; 
    kern[2][8] =   0;
 
    kern[2][8] = (1.0/ denom)* kern[2][8]; 
    kern[2][9] =   0;
 
    kern[2][9] = (1.0/ denom)* kern[2][9]; 
    kern[2][10] =   0;
 
    kern[2][10] = (1.0/ denom)* kern[2][10]; 
    kern[2][11] =   0;
 
    kern[2][11] = (1.0/ denom)* kern[2][11]; 

    denom =  - 1.6E+1*P_P*l_l + 1.6E+1*pow(P_l,2);

    kern[3][0] =  8.E+0*P_P*l_qm*i_*ssp*svm - 8.E+0*P_P*l_qp*i_*svp*ssm
       - 8.E+0*P_l*P_qm*i_*ssp*svm + 8.E+0*P_l*P_qp*i_*svp*ssm;
 
    kern[3][0] = (1.0/ denom)* kern[3][0]; 
    kern[3][1] =   - 8.E+0*P_l*P_qm*l_l*i_*ssp*svm + 8.E+0*P_l*P_qp*l_l
      *i_*svp*ssm + 8.E+0*pow(P_l,2)*l_qm*i_*ssp*svm - 8.E+0*pow(P_l,2)
      *l_qp*i_*svp*ssm;
 
    kern[3][1] = (1.0/ denom)* kern[3][1]; 
    kern[3][2] =  8.E+0*P_l*P_qm*l_qp*i_*svp*svm - 8.E+0*P_l*P_qp*l_qm*
      i_*svp*svm;
 
    kern[3][2] = (1.0/ denom)* kern[3][2]; 
    kern[3][3] =  1.6E+1*P_P*l_l*qm_qp*svp*svm - 1.6E+1*P_P*l_l*ssp*ssm
       - 3.2E+1*P_P*l_qm*l_qp*svp*svm + 3.2E+1*P_l*P_qm*l_qp*svp*svm + 
      3.2E+1*P_l*P_qp*l_qm*svp*svm - 1.6E+1*pow(P_l,2)*qm_qp*svp*svm + 
      1.6E+1*pow(P_l,2)*ssp*ssm - 3.2E+1*P_qm*P_qp*l_l*svp*svm;
 
    kern[3][3] = (1.0/ denom)* kern[3][3]; 
    kern[3][4] =   0;
 
    kern[3][4] = (1.0/ denom)* kern[3][4]; 
    kern[3][5] =   0;
 
    kern[3][5] = (1.0/ denom)* kern[3][5]; 
    kern[3][6] =   0;
 
    kern[3][6] = (1.0/ denom)* kern[3][6]; 
    kern[3][7] =   0;
 
    kern[3][7] = (1.0/ denom)* kern[3][7]; 
    kern[3][8] =   0;
 
    kern[3][8] = (1.0/ denom)* kern[3][8]; 
    kern[3][9] =   0;
 
    kern[3][9] = (1.0/ denom)* kern[3][9]; 
    kern[3][10] =   0;
 
    kern[3][10] = (1.0/ denom)* kern[3][10]; 
    kern[3][11] =   0;
 
    kern[3][11] = (1.0/ denom)* kern[3][11]; 

    denom =  - 1.6E+1*P_P*pow(P_l,2)*l_l + 8.E+0*pow(P_P,2)*pow(l_l,2)
       + 8.E+0*pow(P_l,4);

    kern[4][0] =  8.E+0*P_P*l_l*l_qm*l_qp*svp*svm - 8.E+0*P_P*pow(
      l_l,2)*qm_qp*svp*svm - 2.4E+1*P_l*P_qm*l_l*l_qp*svp*svm - 2.4E+1*
      P_l*P_qp*l_l*l_qm*svp*svm + 8.E+0*pow(P_l,2)*l_l*qm_qp*svp*svm + 
      1.6E+1*pow(P_l,2)*l_qm*l_qp*svp*svm + 2.4E+1*P_qm*P_qp*pow(l_l,2)
      *svp*svm;
 
    kern[4][0] = (1.0/ denom)* kern[4][0]; 
    kern[4][1] =   0;
 
    kern[4][1] = (1.0/ denom)* kern[4][1]; 
    kern[4][2] =   0;
 
    kern[4][2] = (1.0/ denom)* kern[4][2]; 
    kern[4][3] =   0;
 
    kern[4][3] = (1.0/ denom)* kern[4][3]; 
    kern[4][4] =   - 1.6E+1*P_P*P_l*P_qm*l_l*l_qp*svp*svm - 1.6E+1*P_P*
      P_l*P_qp*l_l*l_qm*svp*svm - 8.E+0*P_P*pow(P_l,2)*l_l*qm_qp*svp*
      svm - 1.6E+1*P_P*pow(P_l,2)*l_l*ssp*ssm + 1.6E+1*P_P*pow(P_l,2)*
      l_qm*l_qp*svp*svm + 8.E+0*P_P*P_qm*P_qp*pow(l_l,2)*svp*svm + 
      8.E+0*pow(P_P,2)*l_l*l_qm*l_qp*svp*svm + 8.E+0*pow(P_P,2)*pow(
      l_l,2)*ssp*ssm + 1.6E+1*pow(P_l,2)*P_qm*P_qp*l_l*svp*svm - 8.E+0*
      pow(P_l,3)*P_qm*l_qp*svp*svm - 8.E+0*pow(P_l,3)*P_qp*l_qm*svp*svm
       + 8.E+0*pow(P_l,4)*qm_qp*svp*svm + 8.E+0*pow(P_l,4)*ssp*ssm;
 
    kern[4][4] = (1.0/ denom)* kern[4][4]; 
    kern[4][5] =   - 1.6E+1*P_P*pow(P_l,3)*l_l*l_qm*ssp*svm + 1.6E+1*
      P_P*pow(P_l,3)*l_l*l_qp*svp*ssm + 8.E+0*pow(P_P,2)*P_l*pow(l_l,2)
      *l_qm*ssp*svm - 8.E+0*pow(P_P,2)*P_l*pow(l_l,2)*l_qp*svp*ssm + 
      8.E+0*pow(P_l,5)*l_qm*ssp*svm - 8.E+0*pow(P_l,5)*l_qp*svp*ssm;
 
    kern[4][5] = (1.0/ denom)* kern[4][5]; 
    kern[4][6] =   - 8.E+0*P_P*P_l*l_l*l_qm*ssp*svm + 8.E+0*P_P*P_l*l_l
      *l_qp*svp*ssm + 8.E+0*P_P*P_qm*pow(l_l,2)*ssp*svm - 8.E+0*P_P*
      P_qp*pow(l_l,2)*svp*ssm - 8.E+0*pow(P_l,2)*P_qm*l_l*ssp*svm + 
      8.E+0*pow(P_l,2)*P_qp*l_l*svp*ssm + 8.E+0*pow(P_l,3)*l_qm*ssp*svm
       - 8.E+0*pow(P_l,3)*l_qp*svp*ssm;
 
    kern[4][6] = (1.0/ denom)* kern[4][6]; 
    kern[4][7] =  8.E+0*P_P*P_qm*pow(l_l,2)*l_qp*svp*svm - 8.E+0*P_P*
      P_qp*pow(l_l,2)*l_qm*svp*svm - 8.E+0*pow(P_l,2)*P_qm*l_l*l_qp*svp
      *svm + 8.E+0*pow(P_l,2)*P_qp*l_l*l_qm*svp*svm;
 
    kern[4][7] = (1.0/ denom)* kern[4][7]; 
    kern[4][8] =  8.E+0*P_P*P_l*P_qm*pow(l_l,2)*ssp*svm + 8.E+0*P_P*P_l
      *P_qp*pow(l_l,2)*svp*ssm - 8.E+0*P_P*pow(P_l,2)*l_l*l_qm*ssp*svm
       - 8.E+0*P_P*pow(P_l,2)*l_l*l_qp*svp*ssm - 8.E+0*pow(P_l,3)*P_qm*
      l_l*ssp*svm - 8.E+0*pow(P_l,3)*P_qp*l_l*svp*ssm + 8.E+0*pow(
      P_l,4)*l_qm*ssp*svm + 8.E+0*pow(P_l,4)*l_qp*svp*ssm;
 
    kern[4][8] = (1.0/ denom)* kern[4][8]; 
    kern[4][9] =   - 8.E+0*P_P*P_l*P_qm*pow(l_l,2)*l_qp*svp*svm - 8.E+0
      *P_P*P_l*P_qp*pow(l_l,2)*l_qm*svp*svm + 1.6E+1*P_P*pow(P_l,2)*l_l
      *l_qm*l_qp*svp*svm + 8.E+0*pow(P_l,3)*P_qm*l_l*l_qp*svp*svm + 
      8.E+0*pow(P_l,3)*P_qp*l_l*l_qm*svp*svm - 1.6E+1*pow(P_l,4)*l_qm*
      l_qp*svp*svm;
 
    kern[4][9] = (1.0/ denom)* kern[4][9]; 
    kern[4][10] =  8.E+0*P_P*pow(P_l,2)*l_l*l_qm*l_qp*svp*svm - 8.E+0*
      P_P*pow(P_l,2)*pow(l_l,2)*qm_qp*svp*svm + 2.4E+1*pow(P_l,2)*P_qm*
      P_qp*pow(l_l,2)*svp*svm - 2.4E+1*pow(P_l,3)*P_qm*l_l*l_qp*svp*svm
       - 2.4E+1*pow(P_l,3)*P_qp*l_l*l_qm*svp*svm + 8.E+0*pow(P_l,4)*l_l
      *qm_qp*svp*svm + 1.6E+1*pow(P_l,4)*l_qm*l_qp*svp*svm;
 
    kern[4][10] = (1.0/ denom)* kern[4][10]; 
    kern[4][11] =   0;
 
    kern[4][11] = (1.0/ denom)* kern[4][11]; 

    denom =  - 3.2E+1*P_P*pow(P_l,3)*l_l + 1.6E+1*pow(P_P,2)*P_l*pow(
      l_l,2) + 1.6E+1*pow(P_l,5);

    kern[5][0] =   0;
 
    kern[5][0] = (1.0/ denom)* kern[5][0]; 
    kern[5][1] =   0;
 
    kern[5][1] = (1.0/ denom)* kern[5][1]; 
    kern[5][2] =   0;
 
    kern[5][2] = (1.0/ denom)* kern[5][2]; 
    kern[5][3] =  3.2E+1*P_P*l_l*l_qm*l_qp*i_*svp*svm - 3.2E+1*P_P*pow(
      l_l,2)*qm_qp*i_*svp*svm - 9.6E+1*P_l*P_qm*l_l*l_qp*i_*svp*svm - 
      9.6E+1*P_l*P_qp*l_l*l_qm*i_*svp*svm + 3.2E+1*pow(P_l,2)*l_l*qm_qp
      *i_*svp*svm + 6.4E+1*pow(P_l,2)*l_qm*l_qp*i_*svp*svm + 9.6E+1*
      P_qm*P_qp*pow(l_l,2)*i_*svp*svm;
 
    kern[5][3] = (1.0/ denom)* kern[5][3]; 
    kern[5][4] =  1.6E+1*P_P*P_l*P_qm*l_l*ssp*svm - 1.6E+1*P_P*P_l*P_qp
      *l_l*svp*ssm + 1.6E+1*P_P*pow(P_l,2)*l_qm*ssp*svm - 1.6E+1*P_P*
      pow(P_l,2)*l_qp*svp*ssm - 1.6E+1*pow(P_P,2)*l_l*l_qm*ssp*svm + 
      1.6E+1*pow(P_P,2)*l_l*l_qp*svp*ssm - 1.6E+1*pow(P_l,3)*P_qm*ssp*
      svm + 1.6E+1*pow(P_l,3)*P_qp*svp*ssm;
 
    kern[5][4] = (1.0/ denom)* kern[5][4]; 
    kern[5][5] =   - 1.6E+1*P_P*P_l*P_qm*P_qp*pow(l_l,2)*svp*svm + 
      1.6E+1*P_P*pow(P_l,2)*P_qm*l_l*l_qp*svp*svm + 1.6E+1*P_P*pow(
      P_l,2)*P_qp*l_l*l_qm*svp*svm + 1.6E+1*P_P*pow(P_l,3)*l_l*qm_qp*
      svp*svm - 3.2E+1*P_P*pow(P_l,3)*l_l*ssp*ssm - 6.4E+1*P_P*pow(
      P_l,3)*l_qm*l_qp*svp*svm + 1.6E+1*pow(P_P,2)*P_l*l_l*l_qm*l_qp*
      svp*svm + 1.6E+1*pow(P_P,2)*P_l*pow(l_l,2)*ssp*ssm - 3.2E+1*pow(
      P_l,3)*P_qm*P_qp*l_l*svp*svm + 3.2E+1*pow(P_l,4)*P_qm*l_qp*svp*
      svm + 3.2E+1*pow(P_l,4)*P_qp*l_qm*svp*svm - 1.6E+1*pow(P_l,5)*
      qm_qp*svp*svm + 1.6E+1*pow(P_l,5)*ssp*ssm;
 
    kern[5][5] = (1.0/ denom)* kern[5][5]; 
    kern[5][6] =  1.6E+1*P_P*P_l*l_l*qm_qp*svp*svm - 4.8E+1*P_P*P_l*
      l_qm*l_qp*svp*svm + 1.6E+1*P_P*P_qm*l_l*l_qp*svp*svm + 1.6E+1*P_P
      *P_qp*l_l*l_qm*svp*svm - 4.8E+1*P_l*P_qm*P_qp*l_l*svp*svm + 
      3.2E+1*pow(P_l,2)*P_qm*l_qp*svp*svm + 3.2E+1*pow(P_l,2)*P_qp*l_qm
      *svp*svm - 1.6E+1*pow(P_l,3)*qm_qp*svp*svm;
 
    kern[5][6] = (1.0/ denom)* kern[5][6]; 
    kern[5][7] =  1.6E+1*P_P*P_l*l_l*l_qm*ssp*svm + 1.6E+1*P_P*P_l*l_l*
      l_qp*svp*ssm - 1.6E+1*P_P*P_qm*pow(l_l,2)*ssp*svm - 1.6E+1*P_P*
      P_qp*pow(l_l,2)*svp*ssm + 1.6E+1*pow(P_l,2)*P_qm*l_l*ssp*svm + 
      1.6E+1*pow(P_l,2)*P_qp*l_l*svp*ssm - 1.6E+1*pow(P_l,3)*l_qm*ssp*
      svm - 1.6E+1*pow(P_l,3)*l_qp*svp*ssm;
 
    kern[5][7] = (1.0/ denom)* kern[5][7]; 
    kern[5][8] =  1.6E+1*P_P*P_l*P_qm*l_l*l_qp*svp*svm - 1.6E+1*P_P*P_l
      *P_qp*l_l*l_qm*svp*svm - 1.6E+1*pow(P_l,3)*P_qm*l_qp*svp*svm + 
      1.6E+1*pow(P_l,3)*P_qp*l_qm*svp*svm;
 
    kern[5][8] = (1.0/ denom)* kern[5][8]; 
    kern[5][9] =  1.6E+1*P_P*P_l*P_qm*pow(l_l,2)*ssp*svm - 1.6E+1*P_P*
      P_l*P_qp*pow(l_l,2)*svp*ssm - 1.6E+1*P_P*pow(P_l,2)*l_l*l_qm*ssp*
      svm + 1.6E+1*P_P*pow(P_l,2)*l_l*l_qp*svp*ssm - 1.6E+1*pow(P_l,3)*
      P_qm*l_l*ssp*svm + 1.6E+1*pow(P_l,3)*P_qp*l_l*svp*ssm + 1.6E+1*
      pow(P_l,4)*l_qm*ssp*svm - 1.6E+1*pow(P_l,4)*l_qp*svp*ssm;
 
    kern[5][9] = (1.0/ denom)* kern[5][9]; 
    kern[5][10] =   0;
 
    kern[5][10] = (1.0/ denom)* kern[5][10]; 
    kern[5][11] =   - 1.6E+1*P_P*P_l*l_l*l_qm*l_qp*svp*svm + 1.6E+1*P_P
      *P_l*pow(l_l,2)*qm_qp*svp*svm - 4.8E+1*P_l*P_qm*P_qp*pow(l_l,2)*
      svp*svm + 4.8E+1*pow(P_l,2)*P_qm*l_l*l_qp*svp*svm + 4.8E+1*pow(
      P_l,2)*P_qp*l_l*l_qm*svp*svm - 1.6E+1*pow(P_l,3)*l_l*qm_qp*svp*
      svm - 3.2E+1*pow(P_l,3)*l_qm*l_qp*svp*svm;
 
    kern[5][11] = (1.0/ denom)* kern[5][11]; 

    denom =  - 1.6E+1*P_P*l_l + 1.6E+1*pow(P_l,2);

    kern[6][0] =   - 1.6E+1*P_l*l_qm*ssp*svm + 1.6E+1*P_l*l_qp*svp*ssm
       + 1.6E+1*P_qm*l_l*ssp*svm - 1.6E+1*P_qp*l_l*svp*ssm;
 
    kern[6][0] = (1.0/ denom)* kern[6][0]; 
    kern[6][1] =   0;
 
    kern[6][1] = (1.0/ denom)* kern[6][1]; 
    kern[6][2] =   0;
 
    kern[6][2] = (1.0/ denom)* kern[6][2]; 
    kern[6][3] =   - 6.4E+1*P_l*l_qm*l_qp*i_*svp*svm + 3.2E+1*P_qm*l_l*
      l_qp*i_*svp*svm + 3.2E+1*P_qp*l_l*l_qm*i_*svp*svm;
 
    kern[6][3] = (1.0/ denom)* kern[6][3]; 
    kern[6][4] =   - 1.6E+1*P_P*P_l*l_qm*ssp*svm + 1.6E+1*P_P*P_l*l_qp*
      svp*ssm + 1.6E+1*P_P*P_qm*l_l*ssp*svm - 1.6E+1*P_P*P_qp*l_l*svp*
      ssm;
 
    kern[6][4] = (1.0/ denom)* kern[6][4]; 
    kern[6][5] =   - 1.6E+1*P_P*P_l*P_qm*l_l*l_qp*svp*svm - 1.6E+1*P_P*
      P_l*P_qp*l_l*l_qm*svp*svm + 3.2E+1*P_P*pow(P_l,2)*l_qm*l_qp*svp*
      svm;
 
    kern[6][5] = (1.0/ denom)* kern[6][5]; 
    kern[6][6] =   - 1.6E+1*P_P*l_l*ssp*ssm + 1.6E+1*P_P*l_qm*l_qp*svp*
      svm + 1.6E+1*pow(P_l,2)*ssp*ssm - 1.6E+1*P_qm*P_qp*l_l*svp*svm;
 
    kern[6][6] = (1.0/ denom)* kern[6][6]; 
    kern[6][7] =   - 1.6E+1*P_P*l_l*l_qm*ssp*svm - 1.6E+1*P_P*l_l*l_qp*
      svp*ssm + 1.6E+1*pow(P_l,2)*l_qm*ssp*svm + 1.6E+1*pow(P_l,2)*l_qp
      *svp*ssm;
 
    kern[6][7] = (1.0/ denom)* kern[6][7]; 
    kern[6][8] =   0;
 
    kern[6][8] = (1.0/ denom)* kern[6][8]; 
    kern[6][9] =   0;
 
    kern[6][9] = (1.0/ denom)* kern[6][9]; 
    kern[6][10] =  1.6E+1*pow(P_l,2)*P_qm*l_l*ssp*svm - 1.6E+1*pow(
      P_l,2)*P_qp*l_l*svp*ssm - 1.6E+1*pow(P_l,3)*l_qm*ssp*svm + 1.6E+1
      *pow(P_l,3)*l_qp*svp*ssm;
 
    kern[6][10] = (1.0/ denom)* kern[6][10]; 
    kern[6][11] =   - 1.6E+1*P_l*P_qm*l_l*l_qp*svp*svm - 1.6E+1*P_l*
      P_qp*l_l*l_qm*svp*svm + 3.2E+1*pow(P_l,2)*l_qm*l_qp*svp*svm;
 
    kern[6][11] = (1.0/ denom)* kern[6][11]; 

    denom =  - 4.8E+1*P_P*l_l + 4.8E+1*pow(P_l,2);

    kern[7][0] =   - 4.8E+1*P_qm*l_qp*svp*svm + 4.8E+1*P_qp*l_qm*svp*
      svm;
 
    kern[7][0] = (1.0/ denom)* kern[7][0]; 
    kern[7][1] =   0;
 
    kern[7][1] = (1.0/ denom)* kern[7][1]; 
    kern[7][2] =   0;
 
    kern[7][2] = (1.0/ denom)* kern[7][2]; 
    kern[7][3] =   - 9.6E+1*P_l*l_qm*i_*ssp*svm - 9.6E+1*P_l*l_qp*i_*
      svp*ssm + 9.6E+1*P_qm*l_l*i_*ssp*svm + 9.6E+1*P_qp*l_l*i_*svp*ssm
      ;
 
    kern[7][3] = (1.0/ denom)* kern[7][3]; 
    kern[7][4] =   - 4.8E+1*P_P*P_qm*l_qp*svp*svm + 4.8E+1*P_P*P_qp*
      l_qm*svp*svm;
 
    kern[7][4] = (1.0/ denom)* kern[7][4]; 
    kern[7][5] =   - 4.8E+1*P_P*P_l*P_qm*l_l*ssp*svm - 4.8E+1*P_P*P_l*
      P_qp*l_l*svp*ssm + 4.8E+1*P_P*pow(P_l,2)*l_qm*ssp*svm + 4.8E+1*
      P_P*pow(P_l,2)*l_qp*svp*ssm;
 
    kern[7][5] = (1.0/ denom)* kern[7][5]; 
    kern[7][6] =  4.8E+1*P_P*l_qm*ssp*svm + 4.8E+1*P_P*l_qp*svp*ssm - 
      4.8E+1*P_l*P_qm*ssp*svm - 4.8E+1*P_l*P_qp*svp*ssm;
 
    kern[7][6] = (1.0/ denom)* kern[7][6]; 
    kern[7][7] =   - 4.8E+1*P_P*l_l*ssp*ssm + 4.8E+1*P_P*l_qm*l_qp*svp*
      svm - 4.8E+1*P_l*P_qm*l_qp*svp*svm - 4.8E+1*P_l*P_qp*l_qm*svp*svm
       + 4.8E+1*pow(P_l,2)*ssp*ssm + 4.8E+1*P_qm*P_qp*l_l*svp*svm;
 
    kern[7][7] = (1.0/ denom)* kern[7][7]; 
    kern[7][8] =   0;
 
    kern[7][8] = (1.0/ denom)* kern[7][8]; 
    kern[7][9] =   0;
 
    kern[7][9] = (1.0/ denom)* kern[7][9]; 
    kern[7][10] =   - 4.8E+1*pow(P_l,2)*P_qm*l_qp*svp*svm + 4.8E+1*pow(
      P_l,2)*P_qp*l_qm*svp*svm;
 
    kern[7][10] = (1.0/ denom)* kern[7][10]; 
    kern[7][11] =   - 4.8E+1*P_l*P_qm*l_l*ssp*svm - 4.8E+1*P_l*P_qp*l_l
      *svp*ssm + 4.8E+1*pow(P_l,2)*l_qm*ssp*svm + 4.8E+1*pow(P_l,2)*
      l_qp*svp*ssm;
 
    kern[7][11] = (1.0/ denom)* kern[7][11]; 

    denom =  - 4.E+0*P_P*P_l*l_l + 4.E+0*pow(P_l,3);

    kern[8][0] =  4.E+0*P_l*l_qm*ssp*svm + 4.E+0*P_l*l_qp*svp*ssm - 
      4.E+0*P_qm*l_l*ssp*svm - 4.E+0*P_qp*l_l*svp*ssm;
 
    kern[8][0] = (1.0/ denom)* kern[8][0]; 
    kern[8][1] =   0;
 
    kern[8][1] = (1.0/ denom)* kern[8][1]; 
    kern[8][2] =   0;
 
    kern[8][2] = (1.0/ denom)* kern[8][2]; 
    kern[8][3] =   - 8.E+0*P_qm*l_l*l_qp*i_*svp*svm + 8.E+0*P_qp*l_l*
      l_qm*i_*svp*svm;
 
    kern[8][3] = (1.0/ denom)* kern[8][3]; 
    kern[8][4] =  4.E+0*P_P*P_l*l_qm*ssp*svm + 4.E+0*P_P*P_l*l_qp*svp*
      ssm - 4.E+0*pow(P_l,2)*P_qm*ssp*svm - 4.E+0*pow(P_l,2)*P_qp*svp*
      ssm;
 
    kern[8][4] = (1.0/ denom)* kern[8][4]; 
    kern[8][5] =  4.E+0*pow(P_l,3)*P_qm*l_qp*svp*svm - 4.E+0*pow(P_l,3)
      *P_qp*l_qm*svp*svm;
 
    kern[8][5] = (1.0/ denom)* kern[8][5]; 
    kern[8][6] =  4.E+0*P_l*P_qm*l_qp*svp*svm - 4.E+0*P_l*P_qp*l_qm*svp
      *svm;
 
    kern[8][6] = (1.0/ denom)* kern[8][6]; 
    kern[8][7] =   0;
 
    kern[8][7] = (1.0/ denom)* kern[8][7]; 
    kern[8][8] =  4.E+0*P_P*P_l*l_l*qm_qp*svp*svm - 4.E+0*P_P*P_l*l_l*
      ssp*ssm - 4.E+0*pow(P_l,3)*qm_qp*svp*svm + 4.E+0*pow(P_l,3)*ssp*
      ssm;
 
    kern[8][8] = (1.0/ denom)* kern[8][8]; 
    kern[8][9] =  4.E+0*P_P*P_l*l_l*l_qm*ssp*svm + 4.E+0*P_P*P_l*l_l*
      l_qp*svp*ssm - 4.E+0*pow(P_l,3)*l_qm*ssp*svm - 4.E+0*pow(P_l,3)*
      l_qp*svp*ssm;
 
    kern[8][9] = (1.0/ denom)* kern[8][9]; 
    kern[8][10] =   - 4.E+0*pow(P_l,2)*P_qm*l_l*ssp*svm - 4.E+0*pow(
      P_l,2)*P_qp*l_l*svp*ssm + 4.E+0*pow(P_l,3)*l_qm*ssp*svm + 4.E+0*
      pow(P_l,3)*l_qp*svp*ssm;
 
    kern[8][10] = (1.0/ denom)* kern[8][10]; 
    kern[8][11] =  4.E+0*P_l*P_qm*l_l*l_qp*svp*svm - 4.E+0*P_l*P_qp*l_l
      *l_qm*svp*svm;
 
    kern[8][11] = (1.0/ denom)* kern[8][11]; 

    denom =  - 1.6E+1*P_P*pow(P_l,3)*l_l + 8.E+0*pow(P_P,2)*P_l*pow(
      l_l,2) + 8.E+0*pow(P_l,5);

    kern[9][0] =  8.E+0*P_P*P_l*l_l*qm_qp*svp*svm - 2.4E+1*P_P*P_l*l_qm
      *l_qp*svp*svm + 8.E+0*P_P*P_qm*l_l*l_qp*svp*svm + 8.E+0*P_P*P_qp*
      l_l*l_qm*svp*svm - 2.4E+1*P_l*P_qm*P_qp*l_l*svp*svm + 1.6E+1*pow(
      P_l,2)*P_qm*l_qp*svp*svm + 1.6E+1*pow(P_l,2)*P_qp*l_qm*svp*svm - 
      8.E+0*pow(P_l,3)*qm_qp*svp*svm;
 
    kern[9][0] = (1.0/ denom)* kern[9][0]; 
    kern[9][1] =   0;
 
    kern[9][1] = (1.0/ denom)* kern[9][1]; 
    kern[9][2] =   0;
 
    kern[9][2] = (1.0/ denom)* kern[9][2]; 
    kern[9][3] =  1.6E+1*P_P*P_l*l_l*l_qm*i_*ssp*svm - 1.6E+1*P_P*P_l*
      l_l*l_qp*i_*svp*ssm - 1.6E+1*P_P*P_qm*pow(l_l,2)*i_*ssp*svm + 
      1.6E+1*P_P*P_qp*pow(l_l,2)*i_*svp*ssm + 1.6E+1*pow(P_l,2)*P_qm*
      l_l*i_*ssp*svm - 1.6E+1*pow(P_l,2)*P_qp*l_l*i_*svp*ssm - 1.6E+1*
      pow(P_l,3)*l_qm*i_*ssp*svm + 1.6E+1*pow(P_l,3)*l_qp*i_*svp*ssm;
 
    kern[9][3] = (1.0/ denom)* kern[9][3]; 
    kern[9][4] =   - 8.E+0*P_P*P_l*P_qm*P_qp*l_l*svp*svm + 2.4E+1*P_P*
      pow(P_l,2)*P_qm*l_qp*svp*svm + 2.4E+1*P_P*pow(P_l,2)*P_qp*l_qm*
      svp*svm - 8.E+0*P_P*pow(P_l,3)*qm_qp*svp*svm + 8.E+0*pow(P_P,2)*
      P_l*l_l*qm_qp*svp*svm - 2.4E+1*pow(P_P,2)*P_l*l_qm*l_qp*svp*svm
       - 1.6E+1*pow(P_l,3)*P_qm*P_qp*svp*svm;
 
    kern[9][4] = (1.0/ denom)* kern[9][4]; 
    kern[9][5] =  8.E+0*P_P*pow(P_l,3)*P_qm*l_l*ssp*svm - 8.E+0*P_P*
      pow(P_l,3)*P_qp*l_l*svp*ssm + 8.E+0*P_P*pow(P_l,4)*l_qm*ssp*svm
       - 8.E+0*P_P*pow(P_l,4)*l_qp*svp*ssm - 8.E+0*pow(P_P,2)*pow(
      P_l,2)*l_l*l_qm*ssp*svm + 8.E+0*pow(P_P,2)*pow(P_l,2)*l_l*l_qp*
      svp*ssm - 8.E+0*pow(P_l,5)*P_qm*ssp*svm + 8.E+0*pow(P_l,5)*P_qp*
      svp*ssm;
 
    kern[9][5] = (1.0/ denom)* kern[9][5]; 
    kern[9][6] =   0;
 
    kern[9][6] = (1.0/ denom)* kern[9][6]; 
    kern[9][7] =   - 8.E+0*P_P*P_l*P_qm*l_l*l_qp*svp*svm + 8.E+0*P_P*
      P_l*P_qp*l_l*l_qm*svp*svm + 8.E+0*pow(P_l,3)*P_qm*l_qp*svp*svm - 
      8.E+0*pow(P_l,3)*P_qp*l_qm*svp*svm;
 
    kern[9][7] = (1.0/ denom)* kern[9][7]; 
    kern[9][8] =   - 8.E+0*P_P*pow(P_l,2)*P_qm*l_l*ssp*svm - 8.E+0*P_P*
      pow(P_l,2)*P_qp*l_l*svp*ssm - 8.E+0*P_P*pow(P_l,3)*l_qm*ssp*svm
       - 8.E+0*P_P*pow(P_l,3)*l_qp*svp*ssm + 8.E+0*pow(P_P,2)*P_l*l_l*
      l_qm*ssp*svm + 8.E+0*pow(P_P,2)*P_l*l_l*l_qp*svp*ssm + 8.E+0*pow(
      P_l,4)*P_qm*ssp*svm + 8.E+0*pow(P_l,4)*P_qp*svp*ssm;
 
    kern[9][8] = (1.0/ denom)* kern[9][8]; 
    kern[9][9] =  8.E+0*P_P*pow(P_l,2)*P_qm*l_l*l_qp*svp*svm + 8.E+0*
      P_P*pow(P_l,2)*P_qp*l_l*l_qm*svp*svm - 1.6E+1*P_P*pow(P_l,3)*l_l*
      qm_qp*svp*svm - 1.6E+1*P_P*pow(P_l,3)*l_l*ssp*ssm + 1.6E+1*P_P*
      pow(P_l,3)*l_qm*l_qp*svp*svm - 1.6E+1*pow(P_P,2)*P_l*l_l*l_qm*
      l_qp*svp*svm + 8.E+0*pow(P_P,2)*P_l*pow(l_l,2)*qm_qp*svp*svm + 
      8.E+0*pow(P_P,2)*P_l*pow(l_l,2)*ssp*ssm - 8.E+0*pow(P_l,4)*P_qm*
      l_qp*svp*svm - 8.E+0*pow(P_l,4)*P_qp*l_qm*svp*svm + 8.E+0*pow(
      P_l,5)*qm_qp*svp*svm + 8.E+0*pow(P_l,5)*ssp*ssm;
 
    kern[9][9] = (1.0/ denom)* kern[9][9]; 
    kern[9][10] =  8.E+0*P_P*pow(P_l,2)*P_qm*l_l*l_qp*svp*svm + 8.E+0*
      P_P*pow(P_l,2)*P_qp*l_l*l_qm*svp*svm + 8.E+0*P_P*pow(P_l,3)*l_l*
      qm_qp*svp*svm - 2.4E+1*P_P*pow(P_l,3)*l_qm*l_qp*svp*svm - 2.4E+1*
      pow(P_l,3)*P_qm*P_qp*l_l*svp*svm + 1.6E+1*pow(P_l,4)*P_qm*l_qp*
      svp*svm + 1.6E+1*pow(P_l,4)*P_qp*l_qm*svp*svm - 8.E+0*pow(P_l,5)*
      qm_qp*svp*svm;
 
    kern[9][10] = (1.0/ denom)* kern[9][10]; 
    kern[9][11] =  8.E+0*P_P*P_l*P_qm*pow(l_l,2)*ssp*svm - 8.E+0*P_P*
      P_l*P_qp*pow(l_l,2)*svp*ssm - 8.E+0*P_P*pow(P_l,2)*l_l*l_qm*ssp*
      svm + 8.E+0*P_P*pow(P_l,2)*l_l*l_qp*svp*ssm - 8.E+0*pow(P_l,3)*
      P_qm*l_l*ssp*svm + 8.E+0*pow(P_l,3)*P_qp*l_l*svp*ssm + 8.E+0*pow(
      P_l,4)*l_qm*ssp*svm - 8.E+0*pow(P_l,4)*l_qp*svp*ssm;
 
    kern[9][11] = (1.0/ denom)* kern[9][11]; 

    denom =  - 1.6E+1*P_P*pow(P_l,3)*l_l + 8.E+0*pow(P_P,2)*P_l*pow(
      l_l,2) + 8.E+0*pow(P_l,5);

    kern[10][0] =  8.E+0*P_P*P_l*l_l*qm_qp*svp*svm - 2.4E+1*P_P*P_l*
      l_qm*l_qp*svp*svm + 8.E+0*P_P*P_qm*l_l*l_qp*svp*svm + 8.E+0*P_P*
      P_qp*l_l*l_qm*svp*svm - 2.4E+1*P_l*P_qm*P_qp*l_l*svp*svm + 1.6E+1
      *pow(P_l,2)*P_qm*l_qp*svp*svm + 1.6E+1*pow(P_l,2)*P_qp*l_qm*svp*
      svm - 8.E+0*pow(P_l,3)*qm_qp*svp*svm;
 
    kern[10][0] = (1.0/ denom)* kern[10][0]; 
    kern[10][1] =   - 1.6E+1*P_P*P_l*l_l*l_qm*l_qp*svp*svm + 8.E+0*P_P*
      P_qm*pow(l_l,2)*l_qp*svp*svm + 8.E+0*P_P*P_qp*pow(l_l,2)*l_qm*svp
      *svm - 8.E+0*pow(P_l,2)*P_qm*l_l*l_qp*svp*svm - 8.E+0*pow(P_l,2)*
      P_qp*l_l*l_qm*svp*svm + 1.6E+1*pow(P_l,3)*l_qm*l_qp*svp*svm;
 
    kern[10][1] = (1.0/ denom)* kern[10][1]; 
    kern[10][2] =   - 8.E+0*P_P*P_l*l_l*l_qm*ssp*svm - 8.E+0*P_P*P_l*
      l_l*l_qp*svp*ssm + 8.E+0*P_P*P_qm*pow(l_l,2)*ssp*svm + 8.E+0*P_P*
      P_qp*pow(l_l,2)*svp*ssm - 8.E+0*pow(P_l,2)*P_qm*l_l*ssp*svm - 
      8.E+0*pow(P_l,2)*P_qp*l_l*svp*ssm + 8.E+0*pow(P_l,3)*l_qm*ssp*svm
       + 8.E+0*pow(P_l,3)*l_qp*svp*ssm;
 
    kern[10][2] = (1.0/ denom)* kern[10][2]; 
    kern[10][3] =   0;
 
    kern[10][3] = (1.0/ denom)* kern[10][3]; 
    kern[10][4] =   - 2.4E+1*P_P*P_l*P_qm*P_qp*l_l*svp*svm + 1.6E+1*P_P
      *pow(P_l,2)*P_qm*l_qp*svp*svm + 1.6E+1*P_P*pow(P_l,2)*P_qp*l_qm*
      svp*svm - 8.E+0*P_P*pow(P_l,3)*qm_qp*svp*svm + 8.E+0*pow(P_P,2)*
      P_l*l_l*qm_qp*svp*svm - 2.4E+1*pow(P_P,2)*P_l*l_qm*l_qp*svp*svm
       + 8.E+0*pow(P_P,2)*P_qm*l_l*l_qp*svp*svm + 8.E+0*pow(P_P,2)*P_qp
      *l_l*l_qm*svp*svm;
 
    kern[10][4] = (1.0/ denom)* kern[10][4]; 
    kern[10][5] =   0;
 
    kern[10][5] = (1.0/ denom)* kern[10][5]; 
    kern[10][6] =   - 8.E+0*P_P*P_l*P_qm*l_l*ssp*svm + 8.E+0*P_P*P_l*
      P_qp*l_l*svp*ssm - 8.E+0*P_P*pow(P_l,2)*l_qm*ssp*svm + 8.E+0*P_P*
      pow(P_l,2)*l_qp*svp*ssm + 8.E+0*pow(P_P,2)*l_l*l_qm*ssp*svm - 
      8.E+0*pow(P_P,2)*l_l*l_qp*svp*ssm + 8.E+0*pow(P_l,3)*P_qm*ssp*svm
       - 8.E+0*pow(P_l,3)*P_qp*svp*ssm;
 
    kern[10][6] = (1.0/ denom)* kern[10][6]; 
    kern[10][7] =   - 8.E+0*P_P*P_l*P_qm*l_l*l_qp*svp*svm + 8.E+0*P_P*
      P_l*P_qp*l_l*l_qm*svp*svm + 8.E+0*pow(P_l,3)*P_qm*l_qp*svp*svm - 
      8.E+0*pow(P_l,3)*P_qp*l_qm*svp*svm;
 
    kern[10][7] = (1.0/ denom)* kern[10][7]; 
    kern[10][8] =  8.E+0*P_P*pow(P_l,2)*P_qm*l_l*ssp*svm + 8.E+0*P_P*
      pow(P_l,2)*P_qp*l_l*svp*ssm - 8.E+0*P_P*pow(P_l,3)*l_qm*ssp*svm
       - 8.E+0*P_P*pow(P_l,3)*l_qp*svp*ssm + 8.E+0*pow(P_P,2)*P_l*l_l*
      l_qm*ssp*svm + 8.E+0*pow(P_P,2)*P_l*l_l*l_qp*svp*ssm - 8.E+0*pow(
      P_P,2)*P_qm*pow(l_l,2)*ssp*svm - 8.E+0*pow(P_P,2)*P_qp*pow(l_l,2)
      *svp*ssm;
 
    kern[10][8] = (1.0/ denom)* kern[10][8]; 
    kern[10][9] =   - 8.E+0*P_P*pow(P_l,2)*P_qm*l_l*l_qp*svp*svm - 
      8.E+0*P_P*pow(P_l,2)*P_qp*l_l*l_qm*svp*svm + 1.6E+1*P_P*pow(
      P_l,3)*l_qm*l_qp*svp*svm - 1.6E+1*pow(P_P,2)*P_l*l_l*l_qm*l_qp*
      svp*svm + 8.E+0*pow(P_P,2)*P_qm*pow(l_l,2)*l_qp*svp*svm + 8.E+0*
      pow(P_P,2)*P_qp*pow(l_l,2)*l_qm*svp*svm;
 
    kern[10][9] = (1.0/ denom)* kern[10][9]; 
    kern[10][10] =   - 1.6E+1*P_P*P_l*P_qm*P_qp*pow(l_l,2)*svp*svm + 
      1.6E+1*P_P*pow(P_l,2)*P_qm*l_l*l_qp*svp*svm + 1.6E+1*P_P*pow(
      P_l,2)*P_qp*l_l*l_qm*svp*svm - 8.E+0*P_P*pow(P_l,3)*l_l*qm_qp*svp
      *svm - 1.6E+1*P_P*pow(P_l,3)*l_l*ssp*ssm - 2.4E+1*P_P*pow(P_l,3)*
      l_qm*l_qp*svp*svm + 8.E+0*pow(P_P,2)*P_l*pow(l_l,2)*qm_qp*svp*svm
       + 8.E+0*pow(P_P,2)*P_l*pow(l_l,2)*ssp*ssm - 8.E+0*pow(P_l,3)*
      P_qm*P_qp*l_l*svp*svm + 8.E+0*pow(P_l,4)*P_qm*l_qp*svp*svm + 
      8.E+0*pow(P_l,4)*P_qp*l_qm*svp*svm + 8.E+0*pow(P_l,5)*ssp*ssm;
 
    kern[10][10] = (1.0/ denom)* kern[10][10]; 
    kern[10][11] =   - 1.6E+1*P_P*pow(P_l,2)*l_l*l_qm*ssp*svm + 1.6E+1*
      P_P*pow(P_l,2)*l_l*l_qp*svp*ssm + 8.E+0*pow(P_P,2)*pow(l_l,2)*
      l_qm*ssp*svm - 8.E+0*pow(P_P,2)*pow(l_l,2)*l_qp*svp*ssm + 8.E+0*
      pow(P_l,4)*l_qm*ssp*svm - 8.E+0*pow(P_l,4)*l_qp*svp*ssm;
 
    kern[10][11] = (1.0/ denom)* kern[10][11]; 

    denom =  - 3.2E+1*P_P*pow(P_l,2)*l_l + 1.6E+1*pow(P_P,2)*pow(l_l,2)
       + 1.6E+1*pow(P_l,4);

    kern[11][0] =   0;
 
    kern[11][0] = (1.0/ denom)* kern[11][0]; 
    kern[11][1] =  1.6E+1*P_P*P_l*l_l*l_qm*ssp*svm - 1.6E+1*P_P*P_l*l_l
      *l_qp*svp*ssm - 1.6E+1*P_P*P_qm*pow(l_l,2)*ssp*svm + 1.6E+1*P_P*
      P_qp*pow(l_l,2)*svp*ssm + 1.6E+1*pow(P_l,2)*P_qm*l_l*ssp*svm - 
      1.6E+1*pow(P_l,2)*P_qp*l_l*svp*ssm - 1.6E+1*pow(P_l,3)*l_qm*ssp*
      svm + 1.6E+1*pow(P_l,3)*l_qp*svp*ssm;
 
    kern[11][1] = (1.0/ denom)* kern[11][1]; 
    kern[11][2] =  1.6E+1*P_P*P_qm*l_l*l_qp*svp*svm - 1.6E+1*P_P*P_qp*
      l_l*l_qm*svp*svm - 1.6E+1*pow(P_l,2)*P_qm*l_qp*svp*svm + 1.6E+1*
      pow(P_l,2)*P_qp*l_qm*svp*svm;
 
    kern[11][2] = (1.0/ denom)* kern[11][2]; 
    kern[11][3] =  3.2E+1*P_P*P_l*l_l*qm_qp*i_*svp*svm - 9.6E+1*P_P*P_l
      *l_qm*l_qp*i_*svp*svm + 3.2E+1*P_P*P_qm*l_l*l_qp*i_*svp*svm + 
      3.2E+1*P_P*P_qp*l_l*l_qm*i_*svp*svm - 9.6E+1*P_l*P_qm*P_qp*l_l*i_
      *svp*svm + 6.4E+1*pow(P_l,2)*P_qm*l_qp*i_*svp*svm + 6.4E+1*pow(
      P_l,2)*P_qp*l_qm*i_*svp*svm - 3.2E+1*pow(P_l,3)*qm_qp*i_*svp*svm;
 
    kern[11][3] = (1.0/ denom)* kern[11][3]; 
    kern[11][4] =   0;
 
    kern[11][4] = (1.0/ denom)* kern[11][4]; 
    kern[11][5] =  4.8E+1*P_P*pow(P_l,2)*P_qm*P_qp*l_l*svp*svm - 3.2E+1
      *P_P*pow(P_l,3)*P_qm*l_qp*svp*svm - 3.2E+1*P_P*pow(P_l,3)*P_qp*
      l_qm*svp*svm + 1.6E+1*P_P*pow(P_l,4)*qm_qp*svp*svm - 1.6E+1*pow(
      P_P,2)*P_l*P_qm*l_l*l_qp*svp*svm - 1.6E+1*pow(P_P,2)*P_l*P_qp*l_l
      *l_qm*svp*svm - 1.6E+1*pow(P_P,2)*pow(P_l,2)*l_l*qm_qp*svp*svm + 
      4.8E+1*pow(P_P,2)*pow(P_l,2)*l_qm*l_qp*svp*svm;
 
    kern[11][5] = (1.0/ denom)* kern[11][5]; 
    kern[11][6] =   - 4.8E+1*P_P*P_l*P_qm*l_qp*svp*svm - 4.8E+1*P_P*P_l
      *P_qp*l_qm*svp*svm + 1.6E+1*P_P*pow(P_l,2)*qm_qp*svp*svm + 1.6E+1
      *P_P*P_qm*P_qp*l_l*svp*svm - 1.6E+1*pow(P_P,2)*l_l*qm_qp*svp*svm
       + 4.8E+1*pow(P_P,2)*l_qm*l_qp*svp*svm + 3.2E+1*pow(P_l,2)*P_qm*
      P_qp*svp*svm;
 
    kern[11][6] = (1.0/ denom)* kern[11][6]; 
    kern[11][7] =  1.6E+1*P_P*P_l*P_qm*l_l*ssp*svm + 1.6E+1*P_P*P_l*
      P_qp*l_l*svp*ssm + 1.6E+1*P_P*pow(P_l,2)*l_qm*ssp*svm + 1.6E+1*
      P_P*pow(P_l,2)*l_qp*svp*ssm - 1.6E+1*pow(P_P,2)*l_l*l_qm*ssp*svm
       - 1.6E+1*pow(P_P,2)*l_l*l_qp*svp*ssm - 1.6E+1*pow(P_l,3)*P_qm*
      ssp*svm - 1.6E+1*pow(P_l,3)*P_qp*svp*ssm;
 
    kern[11][7] = (1.0/ denom)* kern[11][7]; 
    kern[11][8] =  1.6E+1*P_P*pow(P_l,2)*P_qm*l_qp*svp*svm - 1.6E+1*P_P
      *pow(P_l,2)*P_qp*l_qm*svp*svm - 1.6E+1*pow(P_P,2)*P_qm*l_l*l_qp*
      svp*svm + 1.6E+1*pow(P_P,2)*P_qp*l_l*l_qm*svp*svm;
 
    kern[11][8] = (1.0/ denom)* kern[11][8]; 
    kern[11][9] =  1.6E+1*P_P*pow(P_l,2)*P_qm*l_l*ssp*svm - 1.6E+1*P_P*
      pow(P_l,2)*P_qp*l_l*svp*ssm - 1.6E+1*P_P*pow(P_l,3)*l_qm*ssp*svm
       + 1.6E+1*P_P*pow(P_l,3)*l_qp*svp*ssm + 1.6E+1*pow(P_P,2)*P_l*l_l
      *l_qm*ssp*svm - 1.6E+1*pow(P_P,2)*P_l*l_l*l_qp*svp*ssm - 1.6E+1*
      pow(P_P,2)*P_qm*pow(l_l,2)*ssp*svm + 1.6E+1*pow(P_P,2)*P_qp*pow(
      l_l,2)*svp*ssm;
 
    kern[11][9] = (1.0/ denom)* kern[11][9]; 
    kern[11][10] =  1.6E+1*P_P*pow(P_l,2)*P_qm*l_l*ssp*svm - 1.6E+1*P_P
      *pow(P_l,2)*P_qp*l_l*svp*ssm + 1.6E+1*P_P*pow(P_l,3)*l_qm*ssp*svm
       - 1.6E+1*P_P*pow(P_l,3)*l_qp*svp*ssm - 1.6E+1*pow(P_P,2)*P_l*l_l
      *l_qm*ssp*svm + 1.6E+1*pow(P_P,2)*P_l*l_l*l_qp*svp*ssm - 1.6E+1*
      pow(P_l,4)*P_qm*ssp*svm + 1.6E+1*pow(P_l,4)*P_qp*svp*ssm;
 
    kern[11][10] = (1.0/ denom)* kern[11][10]; 
    kern[11][11] =   - 4.8E+1*P_P*P_l*P_qm*l_l*l_qp*svp*svm - 4.8E+1*
      P_P*P_l*P_qp*l_l*l_qm*svp*svm + 1.6E+1*P_P*pow(P_l,2)*l_l*qm_qp*
      svp*svm - 3.2E+1*P_P*pow(P_l,2)*l_l*ssp*ssm + 1.6E+1*P_P*pow(
      P_l,2)*l_qm*l_qp*svp*svm + 3.2E+1*P_P*P_qm*P_qp*pow(l_l,2)*svp*
      svm + 3.2E+1*pow(P_P,2)*l_l*l_qm*l_qp*svp*svm - 1.6E+1*pow(P_P,2)
      *pow(l_l,2)*qm_qp*svp*svm + 1.6E+1*pow(P_P,2)*pow(l_l,2)*ssp*ssm
       + 1.6E+1*pow(P_l,2)*P_qm*P_qp*l_l*svp*svm + 1.6E+1*pow(P_l,4)*
      ssp*ssm;
 
    kern[11][11] = (1.0/ denom)* kern[11][11]; 


}


void kernelL_qphv(matCdoub& kern,
              const ArrayScalarProducts& sp,
              const array<Cdoub, K_ORDER_OF_ANGLE>& ang ){


    // local variables
    array<Cdoub, 91> w;
    Cdoub denom;


    w[1]=P_P;
    w[2]=p_p;
    w[3]=P_p;
    w[4]=P_l;
    w[5]=l_l;
   w[6]=w[2]*ang0;
   w[7]=3.E+0*w[6];
   w[8]=w[5]*ang0;
   w[9]=w[8] - ang1;
   w[10]=w[7] + w[9];
   w[10]=w[10]*w[4];
   w[11]=2.E+0*ang1;
   w[12]=w[11] - w[8];
   w[13]=w[12] - w[6];
   w[14]=w[13]*w[3];
   w[10]=w[10] + w[14];
   w[10]=w[10]*w[3];
   w[14]=2.E+0*w[6];
   w[15]=pow(w[4],2);
   w[16]=w[14]*w[15];
   w[10]=w[10] - w[16];
   w[17]=w[1]*w[2];
   w[18]=ang1*w[17];
   w[18]=w[18] - w[10];
   w[18]=4.E+0*w[18];
   w[19]=3.E+0*ang1;
   w[20]=w[19] - w[6];
   w[21]=w[20]*w[2];
   w[22]=w[8] + ang1;
   w[23]=w[22]*w[5];
   w[24]=2.E+0*ang2;
   w[23]=w[23] - w[24];
   w[21]=w[21] + w[23];
   w[25]=w[3]*w[4];
   w[26]=w[21]*w[25];
   w[27]=w[6] - w[8];
   w[28]=w[27] - w[11];
   w[29]=w[28]*w[15];
   w[30]=2.E+0*w[2];
   w[31]=w[29]*w[30];
   w[26]=w[31] + w[26];
   w[31]= - 2.E+0*w[26];
   w[32]=w[3]*ang0;
   w[33]=2.E+0*ang0;
   w[34]=w[33]*w[4];
   w[32]=w[32] - w[34];
   w[32]=w[32]*w[3];
   w[34]=w[15]*ang0;
   w[32]=w[32] + w[34];
   w[34]=2.E+0*w[3];
   w[35]= - w[32]*w[34];
   w[36]=w[9] - w[6];
   w[37]=w[4] - w[3];
   w[37]=w[1]*w[36]*w[37];
   w[35]=w[35] + w[37];
   w[35]=4.E+0*w[35];
   w[37]=w[27] - ang1;
   w[37]=w[37]*w[25];
   w[37]=w[37] - w[29];
   w[38]= - w[37]*w[34];
   w[39]=2.E+0*w[8];
   w[40]=w[39] - ang1;
   w[41]=w[40] - w[6];
   w[41]=w[41]*w[2];
   w[41]=w[41] - w[23];
   w[42]= - w[41]*w[1]*w[4];
   w[38]=w[38] + w[42];
   w[38]=2.E+0*w[38];
   w[42]=1.2E+1*ang1;
   w[43]=w[4]*w[42];
   w[44]=w[40] + w[14];
   w[45]=w[4]*w[44];
   w[46]= - w[3]*w[39];
   w[45]=w[45] + w[46];
   w[45]=w[3]*w[45];
   w[16]= - w[16] + w[45];
   w[45]=w[6] - ang1;
   w[46]=w[45] - w[39];
   w[46]=w[46]*w[2];
   w[47]=w[9]*w[5];
   w[46]=w[46] + w[47];
   w[48]= - w[1]*w[46];
   w[16]=2.E+0*w[16] + w[48];
   w[16]=8.E+0*w[16];
   w[48]=w[6] + 2.E+0*w[40];
   w[48]=w[48]*w[2];
   w[12]=w[12]*w[5];
   w[12]=w[12] - ang2;
   w[48]=w[48] - w[12];
   w[48]=w[48]*w[3];
   w[49]=w[9] + w[6];
   w[50]=w[4]*w[2];
   w[51]=6.E+0*w[50];
   w[49]=w[49]*w[51];
   w[48]=w[48] - w[49];
   w[48]=w[48]*w[3];
   w[49]=pow(w[2],2);
   w[52]=w[49]*w[15];
   w[53]=6.E+0*ang0;
   w[54]=w[53]*w[52];
   w[48]=w[48] + w[54];
   w[54]=2.E+0*w[22];
   w[55]=w[54] - w[6];
   w[55]=w[55]*w[2];
   w[55]=w[55] + w[12];
   w[55]=w[55]*w[17];
   w[48]= - w[55] + 2.E+0*w[48];
   w[55]=2.E+0*w[48];
   w[56]=4.E+0*ang1;
   w[57]=3.E+0*w[8];
   w[58]=w[56] - w[57];
   w[59]=w[58] - w[6];
   w[59]=w[59]*w[2];
   w[60]=8.E+0*ang1;
   w[61]=w[60] + w[57];
   w[61]=w[61]*w[5];
   w[62]=5.E+0*ang2;
   w[59]= - w[62] + w[59] + w[61];
   w[59]=w[59]*w[2];
   w[61]=3.E+0*ang2;
   w[63]=pow(w[5],2);
   w[64]=w[63]*ang0;
   w[65]=w[61] - w[64];
   w[66]=w[65]*w[5];
   w[59]=w[59] - w[66];
   w[59]=w[59]*w[3];
   w[51]= - w[21]*w[51];
   w[51]=w[51] + w[59];
   w[51]=w[3]*w[51];
   w[29]=w[29]*w[49];
   w[67]=pow(w[3],2);
   w[68]=w[67]*ang3;
   w[68]=2.E+0*w[68];
   w[51]=w[68] - 6.E+0*w[29] + w[51];
   w[69]=w[56] + w[57];
   w[70]=w[69] - w[6];
   w[70]=w[70]*w[2];
   w[69]=w[69]*w[5];
   w[70]=w[70] - w[69] - w[62];
   w[70]=w[70]*w[2];
   w[66]=w[70] - w[66];
   w[66]=w[66]*w[2];
   w[70]=w[30]*ang3;
   w[66]=w[66] + w[70];
   w[66]=w[66]*w[1];
   w[51]=2.E+0*w[51] + w[66];
   w[70]=w[11] + w[8];
   w[71]= - w[6] + 2.E+0*w[70];
   w[71]=w[71]*w[2];
   w[72]=w[71] - w[12];
   w[72]=w[3]*w[72];
   w[73]=4.E+0*w[50];
   w[74]= - w[9]*w[73];
   w[72]=w[74] + w[72];
   w[72]=w[3]*w[72];
   w[74]=w[33]*w[52];
   w[72]=w[74] + w[72];
   w[74]= - w[19] - w[8];
   w[74]=2.E+0*w[74] + w[6];
   w[74]=w[2]*w[74];
   w[74]=w[74] - w[12];
   w[74]=w[74]*w[17];
   w[72]=2.E+0*w[72] + w[74];
   w[72]=w[1]*w[72];
   w[74]=4.E+0*w[67];
   w[10]= - w[10]*w[74];
   w[10]=w[10] + w[72];
   w[10]=2.E+0*w[10];
   w[72]=w[21]*w[73];
   w[59]= - w[72] + w[59];
   w[59]=w[3]*w[59];
   w[29]=w[68] - 2.E+0*w[29] + w[59];
   w[29]=2.E+0*w[29] + w[66];
   w[29]=w[1]*w[29];
   w[26]= - w[26]*w[74];
   w[26]=w[26] + w[29];
   w[29]=w[30]*w[15];
   w[58]= - w[7] + w[58];
   w[58]=w[58]*w[29];
   w[59]= - w[19] + w[8];
   w[59]=w[5]*w[59];
   w[66]=4.E+0*w[8];
   w[20]=w[66] - w[20];
   w[20]=w[2]*w[20];
   w[20]=w[20] + w[24] + w[59];
   w[20]=w[20]*w[25];
   w[20]=w[58] + w[20];
   w[20]=w[3]*w[20];
   w[24]=pow(w[4],3);
   w[58]=w[24]*w[49];
   w[53]=w[58]*w[53];
   w[20]=w[53] + w[20];
   w[20]=w[20]*w[34];
   w[34]= - w[56]*w[52];
   w[52]=w[39] - w[6];
   w[52]=w[52]*w[2];
   w[52]=w[52] - w[64] + ang2;
   w[52]=w[52]*w[50];
   w[53]= - w[3]*w[52];
   w[34]=w[34] + w[53];
   w[34]=w[1]*w[34];
   w[20]=w[20] + w[34];
   w[20]=2.E+0*w[20];
   w[34]=8.E+0*i_;
   w[48]=w[48]*w[34];
   w[53]= - w[13]*w[29];
   w[59]= - w[14] + w[19] + w[39];
   w[59]=w[2]*w[59];
   w[19]=w[19] - w[39];
   w[68]=w[5]*w[19];
   w[59]=w[59] - ang2 + w[68];
   w[59]=w[59]*w[25];
   w[53]=w[53] + w[59];
   w[53]=w[3]*w[53];
   w[33]= - w[33]*w[58];
   w[33]=w[33] + w[53];
   w[52]= - w[1]*w[52];
   w[33]=2.E+0*w[33] + w[52];
   w[33]=w[1]*w[33];
   w[52]=w[44]*w[15];
   w[53]= - w[39]*w[25];
   w[52]=w[52] + w[53];
   w[52]=w[3]*w[52];
   w[53]= - w[24]*w[14];
   w[52]=w[53] + w[52];
   w[52]=w[52]*w[74];
   w[33]=w[52] + w[33];
   w[33]=4.E+0*w[33];
   w[52]=w[54] + w[6];
   w[52]=w[52]*w[2];
   w[53]=3.E+0*w[12];
   w[52]=w[52] + w[53];
   w[54]=w[52]*w[3];
   w[59]=w[36]*w[73];
   w[54]=w[54] + w[59];
   w[54]=w[54]*w[1];
   w[40]=w[40] + w[6];
   w[59]=w[40]*w[3];
   w[68]=w[14] + w[9];
   w[75]=2.E+0*w[4];
   w[76]=w[68]*w[75];
   w[59]=w[59] - w[76];
   w[59]=w[59]*w[3];
   w[76]=w[7]*w[15];
   w[59]=w[59] + w[76];
   w[76]=4.E+0*w[3];
   w[59]=w[59]*w[76];
   w[54]=w[54] - w[59];
   w[59]=4.E+0*w[54];
   w[66]=w[66] + w[45];
   w[66]=w[2]*w[66];
   w[66]=w[47] + w[66];
   w[66]=w[66]*w[75];
   w[77]=w[57] - w[11];
   w[78]= - w[5]*w[77];
   w[79]= - w[2]*w[57];
   w[78]=w[78] + w[79];
   w[78]=w[3]*w[78];
   w[66]=w[66] + w[78];
   w[66]=w[3]*w[66];
   w[78]=w[6] + w[8];
   w[79]=w[15]*w[2];
   w[80]=3.E+0*w[79];
   w[78]= - w[78]*w[80];
   w[66]=w[78] + w[66];
   w[66]=w[66]*w[76];
   w[78]=3.E+0*w[28];
   w[78]= - w[2]*w[78];
   w[69]=w[78] - w[61] + w[69];
   w[69]=w[2]*w[69];
   w[78]=3.E+0*w[5];
   w[80]=w[12]*w[78];
   w[69]=w[80] + w[69];
   w[69]=w[3]*w[69];
   w[46]=w[46]*w[73];
   w[46]=w[46] + w[69];
   w[46]=w[1]*w[46];
   w[46]=w[66] + w[46];
   w[46]=2.E+0*w[46];
   w[66]=w[30]*w[4];
   w[69]= - w[27]*w[66];
   w[45]=w[45]*w[2];
   w[45]=w[45] - w[47];
   w[47]=w[3]*w[45];
   w[47]=w[69] + w[47];
   w[47]=1.6E+1*i_*w[47];
   w[69]=w[27]*w[29];
   w[45]= - w[45]*w[25];
   w[45]=w[69] + w[45];
   w[45]=8.E+0*w[1]*w[45];
   w[69]=w[15]*w[6];
   w[81]=w[4]*w[14];
   w[82]= - w[3]*w[6];
   w[81]=w[81] + w[82];
   w[81]=w[3]*w[81];
   w[81]= - w[69] + w[81];
   w[82]= - 2.E+0*w[9] + w[6];
   w[82]=w[2]*w[82];
   w[82]=w[82] - w[12];
   w[82]=w[1]*w[82];
   w[81]=4.E+0*w[81] + w[82];
   w[81]=4.E+0*w[81];
   w[27]=w[27]*w[79];
   w[82]=w[8]*w[2];
   w[83]=w[64] - w[82];
   w[83]=w[83]*w[67];
   w[27]=w[27] + w[83];
   w[83]=3.E+0*ang0;
   w[63]= - w[63]*w[83];
   w[83]=w[11] - w[6];
   w[84]=w[57] + w[83];
   w[84]=w[2]*w[84];
   w[63]=w[84] - ang2 + w[63];
   w[63]=w[2]*w[63];
   w[12]= - w[5]*w[12];
   w[12]=w[12] + w[63];
   w[12]=w[1]*w[12];
   w[12]=4.E+0*w[27] + w[12];
   w[12]=2.E+0*w[12];
   w[27]=w[4]*w[13];
   w[63]=w[8]*w[3];
   w[27]=w[27] + w[63];
   w[27]=w[3]*w[27];
   w[27]=w[69] + w[27];
   w[84]=w[56] - w[8];
   w[85]=w[84]*w[5];
   w[61]= - w[71] + w[61] - w[85];
   w[61]=w[1]*w[61];
   w[27]=4.E+0*w[27] + w[61];
   w[27]=1.2E+1*w[27];
   w[50]= - w[11]*w[50];
   w[61]=w[5] + w[2];
   w[61]=ang1*w[61];
   w[61]=w[61] - ang2;
   w[71]=w[3]*w[61];
   w[50]=w[50] + w[71];
   w[50]=6.E+0*w[50];
   w[11]=w[4]*w[67]*w[11];
   w[71]=w[1]*w[3];
   w[86]= - w[61]*w[71];
   w[11]=w[11] + w[86];
   w[11]=6.E+0*w[11];
   w[86]=2.E+0*w[54];
   w[87]=2.E+0*w[5];
   w[22]=w[22]*w[87];
   w[87]=w[13]*w[2];
   w[87]=w[87] - ang2;
   w[22]=w[22] + w[87];
   w[22]=w[22]*w[3];
   w[88]=w[56] + w[8];
   w[89]= - w[14] + w[88];
   w[89]=w[2]*w[89];
   w[89]=w[89] + w[23];
   w[89]=w[89]*w[75];
   w[89]=w[89] - w[22];
   w[89]=w[3]*w[89];
   w[28]=w[79]*w[28];
   w[90]=3.E+0*w[28];
   w[89]=w[90] + w[89];
   w[89]=w[89]*w[76];
   w[56]= - w[56] + 5.E+0*w[8];
   w[56]=w[56]*w[5];
   w[88]=w[88] + w[6];
   w[88]=w[88]*w[2];
   w[56]= - w[56] + w[88] - 1.1E+1*ang2;
   w[56]=w[56]*w[2];
   w[65]=w[65]*w[78];
   w[56]=w[56] - w[65];
   w[56]=w[56]*w[3];
   w[88]=ang3*w[3];
   w[88]=6.E+0*w[88];
   w[56]=w[56] + w[88];
   w[41]= - w[41]*w[73];
   w[41]=w[41] - w[56];
   w[41]=w[1]*w[41];
   w[41]=w[89] + w[41];
   w[73]= - w[6] + 3.E+0*w[9];
   w[73]=w[73]*w[4];
   w[14]=w[77] - w[14];
   w[14]=w[14]*w[3];
   w[14]=w[73] - w[14];
   w[14]=w[14]*w[3];
   w[14]=w[14] - w[69];
   w[69]=w[14]*w[76];
   w[73]=w[57] - ang1;
   w[73]= - w[7] + 2.E+0*w[73];
   w[73]=w[73]*w[2];
   w[53]=w[73] + w[53];
   w[73]=w[53]*w[71];
   w[69]=w[69] + w[73];
   w[69]=w[1]*w[69];
   w[32]=8.E+0*w[32];
   w[73]=pow(w[3],3);
   w[77]= - w[73]*w[32];
   w[69]=w[77] + w[69];
   w[69]=2.E+0*w[69];
   w[77]= - w[6] + 7.E+0*ang1 - w[39];
   w[77]=w[2]*w[77];
   w[23]=3.E+0*w[23] + w[77];
   w[23]=w[4]*w[23];
   w[22]=w[23] - w[22];
   w[22]=w[3]*w[22];
   w[22]=w[28] + w[22];
   w[22]=w[22]*w[76];
   w[23]= - w[1]*w[56];
   w[22]=w[22] + w[23];
   w[22]=w[1]*w[22];
   w[23]=8.E+0*w[73];
   w[23]= - w[37]*w[23];
   w[22]=w[23] + w[22];
   w[23]=w[40]*w[25];
   w[28]=w[68]*w[15];
   w[23]= - w[23] + 2.E+0*w[28];
   w[23]=w[23]*w[3];
   w[28]=w[24]*w[7];
   w[23]=w[23] - w[28];
   w[28]=w[23]*w[74];
   w[37]=w[52]*w[25];
   w[40]=4.E+0*w[79];
   w[36]=w[40]*w[36];
   w[36]=w[37] + w[36];
   w[37]=w[36]*w[71];
   w[28]=w[28] + w[37];
   w[28]=2.E+0*w[28];
   w[37]=w[8] + w[42] - w[7];
   w[37]=w[37]*w[2];
   w[37]=w[37] + w[85] - 1.5E+1*ang2;
   w[37]=w[37]*w[2];
   w[37]=w[37] - w[65];
   w[37]=w[37]*w[3];
   w[37]=w[37] - w[72] + w[88];
   w[37]=w[37]*w[1];
   w[21]=w[21]*w[75];
   w[42]=w[70]*w[5];
   w[42]=w[42] - w[82];
   w[42]=w[42]*w[3];
   w[21]=w[42] - w[21];
   w[21]=w[21]*w[3];
   w[21]=w[21] - w[90];
   w[21]=w[21]*w[76];
   w[21]=w[37] + w[21];
   w[37]=w[1]*w[86];
   w[42]= - w[1]*w[21];
   w[52]=w[60] - w[57];
   w[52]=w[5]*w[52];
   w[56]=2.E+0*w[84] - w[7];
   w[56]=w[2]*w[56];
   w[52]=w[56] - w[62] + w[52];
   w[52]=w[52]*w[25];
   w[40]=w[44]*w[40];
   w[40]=w[40] + w[52];
   w[40]=w[3]*w[40];
   w[44]=ang0*w[58];
   w[52]= - w[1]*w[61]*w[66];
   w[40]=w[52] - 8.E+0*w[44] + w[40];
   w[40]=w[1]*w[40];
   w[13]= - w[13]*w[15];
   w[25]= - w[8]*w[25];
   w[13]=w[13] + w[25];
   w[13]=w[3]*w[13];
   w[6]= - w[24]*w[6];
   w[6]=w[6] + w[13];
   w[6]=w[6]*w[74];
   w[6]=w[6] + w[40];
   w[6]=2.E+0*w[6];
   w[13]=w[54]*w[34];
   w[23]= - w[23]*w[76];
   w[24]= - w[1]*w[36];
   w[23]=w[23] + w[24];
   w[23]=4.E+0*w[1]*w[23];
   w[24]= - w[1]*w[53];
   w[14]= - 4.E+0*w[14] + w[24];
   w[14]=w[1]*w[14];
   w[24]=w[67]*w[32];
   w[14]=w[24] + w[14];
   w[14]=4.E+0*w[14];
   w[24]=w[8] + w[7];
   w[24]=w[24]*w[29];
   w[9]= - w[9]*w[78];
   w[7]= - w[7] + w[19];
   w[7]=w[2]*w[7];
   w[7]=w[9] + w[7];
   w[7]=w[7]*w[75];
   w[9]= - w[2]*w[83];
   w[19]= - 6.E+0*ang1 + 7.E+0*w[8];
   w[19]=w[5]*w[19];
   w[9]=w[9] + ang2 + w[19];
   w[9]=w[3]*w[9];
   w[7]=w[7] + w[9];
   w[7]=w[3]*w[7];
   w[7]=w[24] + w[7];
   w[9]= - 5.E+0*w[64] - w[87];
   w[9]=w[2]*w[9];
   w[9]= - w[80] + w[9];
   w[9]=w[1]*w[9];
   w[7]=2.E+0*w[7] + w[9];
   w[7]=w[1]*w[7];
   w[8]=w[15]*w[8];
   w[9]= - w[4]*w[39];
   w[9]=w[9] + w[63];
   w[9]=w[3]*w[9];
   w[8]=w[8] + w[9];
   w[9]=8.E+0*w[67];
   w[8]=w[8]*w[9];
   w[7]=w[8] + w[7];
   w[7]=2.E+0*w[7];
   w[8]=w[17] - w[67];
   w[9]= - 4.E+0*w[8];
   w[15]=w[17]*w[3];
   w[15]=w[15] - w[73];
   w[15]=4.E+0*w[15];
   w[17]=1.6E+1*w[8];
   w[19]=w[67]*w[30];
   w[24]=w[49]*w[1];
   w[19]=w[19] - w[24];
   w[19]=w[19]*w[1];
   w[24]=pow(w[3],4);
   w[19]=w[19] - w[24];
   w[24]= - 8.E+0*w[19];
   w[25]=w[73]*w[30];
   w[29]=w[71]*w[49];
   w[25]=w[25] - w[29];
   w[25]=w[25]*w[1];
   w[29]=pow(w[3],5);
   w[25]=w[25] - w[29];
   w[29]= - 1.6E+1*w[25];
   w[8]= - 4.8E+1*w[8];
   w[25]=8.E+0*w[25];
   w[19]= - 1.6E+1*w[19];


    denom = w[9];

    kern[0][0] = (1.0/ denom)* w[18];
 
    kern[0][1] = (1.0/ denom)* w[31];
 
    kern[0][2] = (1.0/ denom)*  0;
 
    kern[0][3] = (1.0/ denom)*  0;
 
    kern[0][4] = (1.0/ denom)*  0;
 
    kern[0][5] = (1.0/ denom)*  0;
 
    kern[0][6] = (1.0/ denom)*  0;
 
    kern[0][7] = (1.0/ denom)*  0;
 
    kern[0][8] = (1.0/ denom)*  0;
 
    kern[0][9] = (1.0/ denom)*  0;
 
    kern[0][10] = (1.0/ denom)*  0;
 
    kern[0][11] = (1.0/ denom)*  0;
 

    denom =  - w[15];

    kern[1][0] = (1.0/ denom)* w[35];
 
    kern[1][1] = (1.0/ denom)* w[38];
 
    kern[1][2] = (1.0/ denom)*  0;
 
    kern[1][3] = (1.0/ denom)*  0;
 
    kern[1][4] = (1.0/ denom)*  0;
 
    kern[1][5] = (1.0/ denom)*  0;
 
    kern[1][6] = (1.0/ denom)*  0;
 
    kern[1][7] = (1.0/ denom)*  0;
 
    kern[1][8] = (1.0/ denom)*  0;
 
    kern[1][9] = (1.0/ denom)*  0;
 
    kern[1][10] = (1.0/ denom)*  0;
 
    kern[1][11] = (1.0/ denom)*  0;
 

    denom = w[76];

    kern[2][0] = (1.0/ denom)*  0;
 
    kern[2][1] = (1.0/ denom)*  0;
 
    kern[2][2] = (1.0/ denom)* w[43];
 
    kern[2][3] = (1.0/ denom)*  0;
 
    kern[2][4] = (1.0/ denom)*  0;
 
    kern[2][5] = (1.0/ denom)*  0;
 
    kern[2][6] = (1.0/ denom)*  0;
 
    kern[2][7] = (1.0/ denom)*  0;
 
    kern[2][8] = (1.0/ denom)*  0;
 
    kern[2][9] = (1.0/ denom)*  0;
 
    kern[2][10] = (1.0/ denom)*  0;
 
    kern[2][11] = (1.0/ denom)*  0;
 

    denom =  - w[17];

    kern[3][0] = (1.0/ denom)*  0;
 
    kern[3][1] = (1.0/ denom)*  0;
 
    kern[3][2] = (1.0/ denom)*  0;
 
    kern[3][3] = (1.0/ denom)* w[16];
 
    kern[3][4] = (1.0/ denom)*  0;
 
    kern[3][5] = (1.0/ denom)*  0;
 
    kern[3][6] = (1.0/ denom)*  0;
 
    kern[3][7] = (1.0/ denom)*  0;
 
    kern[3][8] = (1.0/ denom)*  0;
 
    kern[3][9] = (1.0/ denom)*  0;
 
    kern[3][10] = (1.0/ denom)*  0;
 
    kern[3][11] = (1.0/ denom)*  0;
 

    denom = w[24];

    kern[4][0] = (1.0/ denom)* w[55];
 
    kern[4][1] = (1.0/ denom)* w[51];
 
    kern[4][2] = (1.0/ denom)*  0;
 
    kern[4][3] = (1.0/ denom)*  0;
 
    kern[4][4] = (1.0/ denom)* w[10];
 
    kern[4][5] = (1.0/ denom)*  0;
 
    kern[4][6] = (1.0/ denom)*  0;
 
    kern[4][7] = (1.0/ denom)*  0;
 
    kern[4][8] = (1.0/ denom)*  0;
 
    kern[4][9] = (1.0/ denom)* w[26];
 
    kern[4][10] = (1.0/ denom)* w[20];
 
    kern[4][11] = (1.0/ denom)*  0;
 

    denom = w[29];

    kern[5][0] = (1.0/ denom)*  0;
 
    kern[5][1] = (1.0/ denom)*  0;
 
    kern[5][2] = (1.0/ denom)*  0;
 
    kern[5][3] = (1.0/ denom)* w[48];
 
    kern[5][4] = (1.0/ denom)*  0;
 
    kern[5][5] = (1.0/ denom)* w[33];
 
    kern[5][6] = (1.0/ denom)* w[59];
 
    kern[5][7] = (1.0/ denom)*  0;
 
    kern[5][8] = (1.0/ denom)*  0;
 
    kern[5][9] = (1.0/ denom)*  0;
 
    kern[5][10] = (1.0/ denom)*  0;
 
    kern[5][11] = (1.0/ denom)* w[46];
 

    denom =  - w[17];

    kern[6][0] = (1.0/ denom)*  0;
 
    kern[6][1] = (1.0/ denom)*  0;
 
    kern[6][2] = (1.0/ denom)*  0;
 
    kern[6][3] = (1.0/ denom)* w[47];
 
    kern[6][4] = (1.0/ denom)*  0;
 
    kern[6][5] = (1.0/ denom)* w[45];
 
    kern[6][6] = (1.0/ denom)* w[81];
 
    kern[6][7] = (1.0/ denom)*  0;
 
    kern[6][8] = (1.0/ denom)*  0;
 
    kern[6][9] = (1.0/ denom)*  0;
 
    kern[6][10] = (1.0/ denom)*  0;
 
    kern[6][11] = (1.0/ denom)* w[12];
 

    denom = w[8];

    kern[7][0] = (1.0/ denom)*  0;
 
    kern[7][1] = (1.0/ denom)*  0;
 
    kern[7][2] = (1.0/ denom)*  0;
 
    kern[7][3] = (1.0/ denom)*  0;
 
    kern[7][4] = (1.0/ denom)*  0;
 
    kern[7][5] = (1.0/ denom)*  0;
 
    kern[7][6] = (1.0/ denom)*  0;
 
    kern[7][7] = (1.0/ denom)* w[27];
 
    kern[7][8] = (1.0/ denom)*  0;
 
    kern[7][9] = (1.0/ denom)*  0;
 
    kern[7][10] = (1.0/ denom)*  0;
 
    kern[7][11] = (1.0/ denom)*  0;
 

    denom =  - w[15];

    kern[8][0] = (1.0/ denom)*  0;
 
    kern[8][1] = (1.0/ denom)*  0;
 
    kern[8][2] = (1.0/ denom)* w[50];
 
    kern[8][3] = (1.0/ denom)*  0;
 
    kern[8][4] = (1.0/ denom)*  0;
 
    kern[8][5] = (1.0/ denom)*  0;
 
    kern[8][6] = (1.0/ denom)*  0;
 
    kern[8][7] = (1.0/ denom)*  0;
 
    kern[8][8] = (1.0/ denom)* w[11];
 
    kern[8][9] = (1.0/ denom)*  0;
 
    kern[8][10] = (1.0/ denom)*  0;
 
    kern[8][11] = (1.0/ denom)*  0;
 

    denom =  - w[25];

    kern[9][0] = (1.0/ denom)* w[86];
 
    kern[9][1] = (1.0/ denom)* w[41];
 
    kern[9][2] = (1.0/ denom)*  0;
 
    kern[9][3] = (1.0/ denom)*  0;
 
    kern[9][4] = (1.0/ denom)* w[69];
 
    kern[9][5] = (1.0/ denom)*  0;
 
    kern[9][6] = (1.0/ denom)*  0;
 
    kern[9][7] = (1.0/ denom)*  0;
 
    kern[9][8] = (1.0/ denom)*  0;
 
    kern[9][9] = (1.0/ denom)* w[22];
 
    kern[9][10] = (1.0/ denom)* w[28];
 
    kern[9][11] = (1.0/ denom)*  0;
 

    denom =  - w[25];

    kern[10][0] = (1.0/ denom)* w[86];
 
    kern[10][1] = (1.0/ denom)*  - w[21];
 
    kern[10][2] = (1.0/ denom)*  0;
 
    kern[10][3] = (1.0/ denom)*  0;
 
    kern[10][4] = (1.0/ denom)* w[37];
 
    kern[10][5] = (1.0/ denom)*  0;
 
    kern[10][6] = (1.0/ denom)*  0;
 
    kern[10][7] = (1.0/ denom)*  0;
 
    kern[10][8] = (1.0/ denom)*  0;
 
    kern[10][9] = (1.0/ denom)* w[42];
 
    kern[10][10] = (1.0/ denom)* w[6];
 
    kern[10][11] = (1.0/ denom)*  0;
 

    denom = w[19];

    kern[11][0] = (1.0/ denom)*  0;
 
    kern[11][1] = (1.0/ denom)*  0;
 
    kern[11][2] = (1.0/ denom)*  0;
 
    kern[11][3] = (1.0/ denom)* w[13];
 
    kern[11][4] = (1.0/ denom)*  0;
 
    kern[11][5] = (1.0/ denom)* w[23];
 
    kern[11][6] = (1.0/ denom)* w[14];
 
    kern[11][7] = (1.0/ denom)*  0;
 
    kern[11][8] = (1.0/ denom)*  0;
 
    kern[11][9] = (1.0/ denom)*  0;
 
    kern[11][10] = (1.0/ denom)*  0;
 
    kern[11][11] = (1.0/ denom)* w[7];
 

}


void kernelY_qphv(matCdoub& kern,
  const ArrayScalarProducts& sp,  const Cdoub& svp,
  const Cdoub& ssp, const Cdoub& svm, const Cdoub& ssm ){


    // local variables
    array<Cdoub, 123> w;
    Cdoub denom;


    w[1]=P_P;
    w[2]=l_l;
    w[3]=qm_qp;
    w[4]=P_l;
    w[5]=P_qm;
    w[6]=l_qp;
    w[7]=P_qp;
    w[8]=l_qm;
   w[9]=ssp*ssm;
   w[10]=svp*svm;
   w[11]=w[10]*w[3];
   w[12]=w[9] + w[11];
   w[13]=w[12]*w[4];
   w[14]=w[10]*w[6];
   w[15]=w[14]*w[5];
   w[10]=w[10]*w[7];
   w[16]=w[8]*w[10];
   w[17]=w[15] + w[16];
   w[13]=w[13] - w[17];
   w[13]=w[13]*w[4];
   w[10]=w[5]*w[10];
   w[18]=w[10]*w[2];
   w[19]=2.E+0*w[18];
   w[20]=w[13] + w[19];
   w[21]=w[1]*w[2];
   w[22]= - w[12]*w[21];
   w[22]=w[22] + w[20];
   w[22]=4.E+0*w[22];
   w[23]=w[17]*w[2];
   w[14]=w[14]*w[8];
   w[24]=2.E+0*w[14];
   w[25]=w[24]*w[4];
   w[26]=w[25] - w[23];
   w[27]=4.E+0*w[4];
   w[28]= - w[26]*w[27];
   w[29]=svp*ssm;
   w[30]=w[7]*w[29];
   w[31]=ssp*svm;
   w[32]=w[5]*w[31];
   w[33]=w[30] + w[32];
   w[34]=w[33]*w[2];
   w[29]=w[6]*w[29];
   w[31]=w[8]*w[31];
   w[35]=w[29] + w[31];
   w[36]=w[35]*w[4];
   w[34]=w[34] - w[36];
   w[37]=w[34]*w[27];
   w[29]=w[29] - w[31];
   w[31]=pow(w[4],2);
   w[38]=w[29]*w[31];
   w[39]=w[29]*w[21];
   w[40]= - w[39] + w[38];
   w[41]=8.E+0*i_;
   w[40]=w[40]*w[41];
   w[42]=w[17]*w[1];
   w[43]=2.E+0*w[10];
   w[44]= - w[4]*w[43];
   w[44]=w[42] + w[44];
   w[44]=4.E+0*w[44];
   w[45]=w[12]*w[2];
   w[46]=w[45] - w[24];
   w[47]= - w[1]*w[46];
   w[47]=w[47] + w[13];
   w[47]=w[47]*w[27];
   w[48]=w[35]*w[1];
   w[49]=w[33]*w[4];
   w[48]=w[48] - w[49];
   w[49]=w[48]*w[27];
   w[30]=w[30] - w[32];
   w[32]=w[30]*w[21];
   w[50]= - w[30]*w[31];
   w[50]=w[32] + w[50];
   w[50]=w[50]*w[41];
   w[51]=4.E+0*w[33];
   w[52]=w[35]*w[27];
   w[53]=w[9] - w[11];
   w[54]=w[53]*w[27];
   w[15]=w[15] - w[16];
   w[16]=w[41]*w[15];
   w[55]=w[29]*w[1];
   w[56]=w[30]*w[4];
   w[55]=w[55] - w[56];
   w[41]= - w[55]*w[41];
   w[56]=w[30]*w[2];
   w[57]=w[29]*w[4];
   w[56]=w[56] - w[57];
   w[58]=8.E+0*w[4];
   w[59]=w[58]*i_;
   w[60]=w[56]*w[59];
   w[59]=w[15]*w[59];
   w[61]=w[53]*w[4];
   w[62]=2.E+0*w[17];
   w[61]=w[61] + w[62];
   w[61]=w[61]*w[4];
   w[19]=w[61] - w[19];
   w[61]=w[53]*w[2];
   w[61]=w[61] + w[24];
   w[63]= - w[1]*w[61];
   w[63]=w[63] + w[19];
   w[63]=1.6E+1*w[63];
   w[64]=w[11]*w[2];
   w[65]=w[64] + w[24];
   w[65]=w[65]*w[4];
   w[65]=w[65] - 3.E+0*w[23];
   w[65]=w[65]*w[4];
   w[66]=w[64] - w[14];
   w[66]=w[66]*w[21];
   w[67]=pow(w[2],2);
   w[10]=w[67]*w[10];
   w[65]=w[65] - w[66] + 3.E+0*w[10];
   w[66]=8.E+0*w[65];
   w[68]=w[9]*w[2];
   w[69]=w[68] + w[14];
   w[69]=w[69]*w[21];
   w[70]=w[10] + w[69];
   w[70]=w[1]*w[70];
   w[71]=2.E+0*w[9];
   w[72]=w[71] + w[11];
   w[72]=w[72]*w[2];
   w[73]=w[24] - w[72];
   w[73]=w[1]*w[73];
   w[20]=w[73] + w[20];
   w[20]=w[4]*w[20];
   w[73]=w[17]*w[21];
   w[74]=2.E+0*w[73];
   w[20]= - w[74] + w[20];
   w[20]=w[4]*w[20];
   w[20]=w[70] + w[20];
   w[20]=8.E+0*w[20];
   w[70]=2.E+0*w[21];
   w[75]=w[70]*w[29];
   w[38]=w[75] - w[38];
   w[38]=w[38]*w[31];
   w[75]=pow(w[21],2);
   w[76]=w[75]*w[29];
   w[38]=w[38] - w[76];
   w[76]=w[38]*w[58];
   w[77]=w[56]*w[4];
   w[39]=w[77] + w[39];
   w[39]=w[39]*w[4];
   w[67]=w[67]*w[1];
   w[77]=w[67]*w[30];
   w[39]=w[39] - w[77];
   w[77]=8.E+0*w[39];
   w[78]=w[15]*w[67];
   w[79]=w[15]*w[31];
   w[80]= - w[2]*w[79];
   w[78]=w[78] + w[80];
   w[78]=8.E+0*w[78];
   w[80]=w[34]*w[4];
   w[81]=w[35]*w[21];
   w[82]=w[80] + w[81];
   w[82]=w[82]*w[4];
   w[83]=w[67]*w[33];
   w[82]=w[82] - w[83];
   w[83]= - w[82]*w[58];
   w[84]=w[24]*w[21];
   w[85]=w[26]*w[4];
   w[84]=w[84] - w[85];
   w[84]=w[84]*w[4];
   w[85]=w[67]*w[17];
   w[84]=w[84] - w[85];
   w[85]=w[84]*w[58];
   w[86]=8.E+0*w[31];
   w[87]=w[65]*w[86];
   w[88]=3.2E+1*i_;
   w[89]=w[65]*w[88];
   w[55]=w[55]*w[4];
   w[55]=w[55] + w[32];
   w[55]=w[55]*w[4];
   w[90]=pow(w[1],2);
   w[91]=w[90]*w[2];
   w[29]=w[91]*w[29];
   w[55]=w[55] - w[29];
   w[92]= - 1.6E+1*w[55];
   w[69]= - w[10] + w[69];
   w[69]=w[1]*w[69];
   w[71]=w[71] - w[11];
   w[71]=w[71]*w[2];
   w[93]= - 4.E+0*w[14] - w[71];
   w[93]=w[1]*w[93];
   w[19]=w[93] + w[19];
   w[19]=w[4]*w[19];
   w[19]=w[73] + w[19];
   w[19]=w[4]*w[19];
   w[19]=w[69] + w[19];
   w[69]=1.6E+1*w[4];
   w[19]=w[19]*w[69];
   w[93]=w[11]*w[4];
   w[62]=w[93] - w[62];
   w[62]=w[62]*w[4];
   w[93]=3.E+0*w[14];
   w[64]=w[93] - w[64];
   w[64]=w[64]*w[1];
   w[62]=w[62] + w[64] + 3.E+0*w[18];
   w[94]=w[62]*w[4];
   w[94]=w[94] - w[73];
   w[95]= - 1.6E+1*w[94];
   w[96]=1.6E+1*w[82];
   w[97]=w[15]*w[21];
   w[97]=w[97] - w[79];
   w[98]=w[97]*w[69];
   w[99]=w[39]*w[69];
   w[65]= - w[65]*w[69];
   w[56]=1.6E+1*w[56];
   w[100]= - w[26]*w[88];
   w[57]=w[57]*w[1];
   w[32]=w[57] - w[32];
   w[57]=1.6E+1*w[32];
   w[25]=w[25]*w[1];
   w[25]=w[25] - w[73];
   w[101]=w[25]*w[69];
   w[68]=w[68] - w[14];
   w[68]=w[68]*w[1];
   w[102]=w[9]*w[31];
   w[103]=w[102] - w[18] - w[68];
   w[103]=1.6E+1*w[103];
   w[104]=w[35]*w[31];
   w[81]=w[104] - w[81];
   w[104]=1.6E+1*w[81];
   w[105]= - w[31]*w[56];
   w[26]=w[26]*w[69];
   w[106]=4.8E+1*w[15];
   w[107]=9.6E+1*i_*w[34];
   w[108]= - w[1]*w[106];
   w[36]=w[36]*w[1];
   w[109]=w[33]*w[21];
   w[36]=w[36] - w[109];
   w[36]=w[36]*w[4];
   w[110]=4.8E+1*w[36];
   w[111]=4.8E+1*w[48];
   w[9]=w[9]*w[4];
   w[112]=w[9] - w[17];
   w[112]=w[4]*w[112];
   w[68]=w[112] + w[18] - w[68];
   w[68]=4.8E+1*w[68];
   w[112]= - 4.8E+1*w[79];
   w[80]= - 4.8E+1*w[80];
   w[34]=4.E+0*w[34];
   w[113]= - w[2]*w[16];
   w[114]=4.E+0*w[15]*pow(w[4],3);
   w[115]=w[27]*w[15];
   w[116]=w[31] - w[21];
   w[117]=w[116]*w[27];
   w[53]=w[53]*w[117];
   w[81]= - w[81]*w[27];
   w[118]= - w[31]*w[34];
   w[119]=w[2]*w[115];
   w[120]=8.E+0*w[94];
   w[121]=1.6E+1*w[39];
   w[122]= - i_*w[121];
   w[11]=w[11]*w[1];
   w[11]=w[11] + w[43];
   w[11]=w[11]*w[4];
   w[11]=w[11] - 3.E+0*w[42];
   w[11]=w[11]*w[4];
   w[42]=w[64] + w[18];
   w[42]=w[42]*w[1];
   w[11]=w[11] + w[42];
   w[42]= - w[11]*w[58];
   w[43]= - w[55]*w[86];
   w[64]=w[97]*w[58];
   w[48]=w[48]*w[4];
   w[48]=w[48] + w[109];
   w[48]=w[48]*w[4];
   w[35]=w[91]*w[35];
   w[48]=w[48] - w[35];
   w[109]= - w[48]*w[58];
   w[45]=w[14] - w[45];
   w[45]=w[1]*w[45];
   w[13]=2.E+0*w[45] + w[13];
   w[13]=w[4]*w[13];
   w[13]=w[73] + w[13];
   w[13]=w[4]*w[13];
   w[45]=w[46]*w[91];
   w[13]=w[45] + w[13];
   w[13]=w[13]*w[58];
   w[45]= - w[94]*w[86];
   w[39]=w[39]*w[58];
   w[46]= - 8.E+0*w[84];
   w[82]= - 8.E+0*w[82];
   w[62]=w[4]*w[1]*w[62];
   w[23]=w[23]*w[90];
   w[23]=w[62] - w[23];
   w[62]= - 8.E+0*w[23];
   w[84]=8.E+0*w[55];
   w[35]=w[35] - w[36];
   w[35]=w[4]*w[35];
   w[33]= - w[33]*w[75];
   w[33]=w[33] + w[35];
   w[33]=8.E+0*w[33];
   w[24]= - w[24]*w[91];
   w[25]=w[4]*w[25];
   w[24]=w[24] + w[25];
   w[24]=w[4]*w[24];
   w[25]=w[17]*w[75];
   w[24]=w[25] + w[24];
   w[24]=8.E+0*w[24];
   w[10]=2.E+0*w[10];
   w[12]=w[12]*w[67];
   w[12]= - w[10] + w[12];
   w[12]=w[1]*w[12];
   w[25]= - w[93] - w[72];
   w[25]=w[1]*w[25];
   w[9]=w[9] + w[17];
   w[9]=w[4]*w[9];
   w[9]=w[9] - w[18] + w[25];
   w[9]=w[4]*w[9];
   w[9]=w[74] + w[9];
   w[9]=w[4]*w[9];
   w[9]=w[12] + w[9];
   w[9]=w[9]*w[58];
   w[12]=8.E+0*w[38];
   w[17]=1.6E+1*w[97];
   w[25]= - w[94]*w[88];
   w[23]=w[23]*w[69];
   w[11]=1.6E+1*w[11];
   w[35]=1.6E+1*w[48];
   w[15]= - w[15]*w[91];
   w[36]=w[1]*w[79];
   w[15]=w[15] + w[36];
   w[15]=1.6E+1*w[15];
   w[32]=w[4]*w[32];
   w[29]= - w[29] + w[32];
   w[29]=w[4]*w[29];
   w[30]=w[30]*w[75];
   w[29]=w[30] + w[29];
   w[29]=1.6E+1*w[29];
   w[30]= - w[55]*w[69];
   w[21]=w[61]*w[21];
   w[10]=w[10] + w[21];
   w[10]=w[1]*w[10];
   w[14]=w[14] - w[71];
   w[14]=w[1]*w[14];
   w[14]=w[102] + w[18] + w[14];
   w[14]=w[4]*w[14];
   w[14]= - 3.E+0*w[73] + w[14];
   w[14]=w[4]*w[14];
   w[10]=w[10] + w[14];
   w[10]=1.6E+1*w[10];
   w[14]=4.E+0*w[116];
   w[18]=1.6E+1*w[116];
   w[21]=w[70] - w[31];
   w[21]=w[21]*w[31];
   w[21]=w[21] - w[75];
   w[31]= - 8.E+0*w[21];
   w[32]= - w[21]*w[69];
   w[36]=4.8E+1*w[116];
   w[38]=w[21]*w[58];
   w[21]= - 1.6E+1*w[21];


    denom = w[14];

    kern[0][0] = (1.0/ denom)* w[22];
 
    kern[0][1] = (1.0/ denom)* w[28];
 
    kern[0][2] = (1.0/ denom)* w[37];
 
    kern[0][3] = (1.0/ denom)* w[40];
 
    kern[0][4] = (1.0/ denom)*  0;
 
    kern[0][5] = (1.0/ denom)*  0;
 
    kern[0][6] = (1.0/ denom)*  0;
 
    kern[0][7] = (1.0/ denom)*  0;
 
    kern[0][8] = (1.0/ denom)*  0;
 
    kern[0][9] = (1.0/ denom)*  0;
 
    kern[0][10] = (1.0/ denom)*  0;
 
    kern[0][11] = (1.0/ denom)*  0;
 

    denom = w[117];

    kern[1][0] = (1.0/ denom)* w[44];
 
    kern[1][1] = (1.0/ denom)* w[47];
 
    kern[1][2] = (1.0/ denom)* w[49];
 
    kern[1][3] = (1.0/ denom)* w[50];
 
    kern[1][4] = (1.0/ denom)*  0;
 
    kern[1][5] = (1.0/ denom)*  0;
 
    kern[1][6] = (1.0/ denom)*  0;
 
    kern[1][7] = (1.0/ denom)*  0;
 
    kern[1][8] = (1.0/ denom)*  0;
 
    kern[1][9] = (1.0/ denom)*  0;
 
    kern[1][10] = (1.0/ denom)*  0;
 
    kern[1][11] = (1.0/ denom)*  0;
 

    denom = w[27];

    kern[2][0] = (1.0/ denom)* w[51];
 
    kern[2][1] = (1.0/ denom)* w[52];
 
    kern[2][2] = (1.0/ denom)* w[54];
 
    kern[2][3] = (1.0/ denom)* w[16];
 
    kern[2][4] = (1.0/ denom)*  0;
 
    kern[2][5] = (1.0/ denom)*  0;
 
    kern[2][6] = (1.0/ denom)*  0;
 
    kern[2][7] = (1.0/ denom)*  0;
 
    kern[2][8] = (1.0/ denom)*  0;
 
    kern[2][9] = (1.0/ denom)*  0;
 
    kern[2][10] = (1.0/ denom)*  0;
 
    kern[2][11] = (1.0/ denom)*  0;
 

    denom = w[18];

    kern[3][0] = (1.0/ denom)* w[41];
 
    kern[3][1] = (1.0/ denom)* w[60];
 
    kern[3][2] = (1.0/ denom)* w[59];
 
    kern[3][3] = (1.0/ denom)* w[63];
 
    kern[3][4] = (1.0/ denom)*  0;
 
    kern[3][5] = (1.0/ denom)*  0;
 
    kern[3][6] = (1.0/ denom)*  0;
 
    kern[3][7] = (1.0/ denom)*  0;
 
    kern[3][8] = (1.0/ denom)*  0;
 
    kern[3][9] = (1.0/ denom)*  0;
 
    kern[3][10] = (1.0/ denom)*  0;
 
    kern[3][11] = (1.0/ denom)*  0;
 

    denom = w[31];

    kern[4][0] = (1.0/ denom)* w[66];
 
    kern[4][1] = (1.0/ denom)*  0;
 
    kern[4][2] = (1.0/ denom)*  0;
 
    kern[4][3] = (1.0/ denom)*  0;
 
    kern[4][4] = (1.0/ denom)* w[20];
 
    kern[4][5] = (1.0/ denom)* w[76];
 
    kern[4][6] = (1.0/ denom)* w[77];
 
    kern[4][7] = (1.0/ denom)* w[78];
 
    kern[4][8] = (1.0/ denom)* w[83];
 
    kern[4][9] = (1.0/ denom)* w[85];
 
    kern[4][10] = (1.0/ denom)* w[87];
 
    kern[4][11] = (1.0/ denom)*  0;
 

    denom = w[32];

    kern[5][0] = (1.0/ denom)*  0;
 
    kern[5][1] = (1.0/ denom)*  0;
 
    kern[5][2] = (1.0/ denom)*  0;
 
    kern[5][3] = (1.0/ denom)* w[89];
 
    kern[5][4] = (1.0/ denom)* w[92];
 
    kern[5][5] = (1.0/ denom)* w[19];
 
    kern[5][6] = (1.0/ denom)* w[95];
 
    kern[5][7] = (1.0/ denom)* w[96];
 
    kern[5][8] = (1.0/ denom)* w[98];
 
    kern[5][9] = (1.0/ denom)* w[99];
 
    kern[5][10] = (1.0/ denom)*  0;
 
    kern[5][11] = (1.0/ denom)* w[65];
 

    denom = w[18];

    kern[6][0] = (1.0/ denom)*  - w[56];
 
    kern[6][1] = (1.0/ denom)*  0;
 
    kern[6][2] = (1.0/ denom)*  0;
 
    kern[6][3] = (1.0/ denom)* w[100];
 
    kern[6][4] = (1.0/ denom)* w[57];
 
    kern[6][5] = (1.0/ denom)* w[101];
 
    kern[6][6] = (1.0/ denom)* w[103];
 
    kern[6][7] = (1.0/ denom)* w[104];
 
    kern[6][8] = (1.0/ denom)*  0;
 
    kern[6][9] = (1.0/ denom)*  0;
 
    kern[6][10] = (1.0/ denom)* w[105];
 
    kern[6][11] = (1.0/ denom)* w[26];
 

    denom = w[36];

    kern[7][0] = (1.0/ denom)*  - w[106];
 
    kern[7][1] = (1.0/ denom)*  0;
 
    kern[7][2] = (1.0/ denom)*  0;
 
    kern[7][3] = (1.0/ denom)* w[107];
 
    kern[7][4] = (1.0/ denom)* w[108];
 
    kern[7][5] = (1.0/ denom)* w[110];
 
    kern[7][6] = (1.0/ denom)* w[111];
 
    kern[7][7] = (1.0/ denom)* w[68];
 
    kern[7][8] = (1.0/ denom)*  0;
 
    kern[7][9] = (1.0/ denom)*  0;
 
    kern[7][10] = (1.0/ denom)* w[112];
 
    kern[7][11] = (1.0/ denom)* w[80];
 

    denom = w[117];

    kern[8][0] = (1.0/ denom)*  - w[34];
 
    kern[8][1] = (1.0/ denom)*  0;
 
    kern[8][2] = (1.0/ denom)*  0;
 
    kern[8][3] = (1.0/ denom)* w[113];
 
    kern[8][4] = (1.0/ denom)* w[49];
 
    kern[8][5] = (1.0/ denom)* w[114];
 
    kern[8][6] = (1.0/ denom)* w[115];
 
    kern[8][7] = (1.0/ denom)*  0;
 
    kern[8][8] = (1.0/ denom)* w[53];
 
    kern[8][9] = (1.0/ denom)* w[81];
 
    kern[8][10] = (1.0/ denom)* w[118];
 
    kern[8][11] = (1.0/ denom)* w[119];
 

    denom =  - w[38];

    kern[9][0] = (1.0/ denom)*  - w[120];
 
    kern[9][1] = (1.0/ denom)*  0;
 
    kern[9][2] = (1.0/ denom)*  0;
 
    kern[9][3] = (1.0/ denom)* w[122];
 
    kern[9][4] = (1.0/ denom)* w[42];
 
    kern[9][5] = (1.0/ denom)* w[43];
 
    kern[9][6] = (1.0/ denom)*  0;
 
    kern[9][7] = (1.0/ denom)*  - w[64];
 
    kern[9][8] = (1.0/ denom)* w[109];
 
    kern[9][9] = (1.0/ denom)* w[13];
 
    kern[9][10] = (1.0/ denom)* w[45];
 
    kern[9][11] = (1.0/ denom)* w[39];
 

    denom =  - w[38];

    kern[10][0] = (1.0/ denom)*  - w[120];
 
    kern[10][1] = (1.0/ denom)* w[46];
 
    kern[10][2] = (1.0/ denom)* w[82];
 
    kern[10][3] = (1.0/ denom)*  0;
 
    kern[10][4] = (1.0/ denom)* w[62];
 
    kern[10][5] = (1.0/ denom)*  0;
 
    kern[10][6] = (1.0/ denom)* w[84];
 
    kern[10][7] = (1.0/ denom)*  - w[64];
 
    kern[10][8] = (1.0/ denom)* w[33];
 
    kern[10][9] = (1.0/ denom)* w[24];
 
    kern[10][10] = (1.0/ denom)* w[9];
 
    kern[10][11] = (1.0/ denom)* w[12];
 

    denom = w[21];

    kern[11][0] = (1.0/ denom)*  0;
 
    kern[11][1] = (1.0/ denom)*  - w[121];
 
    kern[11][2] = (1.0/ denom)* w[17];
 
    kern[11][3] = (1.0/ denom)* w[25];
 
    kern[11][4] = (1.0/ denom)*  0;
 
    kern[11][5] = (1.0/ denom)* w[23];
 
    kern[11][6] = (1.0/ denom)* w[11];
 
    kern[11][7] = (1.0/ denom)* w[35];
 
    kern[11][8] = (1.0/ denom)* w[15];
 
    kern[11][9] = (1.0/ denom)* w[29];
 
    kern[11][10] = (1.0/ denom)* w[30];
 
    kern[11][11] = (1.0/ denom)* w[10];
 


}


