#include <typedefs.h>
#include <routing_amount_scalars.h>
#include <extra_def.h>


void kernelInhomo_qphv_trans(VecCdoub& kern,
  const ArrayScalarProducts& sp ){




    kern[0] = pow(sp[35],-1);


    kern[1] = 0.0 ;


    kern[2] = 0.0 ;


    kern[3] = 0.0 ;


    kern[4] = 0.0 ;


    kern[5] = 0.0 ;


    kern[6] = 0.0;


    kern[7] = 0.0 ;



}