 
!!!!!!!!!!!!!!!!!!!!!!!!!!!!!!!!!!!!!!!!!!!!!!!!!!!!!!!!!!!!!!!!!!!!!!!!!!!!!!!!!!!!!!!!!!!!!!!!!!!!!!!!!!!!!!!!!!!!!!!!!!!!!!!!!!!!!!!!!!!!!!!!!!!!!!!!!!!!!!!!!!!!!!!!!!!!!!!!!!!!!!!!!!!!!!!!!!!!!!!!!!!!!!!!!!!!!!!!!!!!!!!!!!!!!!!!!!!!!!!!!!!!!!!!!!!!!!!!!!!!!!!!!!!!!!!!!!!!!!!!!!!!!!!!!!!!!!!!!!!!
 
        k2+Q2/4                G1            -            -            -            -            -            -            -            -            -            -            -            -            -            -               -G2            -            -            -            -            -            -            -            -            -            -            -            -            -            -               -G3            -            -            -            -            -            -            -            -            -            -            -            -            -            -                G4            -            -            -            -            -            -            -            -            -            -            -            -            -            -
 
      0.0125703         1.8097899    1.8097875    1.8097916    0.0000000    0.0000000    0.0000000    0.0000112    0.0000060    0.0000133    0.0000000    0.0000000    0.0000000    0.0000054    0.0000027    0.0000066         0.8406385    0.8406310    0.8406434    0.0000000    0.0000000    0.0000000   -0.0016073   -0.0016232   -0.0016008    0.0000000    0.0000000    0.0000000    0.0055396    0.0055392    0.0055398         2.9978810    2.9978655    2.9978894    0.0000000    0.0000000    0.0000000    0.0000413    0.0000230    0.0000486    0.0000000    0.0000000    0.0000000    0.0000000    0.0000000    0.0000000        -0.0000024   -0.0000026   -0.0000023    0.0000000    0.0000000    0.0000000   -0.0000002   -0.0000003   -0.0000001    0.0000000    0.0000000    0.0000000    0.0000000    0.0000000    0.0000000
      0.0174215         1.8077867    1.8077673    1.8077921    0.0000000    0.0000000    0.0000000    0.0000304    0.0000086    0.0000373    0.0000000    0.0000000    0.0000000    0.0000144    0.0000031    0.0000188         0.8340097    0.8339502    0.8340248    0.0000000    0.0000000    0.0000000   -0.0015329   -0.0016001   -0.0015131    0.0000000    0.0000000    0.0000000    0.0054979    0.0054954    0.0054987         2.9734451    2.9733298    2.9734745    0.0000000    0.0000000    0.0000000    0.0001156    0.0000366    0.0001375    0.0000000    0.0000000    0.0000000    0.0000000    0.0000000    0.0000000        -0.0000021   -0.0000030   -0.0000018    0.0000000    0.0000000    0.0000000   -0.0000005   -0.0000006   -0.0000001    0.0000000    0.0000000    0.0000000    0.0000000    0.0000000    0.0000000
      0.0230879         1.8054624    1.8054275    1.8054691    0.0000000    0.0000000    0.0000000    0.0000535    0.0000086    0.0000643    0.0000000    0.0000000    0.0000000    0.0000247    0.0000024    0.0000332         0.8264949    0.8263854    0.8265181    0.0000000    0.0000000    0.0000000   -0.0014446   -0.0015848   -0.0014159    0.0000000    0.0000000    0.0000000    0.0054512    0.0054455    0.0054528         2.9451769    2.9450017    2.9452134    0.0000000    0.0000000    0.0000000    0.0002085    0.0000388    0.0002421    0.0000000    0.0000000    0.0000000    0.0000000    0.0000000    0.0000000        -0.0000017   -0.0000032   -0.0000011    0.0000000    0.0000000    0.0000000   -0.0000008   -0.0000011   -0.0000001    0.0000000    0.0000000    0.0000000    0.0000000    0.0000000    0.0000000
      0.0295870         1.8028267    1.8027905    1.8028347    0.0000000    0.0000000    0.0000000    0.0000852    0.0000340    0.0000950    0.0000000    0.0000000    0.0000000    0.0000382    0.0000086    0.0000494         0.8181994    0.8180935    0.8182352    0.0000000    0.0000000    0.0000000   -0.0013271   -0.0014786   -0.0012937    0.0000000    0.0000000    0.0000000    0.0054010    0.0053932    0.0054030         2.9132090    2.9130408    2.9132571    0.0000000    0.0000000    0.0000000    0.0003412    0.0001601    0.0003880    0.0000000    0.0000000    0.0000000    0.0000000    0.0000000    0.0000001        -0.0000012   -0.0000031   -0.0000005    0.0000000    0.0000000    0.0000000   -0.0000012   -0.0000016   -0.0000002    0.0000000    0.0000000    0.0000000    0.0000000    0.0000000    0.0000000
      0.0369397         1.7998727    1.7997887    1.7998925    0.0000000    0.0000000    0.0000000    0.0001131    0.0000038    0.0001349    0.0000000    0.0000000    0.0000000    0.0000494    0.0000007    0.0000675         0.8091851    0.8089136    0.8092704    0.0000000    0.0000000    0.0000000   -0.0012203   -0.0015668   -0.0011381    0.0000000    0.0000000    0.0000000    0.0053464    0.0053300    0.0053500         2.8775820    2.8771635    2.8776927    0.0000000    0.0000000    0.0000000    0.0004665    0.0000190    0.0005904    0.0000000    0.0000000    0.0000000    0.0000001    0.0000000    0.0000002        -0.0000009   -0.0000035    0.0000002    0.0000000    0.0000000    0.0000000   -0.0000015   -0.0000021    0.0000000    0.0000000    0.0000000    0.0000000   -0.0000001   -0.0000001    0.0000000
      0.0451693         1.7966124    1.7965116    1.7966450    0.0000000    0.0000000    0.0000000    0.0001538    0.0000267    0.0001848    0.0000000    0.0000000    0.0000000    0.0000652    0.0000046    0.0000874         0.7995805    0.7992607    0.7997212    0.0000000    0.0000000    0.0000000   -0.0010720   -0.0014644   -0.0009407    0.0000000    0.0000000    0.0000000    0.0052904    0.0052685    0.0052947         2.8384130    2.8378718    2.8386067    0.0000000    0.0000000    0.0000000    0.0006545    0.0001388    0.0008581    0.0000000    0.0000000    0.0000000    0.0000001    0.0000000    0.0000003        -0.0000003   -0.0000034    0.0000010    0.0000000    0.0000000    0.0000000   -0.0000019   -0.0000026   -0.0000002    0.0000000    0.0000000    0.0000000   -0.0000001   -0.0000001    0.0000000
      0.0543024         1.7930405    1.7929286    1.7930924    0.0000000    0.0000000    0.0000000    0.0001994    0.0000522    0.0002458    0.0000000    0.0000000    0.0000000    0.0000824    0.0000082    0.0001094         0.7894642    0.7891125    0.7896857    0.0000000    0.0000000    0.0000000   -0.0009081   -0.0013515   -0.0007040    0.0000000    0.0000000    0.0000000    0.0052330    0.0052041    0.0052383         2.7957581    2.7951684    2.7960790    0.0000000    0.0000000    0.0000000    0.0008766    0.0002807    0.0012012    0.0000000    0.0000000    0.0000000    0.0000003    0.0000000    0.0000007         0.0000003   -0.0000034    0.0000018    0.0000000    0.0000000    0.0000000   -0.0000024   -0.0000032   -0.0000002    0.0000000    0.0000000    0.0000000   -0.0000001   -0.0000001    0.0000000
      0.0643689         1.7891562    1.7890299    1.7892345    0.0000000    0.0000000    0.0000000    0.0002501    0.0000794    0.0003197    0.0000000    0.0000000    0.0000000    0.0001009    0.0000113    0.0001333         0.7789344    0.7785412    0.7792638    0.0000000    0.0000000    0.0000000   -0.0007298   -0.0012316   -0.0004262    0.0000000    0.0000000    0.0000000    0.0051749    0.0051370    0.0051817         2.7496976    2.7490315    2.7501956    0.0000000    0.0000000    0.0000000    0.0011364    0.0004421    0.0016324    0.0000000    0.0000000    0.0000000    0.0000006    0.0000001    0.0000013         0.0000009   -0.0000034    0.0000026    0.0000000    0.0000000    0.0000000   -0.0000028   -0.0000037   -0.0000003    0.0000000    0.0000000    0.0000000   -0.0000001   -0.0000001    0.0000000
      0.0754023         1.7849585    1.7848126    1.7850705    0.0000000    0.0000000    0.0000000    0.0003057    0.0001067    0.0004056    0.0000000    0.0000000    0.0000000    0.0001209    0.0000138    0.0001593         0.7680922    0.7676420    0.7685568    0.0000000    0.0000000    0.0000000   -0.0005392   -0.0011117   -0.0001083    0.0000000    0.0000000    0.0000000    0.0051171    0.0050680    0.0051259         2.7003252    2.6995411    2.7010565    0.0000000    0.0000000    0.0000000    0.0014372    0.0006161    0.0021624    0.0000000    0.0000000    0.0000000    0.0000010    0.0000002    0.0000024         0.0000014   -0.0000035    0.0000033    0.0000000    0.0000000    0.0000000   -0.0000032   -0.0000042   -0.0000004    0.0000000    0.0000000    0.0000000   -0.0000001   -0.0000001    0.0000000
      0.0874396         1.7804453    1.7802740    1.7805985    0.0000000    0.0000000    0.0000000    0.0003660    0.0001325    0.0005034    0.0000000    0.0000000    0.0000000    0.0001424    0.0000158    0.0001873         0.7570369    0.7565100    0.7576621    0.0000000    0.0000000    0.0000000   -0.0003395   -0.0009992    0.0002455    0.0000000    0.0000000    0.0000000    0.0050602    0.0049971    0.0050717         2.6477404    2.6467907    2.6487655    0.0000000    0.0000000    0.0000000    0.0017820    0.0007930    0.0028005    0.0000000    0.0000000    0.0000000    0.0000017    0.0000003    0.0000041         0.0000020   -0.0000035    0.0000041    0.0000000    0.0000000    0.0000000   -0.0000035   -0.0000046   -0.0000004    0.0000000    0.0000000    0.0000000   -0.0000001   -0.0000002    0.0000000
      0.1005219         1.7756134    1.7754092    1.7758147    0.0000000    0.0000000    0.0000000    0.0004307    0.0001545    0.0006138    0.0000000    0.0000000    0.0000000    0.0001655    0.0000170    0.0002174         0.7458631    0.7452367    0.7466709    0.0000000    0.0000000    0.0000000   -0.0001345   -0.0009028    0.0006276    0.0000000    0.0000000    0.0000000    0.0050051    0.0049250    0.0050202         2.5920457    2.5908712    2.5934286    0.0000000    0.0000000    0.0000000    0.0021735    0.0009603    0.0035537    0.0000000    0.0000000    0.0000000    0.0000027    0.0000005    0.0000067         0.0000025   -0.0000035    0.0000048    0.0000000    0.0000000    0.0000000   -0.0000039   -0.0000051   -0.0000004    0.0000000    0.0000000    0.0000000   -0.0000002   -0.0000003    0.0000000
      0.1146947         1.7704579    1.7702120    1.7707134    0.0000000    0.0000000    0.0000000    0.0004994    0.0001707    0.0007383    0.0000000    0.0000000    0.0000000    0.0001903    0.0000177    0.0002496         0.7346608    0.7339078    0.7356658    0.0000000    0.0000000    0.0000000    0.0000707   -0.0008306    0.0010273    0.0000000    0.0000000    0.0000000    0.0049524    0.0048519    0.0049721         2.5333468    2.5318726    2.5351530    0.0000000    0.0000000    0.0000000    0.0026139    0.0011040    0.0044257    0.0000000    0.0000000    0.0000000    0.0000041    0.0000007    0.0000105         0.0000031   -0.0000035    0.0000055    0.0000000    0.0000000    0.0000000   -0.0000042   -0.0000055   -0.0000004    0.0000000    0.0000000    0.0000000   -0.0000002   -0.0000003    0.0000000
      0.1300081         1.7649723    1.7646746    1.7652895    0.0000000    0.0000000    0.0000000    0.0005718    0.0001793    0.0008743    0.0000000    0.0000000    0.0000000    0.0002170    0.0000176    0.0002842         0.7235106    0.7226029    0.7247190    0.0000000    0.0000000    0.0000000    0.0002704   -0.0007896    0.0014358    0.0000000    0.0000000    0.0000000    0.0049028    0.0047781    0.0049287         2.4717504    2.4698862    2.4740470    0.0000000    0.0000000    0.0000000    0.0031053    0.0012083    0.0054178    0.0000000    0.0000000    0.0000000    0.0000062    0.0000008    0.0000161         0.0000035   -0.0000036    0.0000062    0.0000000    0.0000000    0.0000000   -0.0000045   -0.0000059   -0.0000004    0.0000000    0.0000000    0.0000000   -0.0000003   -0.0000004    0.0000000
      0.1465172         1.7591481    1.7587880    1.7595385    0.0000000    0.0000000    0.0000000    0.0006475    0.0001787    0.0010208    0.0000000    0.0000000    0.0000000    0.0002457    0.0000167    0.0003212         0.7124801    0.7113941    0.7139095    0.0000000    0.0000000    0.0000000    0.0004583   -0.0007849    0.0018579    0.0000000    0.0000000    0.0000000    0.0048567    0.0047039    0.0048905         2.4073641    2.4050068    2.4102684    0.0000000    0.0000000    0.0000000    0.0036495    0.0012568    0.0065807    0.0000000    0.0000000    0.0000000    0.0000090    0.0000009    0.0000240         0.0000040   -0.0000037    0.0000069    0.0000000    0.0000000    0.0000000   -0.0000047   -0.0000063   -0.0000003    0.0000000    0.0000000    0.0000000   -0.0000003   -0.0000005    0.0000000
      0.1642828         1.7529759    1.7525416    1.7534454    0.0000000    0.0000000    0.0000000    0.0007264    0.0001678    0.0011765    0.0000000    0.0000000    0.0000000    0.0002766    0.0000151    0.0003607         0.7016287    0.7003443    0.7032847    0.0000000    0.0000000    0.0000000    0.0006274   -0.0008183    0.0022589    0.0000000    0.0000000    0.0000000    0.0048146    0.0046296    0.0048589         2.3403049    2.3373328    2.3439210    0.0000000    0.0000000    0.0000000    0.0042480    0.0012333    0.0078954    0.0000000    0.0000000    0.0000000    0.0000128    0.0000008    0.0000349         0.0000044   -0.0000037    0.0000074    0.0000000    0.0000000    0.0000000   -0.0000049   -0.0000065   -0.0000003    0.0000000    0.0000000    0.0000000   -0.0000003   -0.0000005    0.0000000
      0.1833716         1.7464445    1.7459235    1.7469981    0.0000000    0.0000000    0.0000000    0.0008086    0.0001460    0.0013407    0.0000000    0.0000000    0.0000000    0.0003099    0.0000125    0.0004028         0.6910013    0.6895048    0.6928625    0.0000000    0.0000000    0.0000000    0.0007706   -0.0008881    0.0026194    0.0000000    0.0000000    0.0000000    0.0047766    0.0045556    0.0048345         2.2706958    2.2669672    2.2751072    0.0000000    0.0000000    0.0000000    0.0049021    0.0011231    0.0093497    0.0000000    0.0000000    0.0000000    0.0000177    0.0000007    0.0000492         0.0000048   -0.0000038    0.0000079    0.0000000    0.0000000    0.0000000   -0.0000051   -0.0000067   -0.0000002    0.0000000    0.0000000    0.0000000   -0.0000003   -0.0000006    0.0000000
      0.2038567         1.7395410    1.7389200    1.7401821    0.0000000    0.0000000    0.0000000    0.0008944    0.0001136    0.0015252    0.0000000    0.0000000    0.0000000    0.0003457    0.0000095    0.0004476         0.6806206    0.6789150    0.6826558    0.0000000    0.0000000    0.0000000    0.0008813   -0.0009885    0.0029203    0.0000000    0.0000000    0.0000000    0.0047429    0.0044823    0.0048183         2.1986624    2.1940163    2.2039462    0.0000000    0.0000000    0.0000000    0.0056137    0.0009141    0.0109394    0.0000000    0.0000000    0.0000000    0.0000240    0.0000005    0.0000675         0.0000051   -0.0000039    0.0000084    0.0000000    0.0000000    0.0000000   -0.0000052   -0.0000069   -0.0000002    0.0000000    0.0000000    0.0000000   -0.0000004   -0.0000006    0.0000000
      0.2258187         1.7322508    1.7315149    1.7329959    0.0000000    0.0000000    0.0000000    0.0009848    0.0000710    0.0017220    0.0000000    0.0000000    0.0000000    0.0003843    0.0000057    0.0004952         0.6704940    0.6685992    0.6726796    0.0000000    0.0000000    0.0000000    0.0009531   -0.0011097    0.0031694    0.0000000    0.0000000    0.0000000    0.0047133    0.0044103    0.0048109         2.1243376    2.1185894    2.1306203    0.0000000    0.0000000    0.0000000    0.0063845    0.0005972    0.0127128    0.0000000    0.0000000    0.0000000    0.0000319    0.0000002    0.0000911         0.0000054   -0.0000038    0.0000087    0.0000000    0.0000000    0.0000000   -0.0000052   -0.0000070   -0.0000001    0.0000000    0.0000000    0.0000000   -0.0000004   -0.0000007    0.0000000
      0.2493460         1.7245586    1.7236978    1.7254142    0.0000000    0.0000000    0.0000000    0.0010813    0.0000185    0.0019326    0.0000000    0.0000000    0.0000000    0.0004258    0.0000014    0.0005455         0.6606155    0.6585684    0.6629154    0.0000000    0.0000000    0.0000000    0.0009806   -0.0012400    0.0033442    0.0000000    0.0000000    0.0000000    0.0046878    0.0043403    0.0048130         2.0478663    2.0408818    2.0552786    0.0000000    0.0000000    0.0000000    0.0072163    0.0001624    0.0146982    0.0000000    0.0000000    0.0000000    0.0000416    0.0000000    0.0001209         0.0000056   -0.0000038    0.0000090    0.0000000    0.0000000    0.0000000   -0.0000052   -0.0000070    0.0000000    0.0000000    0.0000000    0.0000000   -0.0000004   -0.0000007    0.0000000
      0.2745357         1.7164825    1.7158264    1.7174201    0.0000000    0.0000000    0.0000000    0.0012297    0.0006031    0.0021601    0.0000000    0.0000000    0.0000000    0.0004870    0.0000624    0.0005987         0.6510279    0.6494306    0.6532980    0.0000000    0.0000000    0.0000000    0.0010427   -0.0005937    0.0034153    0.0000000    0.0000000    0.0000000    0.0046798    0.0043544    0.0048259         1.9696923    1.9636492    1.9780139    0.0000000    0.0000000    0.0000000    0.0084152    0.0023114    0.0168357    0.0000000    0.0000000    0.0000000    0.0000552    0.0000040    0.0001570         0.0000061   -0.0000026    0.0000092    0.0000000    0.0000000    0.0000000   -0.0000054   -0.0000070   -0.0000007    0.0000000    0.0000000    0.0000000   -0.0000004   -0.0000007    0.0000000
      0.3014946         1.7079359    1.7071936    1.7089973    0.0000000    0.0000000    0.0000000    0.0013503    0.0006370    0.0024245    0.0000000    0.0000000    0.0000000    0.0005353    0.0000604    0.0006548         0.6415110    0.6399337    0.6437661    0.0000000    0.0000000    0.0000000    0.0009699   -0.0006621    0.0033727    0.0000000    0.0000000    0.0000000    0.0046616    0.0042863    0.0048487         1.8894089    1.8824489    1.8989770    0.0000000    0.0000000    0.0000000    0.0094226    0.0023954    0.0191202    0.0000000    0.0000000    0.0000000    0.0000693    0.0000047    0.0001993         0.0000062   -0.0000027    0.0000093    0.0000000    0.0000000    0.0000000   -0.0000054   -0.0000070   -0.0000006    0.0000000    0.0000000    0.0000000   -0.0000003   -0.0000007    0.0000001
      0.3303403         1.6989324    1.6980918    1.7001465    0.0000000    0.0000000    0.0000000    0.0014861    0.0006408    0.0027237    0.0000000    0.0000000    0.0000000    0.0005864    0.0000577    0.0007135         0.6320693    0.6305661    0.6342640    0.0000000    0.0000000    0.0000000    0.0008445   -0.0007383    0.0032322    0.0000000    0.0000000    0.0000000    0.0046449    0.0042175    0.0048809         1.8074471    1.7994943    1.8184024    0.0000000    0.0000000    0.0000000    0.0105024    0.0024726    0.0216253    0.0000000    0.0000000    0.0000000    0.0000857    0.0000054    0.0002497         0.0000062   -0.0000027    0.0000094    0.0000000    0.0000000    0.0000000   -0.0000053   -0.0000069   -0.0000005    0.0000000    0.0000000    0.0000000   -0.0000003   -0.0000006    0.0000002
      0.3612021         1.6894536    1.6884991    1.6908431    0.0000000    0.0000000    0.0000000    0.0016419    0.0006374    0.0030634    0.0000000    0.0000000    0.0000000    0.0006397    0.0000545    0.0007746         0.6226158    0.6212501    0.6246838    0.0000000    0.0000000    0.0000000    0.0006687   -0.0008196    0.0029948    0.0000000    0.0000000    0.0000000    0.0046285    0.0041481    0.0049209         1.7239987    1.7149826    1.7365102    0.0000000    0.0000000    0.0000000    0.0116573    0.0025427    0.0243783    0.0000000    0.0000000    0.0000000    0.0001044    0.0000061    0.0003093         0.0000063   -0.0000027    0.0000094    0.0000000    0.0000000    0.0000000   -0.0000052   -0.0000068   -0.0000005    0.0000000    0.0000000    0.0000000   -0.0000002   -0.0000006    0.0000002
      0.3942227         1.6794808    1.6783907    1.6810718    0.0000000    0.0000000    0.0000000    0.0018233    0.0006387    0.0034542    0.0000000    0.0000000    0.0000000    0.0006948    0.0000513    0.0008379         0.6130308    0.6118433    0.6148990    0.0000000    0.0000000    0.0000000    0.0004484   -0.0009019    0.0026498    0.0000000    0.0000000    0.0000000    0.0046108    0.0040777    0.0049661         1.6392642    1.6291003    1.6534137    0.0000000    0.0000000    0.0000000    0.0128894    0.0026060    0.0272959    0.0000000    0.0000000    0.0000000    0.0001254    0.0000068    0.0003761         0.0000063   -0.0000026    0.0000093    0.0000000    0.0000000    0.0000000   -0.0000051   -0.0000067   -0.0000003    0.0000000    0.0000000    0.0000000   -0.0000002   -0.0000005    0.0000003
      0.4295596         1.6689956    1.6677403    1.6708217    0.0000000    0.0000000    0.0000000    0.0020368    0.0006481    0.0039239    0.0000000    0.0000000    0.0000000    0.0007509    0.0000480    0.0009029         0.6031668    0.6021737    0.6047888    0.0000000    0.0000000    0.0000000    0.0001932   -0.0009803    0.0022129    0.0000000    0.0000000    0.0000000    0.0045894    0.0040061    0.0050136         1.5534573    1.5420485    1.5693281    0.0000000    0.0000000    0.0000000    0.0142011    0.0026628    0.0303712    0.0000000    0.0000000    0.0000000    0.0001487    0.0000075    0.0004499         0.0000062   -0.0000026    0.0000091    0.0000000    0.0000000    0.0000000   -0.0000050   -0.0000066   -0.0000003    0.0000000    0.0000000    0.0000000    0.0000000   -0.0000004    0.0000004
      0.4673868         1.6579827    1.6565270    1.6601040    0.0000000    0.0000000    0.0000000    0.0022898    0.0006695    0.0044824    0.0000000    0.0000000    0.0000000    0.0008070    0.0000450    0.0009689         0.5928886    0.5921286    0.5942448    0.0000000    0.0000000    0.0000000   -0.0000841   -0.0010521    0.0017123    0.0000000    0.0000000    0.0000000    0.0045621    0.0039326    0.0050585         1.4668311    1.4541022    1.4845662    0.0000000    0.0000000    0.0000000    0.0155930    0.0027124    0.0336671    0.0000000    0.0000000    0.0000000    0.0001743    0.0000081    0.0005328         0.0000061   -0.0000025    0.0000089    0.0000000    0.0000000    0.0000000   -0.0000049   -0.0000064   -0.0000003    0.0000000    0.0000000    0.0000000    0.0000001   -0.0000003    0.0000005
      0.5078968         1.6464293    1.6447299    1.6489032    0.0000000    0.0000000    0.0000000    0.0025902    0.0007082    0.0051379    0.0000000    0.0000000    0.0000000    0.0008621    0.0000425    0.0010354         0.5820549    0.5815461    0.5831087    0.0000000    0.0000000    0.0000000   -0.0003681   -0.0011143    0.0011943    0.0000000    0.0000000    0.0000000    0.0045263    0.0038567    0.0051004         1.3796657    1.3655480    1.3994418    0.0000000    0.0000000    0.0000000    0.0170636    0.0027538    0.0372412    0.0000000    0.0000000    0.0000000    0.0002022    0.0000087    0.0006272         0.0000060   -0.0000024    0.0000086    0.0000000    0.0000000    0.0000000   -0.0000048   -0.0000062   -0.0000001    0.0000000    0.0000000    0.0000000    0.0000002   -0.0000001    0.0000007
      0.5513032         1.6343244    1.6323277    1.6372142    0.0000000    0.0000000    0.0000000    0.0029461    0.0007714    0.0059067    0.0000000    0.0000000    0.0000000    0.0009148    0.0000409    0.0011014         0.5705021    0.5701684    0.5712436    0.0000000    0.0000000    0.0000000   -0.0006401   -0.0011755    0.0006759    0.0000000    0.0000000    0.0000000    0.0044789    0.0037771    0.0051307         1.2922536    1.2766586    1.3141308    0.0000000    0.0000000    0.0000000    0.0186090    0.0027863    0.0409622    0.0000000    0.0000000    0.0000000    0.0002326    0.0000092    0.0007299         0.0000059   -0.0000024    0.0000083    0.0000000    0.0000000    0.0000000   -0.0000047   -0.0000061   -0.0000002    0.0000000    0.0000000    0.0000000    0.0000004    0.0000000    0.0000008
      0.5978429         1.6216607    1.6193020    1.6250400    0.0000000    0.0000000    0.0000000    0.0033658    0.0008686    0.0068048    0.0000000    0.0000000    0.0000000    0.0009635    0.0000402    0.0011659         0.5580569    0.5577472    0.5585238    0.0000000    0.0000000    0.0000000   -0.0008783   -0.0012984    0.0002009    0.0000000    0.0000000    0.0000000    0.0044168    0.0036930    0.0051408         1.2049074    1.1877380    1.2289455    0.0000000    0.0000000    0.0000000    0.0202218    0.0028090    0.0448065    0.0000000    0.0000000    0.0000000    0.0002661    0.0000096    0.0008421         0.0000058   -0.0000022    0.0000080    0.0000000    0.0000000    0.0000000   -0.0000046   -0.0000059   -0.0000002    0.0000000    0.0000000    0.0000000    0.0000005    0.0000000    0.0000010
      0.6477798         1.6084364    1.6056425    1.6123880    0.0000000    0.0000000    0.0000000    0.0038575    0.0010138    0.0078736    0.0000000    0.0000000    0.0000000    0.0010069    0.0000405    0.0012278         0.5445836    0.5442662    0.5448472    0.0000000    0.0000000    0.0000000   -0.0010597   -0.0014363   -0.0001839    0.0000000    0.0000000    0.0000000    0.0043369    0.0036032    0.0051231         1.1179950    1.0991985    1.1442250    0.0000000    0.0000000    0.0000000    0.0218899    0.0028201    0.0487433    0.0000000    0.0000000    0.0000000    0.0003035    0.0000098    0.0009660         0.0000056   -0.0000022    0.0000077    0.0000000    0.0000000    0.0000000   -0.0000045   -0.0000058   -0.0000001    0.0000000    0.0000000    0.0000000    0.0000007    0.0000000    0.0000011
      0.7014077         1.5946555    1.5913448    1.5992989    0.0000000    0.0000000    0.0000000    0.0044284    0.0011926    0.0091096    0.0000000    0.0000000    0.0000000    0.0010435    0.0000419    0.0012858         0.5299665    0.5296055    0.5302106    0.0000000    0.0000000    0.0000000   -0.0011610   -0.0015242   -0.0004299    0.0000000    0.0000000    0.0000000    0.0042363    0.0035066    0.0050696         1.0319149    1.0114647    1.0604371    0.0000000    0.0000000    0.0000000    0.0235958    0.0028176    0.0528434    0.0000000    0.0000000    0.0000000    0.0003462    0.0000099    0.0011111         0.0000054   -0.0000020    0.0000074    0.0000000    0.0000000    0.0000000   -0.0000044   -0.0000058   -0.0000001    0.0000000    0.0000000    0.0000000    0.0000009    0.0000000    0.0000013
      0.7590550         1.5803280    1.5764120    1.5857660    0.0000000    0.0000000    0.0000000    0.0050842    0.0012656    0.0105215    0.0000000    0.0000000    0.0000000    0.0010721    0.0000444    0.0013385         0.5140991    0.5137330    0.5143550    0.0000000    0.0000000    0.0000000   -0.0011598   -0.0015114   -0.0004858    0.0000000    0.0000000    0.0000000    0.0041125    0.0034023    0.0049728         0.9470737    0.9249369    0.9779374    0.0000000    0.0000000    0.0000000    0.0253151    0.0027993    0.0570266    0.0000000    0.0000000    0.0000000    0.0003960    0.0000099    0.0012812         0.0000053   -0.0000019    0.0000071    0.0000000    0.0000000    0.0000000   -0.0000044   -0.0000057   -0.0000001    0.0000000    0.0000000    0.0000000    0.0000011    0.0000000    0.0000015
      0.8210893         1.5654701    1.5608545    1.5718095    0.0000000    0.0000000    0.0000000    0.0058287    0.0013364    0.0121184    0.0000000    0.0000000    0.0000000    0.0010916    0.0000477    0.0013845         0.4968969    0.4965827    0.4971421    0.0000000    0.0000000    0.0000000   -0.0010364   -0.0013623   -0.0003055    0.0000000    0.0000000    0.0000000    0.0039636    0.0032900    0.0048269         0.8638913    0.8400524    0.8970504    0.0000000    0.0000000    0.0000000    0.0270169    0.0027629    0.0611527    0.0000000    0.0000000    0.0000000    0.0004558    0.0000097    0.0014811         0.0000051   -0.0000017    0.0000069    0.0000000    0.0000000    0.0000000   -0.0000043   -0.0000057   -0.0000001    0.0000000    0.0000000    0.0000000    0.0000013    0.0000000    0.0000017
      0.8879230         1.5501037    1.5446888    1.5574542    0.0000000    0.0000000    0.0000000    0.0066634    0.0014032    0.0139055    0.0000000    0.0000000    0.0000000    0.0011020    0.0000512    0.0014223         0.4783273    0.4780643    0.4788720    0.0000000    0.0000000    0.0000000   -0.0007745   -0.0010954    0.0001383    0.0000000    0.0000000    0.0000000    0.0037888    0.0031690    0.0046283         0.7828391    0.7573689    0.8181876    0.0000000    0.0000000    0.0000000    0.0286631    0.0027067    0.0651443    0.0000000    0.0000000    0.0000000    0.0005290    0.0000093    0.0017204         0.0000049   -0.0000016    0.0000067    0.0000000    0.0000000    0.0000000   -0.0000042   -0.0000057   -0.0000002    0.0000000    0.0000000    0.0000000    0.0000014    0.0000000    0.0000019
      0.9600202         1.5342577    1.5279447    1.5427286    0.0000000    0.0000000    0.0000000    0.0075871    0.0014635    0.0158836    0.0000000    0.0000000    0.0000000    0.0011036    0.0000549    0.0014508         0.4584048    0.4578377    0.4594283    0.0000000    0.0000000    0.0000000   -0.0003635   -0.0009779    0.0008697    0.0000000    0.0000000    0.0000000    0.0035886    0.0030394    0.0043762         0.7043960    0.6774182    0.7417635    0.0000000    0.0000000    0.0000000    0.0302088    0.0026288    0.0689138    0.0000000    0.0000000    0.0000000    0.0006197    0.0000088    0.0020112         0.0000047   -0.0000015    0.0000065    0.0000000    0.0000000    0.0000000   -0.0000042   -0.0000057   -0.0000002    0.0000000    0.0000000    0.0000000    0.0000015    0.0000000    0.0000021
      1.0379043         1.5179699    1.5106689    1.5276651    0.0000000    0.0000000    0.0000000    0.0085947    0.0015143    0.0180480    0.0000000    0.0000000    0.0000000    0.0010979    0.0000583    0.0014688         0.4371951    0.4360647    0.4388733    0.0000000    0.0000000    0.0000000    0.0001990   -0.0008854    0.0018993    0.0000000    0.0000000    0.0000000    0.0033652    0.0029011    0.0040733         0.6290059    0.6006384    0.6681859    0.0000000    0.0000000    0.0000000    0.0316033    0.0025283    0.0723658    0.0000000    0.0000000    0.0000000    0.0007327    0.0000082    0.0023672         0.0000044   -0.0000013    0.0000063    0.0000000    0.0000000    0.0000000   -0.0000041   -0.0000057   -0.0000003    0.0000000    0.0000000    0.0000000    0.0000016    0.0000000    0.0000023
      1.1221673         1.5010927    1.4924928    1.5122973    0.0000000    0.0000000    0.0000000    0.0094784    0.0005602    0.0203884    0.0000000    0.0000000    0.0000000    0.0010638    0.0000088    0.0014753         0.4147673    0.4129002    0.4173090    0.0000000    0.0000000    0.0000000    0.0008707   -0.0007866    0.0032212    0.0000000    0.0000000    0.0000000    0.0031140    0.0027237    0.0037264         0.5564396    0.5269748    0.5978434    0.0000000    0.0000000    0.0000000    0.0321176    0.0017731    0.0754009    0.0000000    0.0000000    0.0000000    0.0008539    0.0000015    0.0028024         0.0000041   -0.0000013    0.0000061    0.0000000    0.0000000    0.0000000   -0.0000039   -0.0000057    0.0000000    0.0000000    0.0000000    0.0000000    0.0000016   -0.0000001    0.0000024
      1.2134809         1.4840597    1.4747427    1.4966613    0.0000000    0.0000000    0.0000000    0.0106280    0.0015766    0.0228879    0.0000000    0.0000000    0.0000000    0.0010528    0.0000246    0.0014695         0.3913348    0.3886863    0.3948735    0.0000000    0.0000000    0.0000000    0.0016972   -0.0006845    0.0048112    0.0000000    0.0000000    0.0000000    0.0028604    0.0025749    0.0033461         0.4885383    0.4586511    0.5311016    0.0000000    0.0000000    0.0000000    0.0331124    0.0022576    0.0779153    0.0000000    0.0000000    0.0000000    0.0010227    0.0000068    0.0033306         0.0000039   -0.0000011    0.0000059    0.0000000    0.0000000    0.0000000   -0.0000038   -0.0000057   -0.0000001    0.0000000    0.0000000    0.0000000    0.0000017   -0.0000002    0.0000024
      1.3126095         1.4667316    1.4562196    1.4807939    0.0000000    0.0000000    0.0000000    0.0118283    0.0015847    0.0255246    0.0000000    0.0000000    0.0000000    0.0010449    0.0000410    0.0014512         0.3670637    0.3634341    0.3717358    0.0000000    0.0000000    0.0000000    0.0026299   -0.0005831    0.0066287    0.0000000    0.0000000    0.0000000    0.0026006    0.0024250    0.0029469         0.4249883    0.3945012    0.4682934    0.0000000    0.0000000    0.0000000    0.0338013    0.0020898    0.0798040    0.0000000    0.0000000    0.0000000    0.0012267    0.0000060    0.0039634         0.0000036   -0.0000009    0.0000057    0.0000000    0.0000000    0.0000000   -0.0000036   -0.0000056   -0.0000002    0.0000000    0.0000000    0.0000000    0.0000017   -0.0000003    0.0000025
      1.4204260         1.4491661    1.4374359    1.4647319    0.0000000    0.0000000    0.0000000    0.0130590    0.0015754    0.0282702    0.0000000    0.0000000    0.0000000    0.0010459    0.0000623    0.0014210         0.3422165    0.3375741    0.3480954    0.0000000    0.0000000    0.0000000    0.0036349   -0.0004884    0.0086165    0.0000000    0.0000000    0.0000000    0.0023439    0.0022013    0.0025480         0.3660541    0.3352419    0.4096956    0.0000000    0.0000000    0.0000000    0.0341340    0.0019053    0.0809713    0.0000000    0.0000000    0.0000000    0.0014681    0.0000051    0.0047085         0.0000033   -0.0000008    0.0000055    0.0000000    0.0000000    0.0000000   -0.0000034   -0.0000055   -0.0000003    0.0000000    0.0000000    0.0000000    0.0000016   -0.0000003    0.0000025
      1.5379306         1.4311686    1.4184819    1.4485099    0.0000000    0.0000000    0.0000000    0.0140354    0.0010200    0.0310900    0.0000000    0.0000000    0.0000000    0.0010414    0.0000120    0.0013814         0.3169616    0.3114129    0.3241743    0.0000000    0.0000000    0.0000000    0.0045750   -0.0004043    0.0107012    0.0000000    0.0000000    0.0000000    0.0020993    0.0019050    0.0021799         0.3113793    0.2812340    0.3555139    0.0000000    0.0000000    0.0000000    0.0334438    0.0017080    0.0813419    0.0000000    0.0000000    0.0000000    0.0017120    0.0000043    0.0055663         0.0000030   -0.0000006    0.0000053    0.0000000    0.0000000    0.0000000   -0.0000031   -0.0000054    0.0000000    0.0000000    0.0000000    0.0000000    0.0000015   -0.0000005    0.0000025
      1.6662737         1.4133392    1.3994451    1.4321601    0.0000000    0.0000000    0.0000000    0.0152862    0.0015029    0.0339438    0.0000000    0.0000000    0.0000000    0.0010793    0.0000492    0.0013512         0.2917863    0.2852149    0.3002044    0.0000000    0.0000000    0.0000000    0.0056010   -0.0003323    0.0127997    0.0000000    0.0000000    0.0000000    0.0018795    0.0016303    0.0020011         0.2625192    0.2328972    0.3058880    0.0000000    0.0000000    0.0000000    0.0330747    0.0015017    0.0808575    0.0000000    0.0000000    0.0000000    0.0020187    0.0000035    0.0065278         0.0000027   -0.0000006    0.0000050    0.0000000    0.0000000    0.0000000   -0.0000029   -0.0000052   -0.0000001    0.0000000    0.0000000    0.0000000    0.0000014   -0.0000005    0.0000024
      1.8067836         1.3954503    1.3804106    1.4157123    0.0000000    0.0000000    0.0000000    0.0164947    0.0014414    0.0367873    0.0000000    0.0000000    0.0000000    0.0011451    0.0001135    0.0013685         0.2668605    0.2593303    0.2764177    0.0000000    0.0000000    0.0000000    0.0065665   -0.0002734    0.0148272    0.0000000    0.0000000    0.0000000    0.0016912    0.0014051    0.0018928         0.2188283    0.1901895    0.2608957    0.0000000    0.0000000    0.0000000    0.0322679    0.0012932    0.0794700    0.0000000    0.0000000    0.0000000    0.0023519    0.0000027    0.0075750         0.0000024   -0.0000005    0.0000048    0.0000000    0.0000000    0.0000000   -0.0000026   -0.0000049   -0.0000003    0.0000000    0.0000000    0.0000000    0.0000013   -0.0000006    0.0000023
      1.9610007         1.3773001    1.3614618    1.3991916    0.0000000    0.0000000    0.0000000    0.0173689    0.0013668    0.0395713    0.0000000    0.0000000    0.0000000    0.0012232    0.0000435    0.0014839         0.2423569    0.2341570    0.2530416    0.0000000    0.0000000    0.0000000    0.0073128   -0.0002279    0.0166965    0.0000000    0.0000000    0.0000000    0.0015430    0.0012536    0.0018196         0.1797201    0.1527465    0.2205185    0.0000000    0.0000000    0.0000000    0.0305506    0.0010905    0.0771725    0.0000000    0.0000000    0.0000000    0.0026517    0.0000020    0.0086763         0.0000020   -0.0000004    0.0000044    0.0000000    0.0000000    0.0000000   -0.0000023   -0.0000046   -0.0000001    0.0000000    0.0000000    0.0000000    0.0000012   -0.0000006    0.0000022
      2.1307190         1.3595098    1.3427000    1.3826167    0.0000000    0.0000000    0.0000000    0.0184672    0.0012806    0.0422433    0.0000000    0.0000000    0.0000000    0.0013614    0.0001552    0.0018474         0.2188181    0.2099823    0.2302860    0.0000000    0.0000000    0.0000000    0.0080516   -0.0001956    0.0183229    0.0000000    0.0000000    0.0000000    0.0014383    0.0011997    0.0017982         0.1461400    0.1207741    0.1846436    0.0000000    0.0000000    0.0000000    0.0290402    0.0008985    0.0740063    0.0000000    0.0000000    0.0000000    0.0029971    0.0000015    0.0097839         0.0000018   -0.0000003    0.0000041    0.0000000    0.0000000    0.0000000   -0.0000020   -0.0000042   -0.0000001    0.0000000    0.0000000    0.0000000    0.0000010   -0.0000006    0.0000021
      2.3180383         1.3415712    1.3242010    1.3660386    0.0000000    0.0000000    0.0000000    0.0191784    0.0011856    0.0447765    0.0000000    0.0000000    0.0000000    0.0015155    0.0000748    0.0024026         0.1961757    0.1870326    0.2083782    0.0000000    0.0000000    0.0000000    0.0084934   -0.0001748    0.0196560    0.0000000    0.0000000    0.0000000    0.0013775    0.0011944    0.0018442         0.1170581    0.0941388    0.1531827    0.0000000    0.0000000    0.0000000    0.0267758    0.0007212    0.0700866    0.0000000    0.0000000    0.0000000    0.0032696    0.0000010    0.0108603         0.0000015   -0.0000002    0.0000039    0.0000000    0.0000000    0.0000000   -0.0000017   -0.0000038   -0.0000001    0.0000000    0.0000000    0.0000000    0.0000009   -0.0000006    0.0000020
      2.5254280         1.3237933    1.3059896    1.3495250    0.0000000    0.0000000    0.0000000    0.0197706    0.0010868    0.0471900    0.0000000    0.0000000    0.0000000    0.0017083    0.0000196    0.0031002         0.1747378    0.1654606    0.1874517    0.0000000    0.0000000    0.0000000    0.0087474   -0.0001613    0.0206495    0.0000000    0.0000000    0.0000000    0.0013567    0.0010410    0.0019614         0.0924976    0.0719815    0.1259728    0.0000000    0.0000000    0.0000000    0.0243278    0.0005633    0.0656095    0.0000000    0.0000000    0.0000000    0.0035016    0.0000006    0.0118762         0.0000013   -0.0000002    0.0000035    0.0000000    0.0000000    0.0000000   -0.0000014   -0.0000033    0.0000000    0.0000000    0.0000000    0.0000000    0.0000008   -0.0000005    0.0000020
      2.7558086         1.3061693    1.2875643    1.3330057    0.0000000    0.0000000    0.0000000    0.0201656    0.0000205    0.0493363    0.0000000    0.0000000    0.0000000    0.0019187    0.0000001    0.0039482         0.1546357    0.1452710    0.1676154    0.0000000    0.0000000    0.0000000    0.0087980   -0.0002729    0.0212466    0.0000000    0.0000000    0.0000000    0.0013721    0.0009016    0.0021520         0.0719778    0.0537998    0.1025661    0.0000000    0.0000000    0.0000000    0.0216434    0.0000160    0.0605085    0.0000000    0.0000000    0.0000000    0.0036342    0.0000000    0.0127170         0.0000010   -0.0000001    0.0000032    0.0000000    0.0000000    0.0000000   -0.0000011   -0.0000029    0.0000000    0.0000000    0.0000000    0.0000000    0.0000007   -0.0000004    0.0000019
      3.0126536         1.2895995    1.2707333    1.3165926    0.0000000    0.0000000    0.0000000    0.0213062    0.0008887    0.0512808    0.0000000    0.0000000    0.0000000    0.0022691    0.0006699    0.0049345         0.1363862    0.1271577    0.1490297    0.0000000    0.0000000    0.0000000    0.0090395   -0.0001478    0.0214700    0.0000000    0.0000000    0.0000000    0.0014360    0.0007770    0.0024210         0.0560128    0.0400527    0.0827662    0.0000000    0.0000000    0.0000000    0.0198275    0.0003161    0.0551122    0.0000000    0.0000000    0.0000000    0.0038928    0.0000001    0.0133708         0.0000009   -0.0000001    0.0000029    0.0000000    0.0000000    0.0000000   -0.0000009   -0.0000025   -0.0000001    0.0000000    0.0000000    0.0000000    0.0000006   -0.0000003    0.0000019
      3.3001205         1.2727629    1.2537286    1.3002447    0.0000000    0.0000000    0.0000000    0.0217299    0.0007945    0.0529166    0.0000000    0.0000000    0.0000000    0.0026077    0.0003601    0.0060491         0.1193283    0.1104338    0.1316779    0.0000000    0.0000000    0.0000000    0.0088403   -0.0001434    0.0213088    0.0000000    0.0000000    0.0000000    0.0014984    0.0006655    0.0027626         0.0427907    0.0291729    0.0661473    0.0000000    0.0000000    0.0000000    0.0174252    0.0002256    0.0494654    0.0000000    0.0000000    0.0000000    0.0039932   -0.0000001    0.0137572         0.0000007    0.0000000    0.0000027    0.0000000    0.0000000    0.0000000   -0.0000008   -0.0000021   -0.0000001    0.0000000    0.0000000    0.0000000    0.0000005   -0.0000003    0.0000019
      3.6232176         1.2562457    1.2371696    1.2840579    0.0000000    0.0000000    0.0000000    0.0220438    0.0007066    0.0543138    0.0000000    0.0000000    0.0000000    0.0029845    0.0006733    0.0072979         0.1037419    0.0953039    0.1156663    0.0000000    0.0000000    0.0000000    0.0085059   -0.0001379    0.0208157    0.0000000    0.0000000    0.0000000    0.0015641    0.0005669    0.0031546         0.0323118    0.0208643    0.0523989    0.0000000    0.0000000    0.0000000    0.0151160    0.0001553    0.0438428    0.0000000    0.0000000    0.0000000    0.0040188   -0.0000002    0.0138760         0.0000006    0.0000000    0.0000024    0.0000000    0.0000000    0.0000000   -0.0000006   -0.0000019    0.0000000    0.0000000    0.0000000    0.0000000    0.0000004   -0.0000002    0.0000018
      3.9880229         1.2395375    1.2211207    1.2679777    0.0000000    0.0000000    0.0000000    0.0215890    0.0006259    0.0553581    0.0000000    0.0000000    0.0000000    0.0032759    0.0001974    0.0086460         0.0894191    0.0818125    0.1009371    0.0000000    0.0000000    0.0000000    0.0078279   -0.0001310    0.0200071    0.0000000    0.0000000    0.0000000    0.0015891    0.0004811    0.0035650         0.0239277    0.0148999    0.0410723    0.0000000    0.0000000    0.0000000    0.0125170    0.0001040    0.0382880    0.0000000    0.0000000    0.0000000    0.0038131   -0.0000002    0.0136556         0.0000005    0.0000000    0.0000022    0.0000000    0.0000000    0.0000000   -0.0000005   -0.0000018    0.0000000    0.0000000    0.0000000    0.0000000    0.0000004   -0.0000001    0.0000017
      4.4019686         1.2232886    1.2055128    1.2520589    0.0000000    0.0000000    0.0000000    0.0210947    0.0005526    0.0560674    0.0000000    0.0000000    0.0000000    0.0035596    0.0005580    0.0100746         0.0765573    0.0697085    0.0874870    0.0000000    0.0000000    0.0000000    0.0071331   -0.0001224    0.0189468    0.0000000    0.0000000    0.0000000    0.0015960    0.0004059    0.0039522         0.0175425    0.0105120    0.0318503    0.0000000    0.0000000    0.0000000    0.0101927    0.0000666    0.0329792    0.0000000    0.0000000    0.0000000    0.0035031   -0.0000002    0.0131154         0.0000005    0.0000000    0.0000020    0.0000000    0.0000000    0.0000000   -0.0000004   -0.0000017    0.0000000    0.0000000    0.0000000    0.0000000    0.0000003    0.0000000    0.0000014
      4.8742202         1.2071509    1.1904046    1.2363465    0.0000000    0.0000000    0.0000000    0.0201314    0.0004871    0.0564598    0.0000000    0.0000000    0.0000000    0.0037531    0.0005099    0.0115634         0.0649503    0.0589862    0.0752852    0.0000000    0.0000000    0.0000000    0.0062986   -0.0001123    0.0177055    0.0000000    0.0000000    0.0000000    0.0015543    0.0003408    0.0042815         0.0126147    0.0073945    0.0244154    0.0000000    0.0000000    0.0000000    0.0079747    0.0000410    0.0280624    0.0000000    0.0000000    0.0000000    0.0030448   -0.0000002    0.0122959         0.0000004    0.0000000    0.0000018    0.0000000    0.0000000    0.0000000   -0.0000003   -0.0000016    0.0000000    0.0000000    0.0000000    0.0000000    0.0000002    0.0000000    0.0000012
      5.4161837         1.1910519    1.1758119    1.2208779    0.0000000    0.0000000    0.0000000    0.0185366    0.0004289    0.0565503    0.0000000    0.0000000    0.0000000    0.0037656    0.0002123    0.0130874         0.0545410    0.0495739    0.0642834    0.0000000    0.0000000    0.0000000    0.0053283   -0.0001011    0.0163303    0.0000000    0.0000000    0.0000000    0.0014416    0.0002852    0.0045213         0.0088815    0.0052820    0.0184628    0.0000000    0.0000000    0.0000000    0.0058807    0.0000248    0.0236215    0.0000000    0.0000000    0.0000000    0.0024437   -0.0000002    0.0112326         0.0000003    0.0000000    0.0000016    0.0000000    0.0000000    0.0000000   -0.0000003   -0.0000016    0.0000000    0.0000000    0.0000000    0.0000000    0.0000002    0.0000000    0.0000009
      6.0421955         1.1755558    1.1616790    1.2055844    0.0000000    0.0000000    0.0000000    0.0170045    0.0003762    0.0562062    0.0000000    0.0000000    0.0000000    0.0037086    0.0004365    0.0145823         0.0453990    0.0412620    0.0544086    0.0000000    0.0000000    0.0000000    0.0044612   -0.0000897    0.0148477    0.0000000    0.0000000    0.0000000    0.0013009    0.0002374    0.0046612         0.0061793    0.0037606    0.0136893    0.0000000    0.0000000    0.0000000    0.0041969    0.0000141    0.0195958    0.0000000    0.0000000    0.0000000    0.0018563   -0.0000001    0.0099307         0.0000002    0.0000000    0.0000013    0.0000000    0.0000000    0.0000000   -0.0000002   -0.0000016    0.0000000    0.0000000    0.0000000    0.0000000    0.0000001    0.0000000    0.0000006
      6.7704720         1.1604018    1.1480802    1.1901587    0.0000000    0.0000000    0.0000000    0.0151987    0.0003264    0.0549320    0.0000000    0.0000000    0.0000000    0.0035172    0.0004151    0.0158029         0.0373820    0.0340729    0.0454875    0.0000000    0.0000000    0.0000000    0.0036114   -0.0000790    0.0132037    0.0000000    0.0000000    0.0000000    0.0011210    0.0001978    0.0045864         0.0042423    0.0027329    0.0098054    0.0000000    0.0000000    0.0000000    0.0028313    0.0000080    0.0157375    0.0000000    0.0000000    0.0000000    0.0013050    0.0000000    0.0083106         0.0000001    0.0000000    0.0000012    0.0000000    0.0000000    0.0000000   -0.0000001   -0.0000015    0.0000000    0.0000000    0.0000000    0.0000000    0.0000000    0.0000000    0.0000003
      7.6244384         1.1454832    1.1349216    1.1759378    0.0000000    0.0000000    0.0000000    0.0130185    0.0002731    0.0546587    0.0000000    0.0000000    0.0000000    0.0031538    0.0000029    0.0174589         0.0303590    0.0278020    0.0378598    0.0000000    0.0000000    0.0000000    0.0027795   -0.0000703    0.0118530    0.0000000    0.0000000    0.0000000    0.0009072    0.0001654    0.0045890         0.0028717    0.0019924    0.0070007    0.0000000    0.0000000    0.0000000    0.0017741    0.0000041    0.0131865    0.0000000    0.0000000    0.0000000    0.0008323    0.0000001    0.0071085         0.0000001    0.0000000    0.0000010    0.0000000    0.0000000    0.0000000   -0.0000001   -0.0000016    0.0000000    0.0000000    0.0000000    0.0000000    0.0000000    0.0000000    0.0000002
      8.6346191         1.1313646    1.1222406    1.1605728    0.0000000    0.0000000    0.0000000    0.0111470    0.0002075    0.0517808    0.0000000    0.0000000    0.0000000    0.0027694    0.0004226    0.0179627         0.0243924    0.0224306    0.0308242    0.0000000    0.0000000    0.0000000    0.0021217   -0.0000652    0.0100801    0.0000000    0.0000000    0.0000000    0.0007098    0.0001404    0.0042054         0.0019537    0.0014638    0.0045871    0.0000000    0.0000000    0.0000000    0.0010700    0.0000018    0.0099174    0.0000000    0.0000000    0.0000000    0.0004970    0.0000005    0.0052877         0.0000000    0.0000000    0.0000008    0.0000000    0.0000000    0.0000000    0.0000000   -0.0000013    0.0000000    0.0000000    0.0000000    0.0000000    0.0000000   -0.0000001    0.0000001
      9.8413759         1.1177032    1.1099241    1.1472512    0.0000000    0.0000000    0.0000000    0.0092963    0.0001145    0.0512304    0.0000000    0.0000000    0.0000000    0.0023916    0.0004595    0.0195161         0.0192992    0.0178110    0.0250761    0.0000000    0.0000000    0.0000000    0.0015621   -0.0000653    0.0088904    0.0000000    0.0000000    0.0000000    0.0005380    0.0001219    0.0040558         0.0013367    0.0010733    0.0029753    0.0000000    0.0000000    0.0000000    0.0006176    0.0000001    0.0083761    0.0000000    0.0000000    0.0000000    0.0002764    0.0000007    0.0042727         0.0000000    0.0000000    0.0000007    0.0000000    0.0000000    0.0000000    0.0000000   -0.0000012    0.0000001    0.0000000    0.0000000    0.0000000    0.0000000   -0.0000001    0.0000001
     11.2989595         1.1044849    1.0979543    1.1332368    0.0000000    0.0000000    0.0000000    0.0075259   -0.0000162    0.0486396    0.0000000    0.0000000    0.0000000    0.0020746    0.0005145    0.0200541         0.0149962    0.0139008    0.0199373    0.0000000    0.0000000    0.0000000    0.0011041   -0.0000711    0.0074538    0.0000000    0.0000000    0.0000000    0.0004032    0.0001085    0.0036177         0.0009201    0.0007837    0.0017365    0.0000000    0.0000000    0.0000000    0.0003544   -0.0000012    0.0063941    0.0000000    0.0000000    0.0000000    0.0001491    0.0000011    0.0030337         0.0000000    0.0000000    0.0000004    0.0000000    0.0000000    0.0000000    0.0000000   -0.0000011    0.0000000    0.0000000    0.0000000    0.0000000    0.0000000   -0.0000002    0.0000001
     13.0816408         1.0916694    1.0861997    1.1184358    0.0000000    0.0000000    0.0000000    0.0058682   -0.0001862    0.0434761    0.0000000    0.0000000    0.0000000    0.0017901    0.0005653    0.0184653         0.0113938    0.0105894    0.0153942    0.0000000    0.0000000    0.0000000    0.0007415   -0.0000810    0.0058567    0.0000000    0.0000000    0.0000000    0.0002974    0.0000970    0.0029301         0.0006335    0.0005653    0.0009472    0.0000000    0.0000000    0.0000000    0.0002071   -0.0000024    0.0042275    0.0000000    0.0000000    0.0000000    0.0000790    0.0000014    0.0017667         0.0000000    0.0000000    0.0000002    0.0000000    0.0000000    0.0000000    0.0000000   -0.0000004    0.0000000    0.0000000    0.0000000    0.0000000    0.0000000   -0.0000001    0.0000001
     15.2932337         1.0792695    1.0746809    1.1074398    0.0000000    0.0000000    0.0000000    0.0044618   -0.0003763    0.0442407    0.0000000    0.0000000    0.0000000    0.0015700    0.0005760    0.0212704         0.0084339    0.0078552    0.0120595    0.0000000    0.0000000    0.0000000    0.0004756   -0.0000911    0.0051748    0.0000000    0.0000000    0.0000000    0.0002215    0.0000837    0.0028271         0.0004366    0.0002794    0.0005845    0.0000000    0.0000000    0.0000000    0.0001234   -0.0000033    0.0040174    0.0000000    0.0000000    0.0000000    0.0000418    0.0000015    0.0014164         0.0000000    0.0000000    0.0000003    0.0000000    0.0000000    0.0000000    0.0000000   -0.0000008    0.0000000    0.0000000    0.0000000    0.0000000    0.0000000   -0.0000002    0.0000000
     18.0823207         1.0671772    1.0634345    1.0925141    0.0000000    0.0000000    0.0000000    0.0031943   -0.0005427    0.0370783    0.0000000    0.0000000    0.0000000    0.0013240    0.0004926    0.0181098         0.0060287    0.0056281    0.0088174    0.0000000    0.0000000    0.0000000    0.0002776   -0.0000956    0.0036906    0.0000000    0.0000000    0.0000000    0.0001599    0.0000640    0.0020311         0.0002989    0.0001289    0.0004008    0.0000000    0.0000000    0.0000000    0.0000706   -0.0000036    0.0021895    0.0000000    0.0000000    0.0000000    0.0000216    0.0000013    0.0006611         0.0000000    0.0000000    0.0000001    0.0000000    0.0000000    0.0000000    0.0000000   -0.0000003    0.0000000    0.0000000    0.0000000    0.0000000    0.0000000   -0.0000001    0.0000001
     21.6674191         1.0557907    1.0527852    1.0820687    0.0000000    0.0000000    0.0000000    0.0021772   -0.0006479    0.0362455    0.0000000    0.0000000    0.0000000    0.0009687    0.0002699    0.0193295         0.0041615    0.0038930    0.0065618    0.0000000    0.0000000    0.0000000    0.0001473   -0.0000909    0.0030921    0.0000000    0.0000000    0.0000000    0.0001024    0.0000360    0.0018064         0.0002000   -0.0001699    0.0002609    0.0000000    0.0000000    0.0000000    0.0000468   -0.0000034    0.0019818    0.0000000    0.0000000    0.0000000    0.0000111    0.0000008    0.0004051         0.0000000    0.0000000    0.0000001    0.0000000    0.0000000    0.0000000    0.0000000   -0.0000002    0.0000000    0.0000000    0.0000000    0.0000000    0.0000000   -0.0000001    0.0000000
     26.3801887         1.0454639    1.0432583    1.0681684    0.0000000    0.0000000    0.0000000    0.0014291   -0.0006371    0.0301961    0.0000000    0.0000000    0.0000000    0.0004488   -0.0001423    0.0169545         0.0027765    0.0026164    0.0044770    0.0000000    0.0000000    0.0000000    0.0000702   -0.0000729    0.0021085    0.0000000    0.0000000    0.0000000    0.0000456   -0.0000004    0.0012816         0.0001343   -0.0001501    0.0001758    0.0000000    0.0000000    0.0000000    0.0000244   -0.0000025    0.0011933    0.0000000    0.0000000    0.0000000    0.0000043   -0.0000001    0.0001673         0.0000000    0.0000000    0.0000001    0.0000000    0.0000000    0.0000000    0.0000000   -0.0000002    0.0000000    0.0000000    0.0000000    0.0000000    0.0000000    0.0000000    0.0000000
     32.7429541         1.0369391    1.0354017    1.0574913    0.0000000    0.0000000    0.0000000    0.0010803   -0.0003645    0.0258411    0.0000000    0.0000000    0.0000000   -0.0002763   -0.0007987    0.0146944         0.0018209    0.0017326    0.0030629    0.0000000    0.0000000    0.0000000    0.0000447   -0.0000358    0.0014915    0.0000000    0.0000000    0.0000000   -0.0000097   -0.0000427    0.0009064         0.0000877   -0.0001104    0.0001115    0.0000000    0.0000000    0.0000000    0.0000147   -0.0000011    0.0006901    0.0000000    0.0000000    0.0000000    0.0000008   -0.0000010    0.0000502         0.0000000    0.0000000    0.0000000    0.0000000    0.0000000    0.0000000    0.0000000   -0.0000001    0.0000000    0.0000000    0.0000000    0.0000000    0.0000000    0.0000000    0.0000000
     41.6151260         1.0301592    1.0291711    1.0436006    0.0000000    0.0000000    0.0000000    0.0015088    0.0005728    0.0195547    0.0000000    0.0000000    0.0000000   -0.0012663   -0.0017082    0.0116287         0.0011813    0.0011367    0.0018074    0.0000000    0.0000000    0.0000000    0.0000672    0.0000274    0.0008764    0.0000000    0.0000000    0.0000000   -0.0000595   -0.0000814    0.0005510         0.0000560   -0.0001022    0.0000726    0.0000000    0.0000000    0.0000000    0.0000092    0.0000006    0.0004468    0.0000000    0.0000000    0.0000000   -0.0000012   -0.0000093    0.0000129         0.0000000    0.0000000    0.0000000    0.0000000    0.0000000    0.0000000    0.0000000   -0.0000001    0.0000000    0.0000000    0.0000000    0.0000000    0.0000000    0.0000000    0.0000000
     54.4869904         1.0242841    1.0235107    1.0348000    0.0000000    0.0000000    0.0000000    0.0030889    0.0025591    0.0162532    0.0000000    0.0000000    0.0000000   -0.0021424   -0.0025081    0.0099852         0.0007390    0.0007122    0.0011133    0.0000000    0.0000000    0.0000000    0.0001190    0.0001022    0.0005710    0.0000000    0.0000000    0.0000000   -0.0000805   -0.0000940    0.0003597         0.0000340   -0.0000774    0.0000439    0.0000000    0.0000000    0.0000000    0.0000069    0.0000019    0.0002740    0.0000000    0.0000000    0.0000000   -0.0000017   -0.0000263    0.0000093         0.0000000    0.0000000    0.0000000    0.0000000    0.0000000    0.0000000    0.0000000   -0.0000001    0.0000000    0.0000000    0.0000000    0.0000000    0.0000000    0.0000000    0.0000000
     74.1128895         1.0179518    1.0172465    1.0256057    0.0000000    0.0000000    0.0000000    0.0053096    0.0005771    0.0113735    0.0000000    0.0000000    0.0000000   -0.0019794   -0.0022442    0.0043261         0.0004147    0.0003968    0.0006108    0.0000000    0.0000000    0.0000000    0.0001473    0.0000129    0.0002932    0.0000000    0.0000000    0.0000000   -0.0000524   -0.0000602    0.0001220         0.0000204    0.0000188    0.0000287    0.0000000    0.0000000    0.0000000    0.0000031    0.0000005    0.0000227    0.0000000    0.0000000    0.0000000   -0.0000005   -0.0000008    0.0000096         0.0000000    0.0000000    0.0000000    0.0000000    0.0000000    0.0000000    0.0000000    0.0000000    0.0000000    0.0000000    0.0000000    0.0000000    0.0000000    0.0000000    0.0000000
    105.9956905         1.0115436    1.0109661    1.0207757    0.0000000    0.0000000    0.0000000    0.0066288    0.0054307    0.0140052    0.0000000    0.0000000    0.0000000    0.0001798   -0.0000869    0.0051293         0.0002066    0.0001966    0.0003629    0.0000000    0.0000000    0.0000000    0.0001176    0.0000961    0.0002587    0.0000000    0.0000000    0.0000000    0.0000104    0.0000051    0.0000929         0.0000109    0.0000062    0.0000153    0.0000000    0.0000000    0.0000000    0.0000021    0.0000015    0.0000293    0.0000000    0.0000000    0.0000000    0.0000004    0.0000003    0.0000049         0.0000000    0.0000000    0.0000000    0.0000000    0.0000000    0.0000000    0.0000000    0.0000000    0.0000000    0.0000000    0.0000000    0.0000000    0.0000000    0.0000000    0.0000000
    162.2144146         1.0066576    1.0062318    1.0152987    0.0000000    0.0000000    0.0000000    0.0058987    0.0054503    0.0170833    0.0000000    0.0000000    0.0000000    0.0031670    0.0008004    0.0087120         0.0000995    0.0000945    0.0001972    0.0000000    0.0000000    0.0000000    0.0000596    0.0000542    0.0001997    0.0000000    0.0000000    0.0000000    0.0000449    0.0000088    0.0001124         0.0000053   -0.0000017    0.0000078    0.0000000    0.0000000    0.0000000    0.0000011    0.0000006    0.0000236    0.0000000    0.0000000    0.0000000    0.0000007    0.0000006    0.0000044         0.0000000    0.0000000    0.0000000    0.0000000    0.0000000    0.0000000    0.0000000    0.0000000    0.0000000    0.0000000    0.0000000    0.0000000    0.0000000    0.0000000    0.0000000
    272.1939975         1.0030919    1.0027662    1.0091786    0.0000000    0.0000000    0.0000000    0.0040553    0.0005798    0.0160021    0.0000000    0.0000000    0.0000000    0.0040156   -0.0000054    0.0131560         0.0000424    0.0000398    0.0000922    0.0000000    0.0000000    0.0000000    0.0000246    0.0000045    0.0001044    0.0000000    0.0000000    0.0000000    0.0000283    0.0000004    0.0001039         0.0000025    0.0000023    0.0000040    0.0000000    0.0000000    0.0000000    0.0000003    0.0000001    0.0000021    0.0000000    0.0000000    0.0000000    0.0000003    0.0000000    0.0000018         0.0000000    0.0000000    0.0000000    0.0000000    0.0000000    0.0000000    0.0000000    0.0000000    0.0000000    0.0000000    0.0000000    0.0000000    0.0000000    0.0000000    0.0000000
    511.7262807         0.9999645    0.9997401    1.0060463    0.0000000    0.0000000    0.0000000    0.0022119    0.0000032    0.0165004    0.0000000    0.0000000    0.0000000    0.0026330    0.0000001    0.0186803         0.0000158    0.0000149    0.0000374    0.0000000    0.0000000    0.0000000    0.0000087    0.0000000    0.0000658    0.0000000    0.0000000    0.0000000    0.0000086    0.0000002    0.0000699         0.0000009    0.0000007    0.0000012    0.0000000    0.0000000    0.0000000    0.0000002    0.0000000    0.0000031    0.0000000    0.0000000    0.0000000    0.0000000    0.0000000    0.0000013         0.0000000    0.0000000    0.0000000    0.0000000    0.0000000    0.0000000    0.0000000    0.0000000    0.0000000    0.0000000    0.0000000    0.0000000    0.0000000    0.0000000    0.0000000
   1000.0000000         0.9972970    0.9971599    1.0015520    0.0000000    0.0000000    0.0000000    0.0010824    0.0007799    0.0116083    0.0000000    0.0000000    0.0000000    0.0012230    0.0008747    0.0145757         0.0000068    0.0000066    0.0000114    0.0000000    0.0000000    0.0000000    0.0000025    0.0000018    0.0000268    0.0000000    0.0000000    0.0000000    0.0000020    0.0000014    0.0000245         0.0000004    0.0000002    0.0000004    0.0000000    0.0000000    0.0000000    0.0000001    0.0000000    0.0000009    0.0000000    0.0000000    0.0000000    0.0000000    0.0000000    0.0000001         0.0000000    0.0000000    0.0000000    0.0000000    0.0000000    0.0000000    0.0000000    0.0000000    0.0000000    0.0000000    0.0000000    0.0000000    0.0000000    0.0000000    0.0000000
