 
!!!!!!!!!!!!!!!!!!!!!!!!!!!!!!!!!!!!!!!!!!!!!!!!!!!!!!!!!!!!!!!!!!!!!!!!!!!!!!!!!!!!!!!!!!!!!!!!!!!!!!!!!!!!!!!!!!!!!!!!!!!!!!!!!!
! DSE Output !!!!!!!!!!!!!!!!!!!!!!!!!!!!!!!!!!!!!!!!!!!!!!!!!!!!!!!!!!!!!!!!!!!!!!!!!!!!!!!!!!!!!!!!!!!!!!!!!!!!!!!!!!!!!!!!!!!!!
!!!!!!!!!!!!!!!!!!!!!!!!!!!!!!!!!!!!!!!!!!!!!!!!!!!!!!!!!!!!!!!!!!!!!!!!!!!!!!!!!!!!!!!!!!!!!!!!!!!!!!!!!!!!!!!!!!!!!!!!!!!!!!!!!!
 
  * Methods used: 
 
      - Real axis, chiral limit       :               1    *          
      - Complex plane, brute force    :               1    *          
      - Complex paths                 :               0    *          
      - Complex parabola              :               0    *          
 
  * General parameters: 
 
      - Renormalization point         :      19.0000000    *  [GeV]   
      - Mass function at RP           :       3.5748000    *  [MeV]   
 
      - Lambda_Cutoff                 :   0.1000000D+07    *  [GeV^(2)]  
      - Use PV regulator?             :               1    *             
      - PV regulator                  :       0.2000000    *  [TeV]      
 
  * Coupling: 
 
      - Type                          :               5    *          
      - Number of flavors             :               4    *          
      - Lambda_QCD                    :       0.2340000    *  [GeV]   
      - Omega                         :       0.3600000    *  [GeV]   
      - c                             :       0.4052240    *  [GeV^3] 
 
  * Quark-Gluon Vertex: 
 
      - Bare                          :       1.0000000    *          
      - Vector 1                      :       0.0000000    *          
      - Vector 2                      :       0.0000000    *          
      - Vector 3                      :       0.0000000    *          
      - Scalar                        :       0.0000000    *          
 
 -------------------------------------------------------------------------------------
 
  * DSE on real spacelike axis: 
 
      - IR Treatment:                 :  None              *            
 
      - A(0)                          :       1.8147690    *             
      - B(0)                          :       0.9995530    *  [GeV]      
      - M(0)                          :       0.5507880    *  [GeV]      
 
      - A'(0)                         :      -0.3703701    *  [GeV^(-2)] 
      - B'(0)                         :      -1.5277768    *  [GeV^(-1)] 
      - M'(0)                         :      -0.7175921    *  [GeV^(-1)] 
 
      - A''(0)                        : -110995.3801731    *  [GeV^(-4)] 
      - B''(0)                        :       4.0388859    *  [GeV^(-3)] 
      - M''(0)                        :   33689.3861145    *  [GeV^(-3)] 
 
      - Z2                            :       0.9722308    *             
      - Z2 (chiral limit)             :       0.9722308    *             
      - Z4                            :       0.7559166    *             
      - m0                            :       2.7794331    *  [MeV]      
 
      - mHat (Log Tail)               :       7.3577749    *  [MeV]      
      - <qq> (Log Tail)               :     152.1971143    *  [MeV]      
 
      - <qq(s)> (Integration)         :     274.2110091    *  [MeV]      
      - <qq>    (Integration)         :     216.3624334    *  [MeV]      
 
      - m(2GeV)                       :       5.1004079    *  [MeV]      
      - <qq(2GeV)> (Log Tail)         :     171.9703660    *  [MeV]      
      - <qq(2GeV)> (Integration)      :     244.4719602    *  [MeV]      
 
      - m(1GeV)                       :       6.1509217    *  [MeV]      
      - <qq(1GeV)> (Log Tail)         :     161.5629785    *  [MeV]      
      - <qq(1GeV)> (Integration)      :     229.6768854    *  [MeV]      
 
 -------------------------------------------------------------------------------------
 
  * DSE on complex plane, method 1: 
 
      - First Singularity at          :      -0.1784084    *  +          
                                      :       0.4448919    *  i          
      - Apex of BSE parabola          :       0.3288698    *             
      - 'Constituent quark mass'      :       0.5734717    *  [GeV]      
 
      - nx (BSE Parabola)             :             198    *             
      - ny (BSE Parabola)             :             201    *             
 
      - nx (BSE Parabola revised)     :             198    *             
      - ny (BSE Parabola revised)     :             201    *             
 
 -------------------------------------------------------------------------------------              
                                                                                                    
                                                                                                    
                                                                                                    
                                                                                                    
                                                                                                    
                                                                                                    
                                                                                                    
                                                                                                    
                                                                                                    
                                                                                                    
                                                                                                    
                                                                                                    
                                                                                                    
                                                                                                    
